%!PS-Adobe-1.0
%%DocumentFonts: 
%%Creator: troff->tpscript
%%CreationDate: Sun Nov  3 18:39:11 1996
%%Pages: (atend)
%%EndComments
/vmstat save def
initmatrix

0.1000 dup scale
clippath pathbbox pop pop exch pop 0 exch translate
clippath pathbbox /pgtop exch def pop pop pop
/page { copypage erasepage restore save home } def
/home { newpath 0 pgtop moveto } def
/mf { statusdict /manualfeed true put
 } def
/af { statusdict /manualfeed false put } def
af
0 0 moveto
2 setlinecap
/y { neg 0 exch rmoveto } def
/X { currentpoint exch pop moveto } def
/Y { pgtop exch sub currentpoint pop exch moveto } def
/s { show } def
/l { neg rlineto currentpoint stroke moveto } def
/c {
2 div /rad exch def currentpoint /y0 exch def /x0 exch def
newpath x0 rad add y0 rad 0 360 arc stroke
x0 rad add rad add y0 moveto
 } def
/a {
/y2 exch neg def /x2 exch def /y1 exch neg def /x1 exch def
x1 y1 rmoveto currentpoint
currentpoint
x2 x2 mul y2 y2 mul add sqrt
y1 neg x1 neg atan
y2 x2 atan
newpath arc stroke moveto x2 y2 rmoveto
} def
/e {
2 div /yrad exch def 2 div /xrad exch def
currentpoint /y0 exch def /x0 exch def
x0 xrad add y0 translate
xrad yrad scale
newpath 0 0 1 0 360 arc
savematrix setmatrix
stroke
x0 xrad add xrad add y0 moveto
} def
/spln {
rcurveto currentpoint stroke moveto
} def
/ft { /fonttype exch def /xsiz exch def /ysiz exch def /sl exch def
 fonttype [ xsiz pt 0 sl sin sl cos div ysiz pt mul ysiz pt 0 0 ]
 makefont setfont
 xsiz 1.7 div setlinewidth } def
/pt { 10 mul } def

-90 230 translate
/savematrix matrix currentmatrix def
/BracketFontDict 9 dict def /$workingdict 10 dict def
BracketFontDict begin
/FontType 3 def
/FontName (Bracket) cvn def
/FontMatrix [ 0.001 0 0 0.001 0 0] def
/FontBBox [ -50 -250 1000 1000 ] def
/Encoding 256 array def 0 1 255 { Encoding exch /.notdef put } for
Encoding
dup 65 /Cbv put
dup 66 /Clt put
dup 67 /Clk put
dup 68 /Clb put
dup 69 /Crt put
dup 70 /Crk put
dup 71 /Crb put
dup 72 /Clc put
dup 73 /Clf put
dup 74 /Crc put
dup 75 /Crf put
dup 76 /Cbr put
dup 77 /Crn put
dup 78 /Cci put
dup 79 /C|| put
dup 80 /C^^ put
dup 81 /Cr1 put
dup 82 /Cr2 put
pop
/CharProcs 24 dict dup begin
/setC { 0 -50 -250 500 1000 setcachedevice} def
/C.bv {220 -250 moveto 0 1000 rlineto
60 0 rlineto 0 -1000 rlineto fill } def
/C.barc { 750 moveto 180 0 rlineto 0 -60 rlineto -180 0 rlineto fill } def
/C.barf { -250 moveto 180 0 rlineto 0 60 rlineto -180 0 rlineto fill } def
/C.brk.end { 1 setlinewidth moveto rlineto rcurveto
reversepath 60 0 rlineto rlineto rcurveto fill } def
/C.setl {dup dtransform exch round exch idtransform pop setlinewidth } def
/Cbv {
500 setC
C.bv
} def
/Clt {
500 setC
  0 150 50 210 140 250   0 730  0 150 50 250 200 250   0 750   220 -250   C.brk.end
} def
/Clk {
500 setC
  1 setlinewidth  220 -250 moveto  0 400 rlineto  0 50 -50 100 -100 100 rcurveto  50 0 100 50 100 100 rcurveto  0 400 rlineto  60 0 rlineto  0 -400 rlineto  0 -50 -50 -100 -100 -100 rcurveto  50 0 100 -50 100 -100 rcurveto  0 -400 rlineto  closepath fill
} def
/Clb {
500 setC
  0 -150 50 -210 140 -250   0 -730  0 -150 50 -250 200 -250   0 -750   220 750   C.brk.end
} def
/Crt {
500 setC
  0 150 -50 250 -200 250   0 750   0 150 -50 210 -140 250   0 730  220 -250   C.brk.end
} def
/Crk {
500 setC
  1 setlinewidth  220 -250 moveto  0 400 rlineto  0 50 50 100 100 100 rcurveto  -50 0 -100 50 -100 100 rcurveto  0 400 rlineto  60 0 rlineto  0 -400 rlineto  0 -50 50 -100 100 -100 rcurveto  -50 0 -100 -50 -100 -100 rcurveto  0 -400 rlineto  fill
} def
/Crb {
500 setC
  0 -150 -50 -250 -200 -250   0 -750   0 -150 -50 -210 -140 -250   0 -730  220 750   C.brk.end
} def
/Clc {
500 setC
  C.bv   280   C.barc
} def
/Clf {
500 setC
  C.bv 280 C.barf
} def
/Crc {
500 setC
  C.bv 40 C.barc
} def
/Crf {
500 setC
  C.bv 40 C.barf
} def
/Cbr {
0 0 -50 -250 0 1000 setcachedevice
  40 C.setl  0 -250 moveto  0 1000 rlineto  stroke
} def
/Crn {
500 setC
  40 C.setl  0 895 moveto  500 0 rlineto  stroke
} def
/Cci {
1000 0 -50 -250 1000 1000 setcachedevice
  40 C.setl  500 250   400   0 360 arc   stroke
} def
/C|| {
170 0 -50 -250 170 1000 setcachedevice

} def
/C^^ {
80 0 -50 -250 80 1000 setcachedevice

} def
/Cr1 {
800 0 -50 -250 800 1000 setcachedevice
  40 C.setl  0 setlinejoin  700 180 moveto -650 currentlinewidth add 0 rlineto 200 -200 rlineto  50 360 moveto 650 currentlinewidth sub 0 rlineto -200 200 rlineto  stroke
} def
/Cr2 {
800 0 -50 -250 800 1000 setcachedevice
  40 C.setl  2 setlinejoin  217 18 moveto    -150 150 rlineto 150 150 rlineto -150 -150 rlineto  633 0 rlineto  50 360 moveto  633 0 rlineto  -150 150 rlineto 150 -150 rlineto -150 -150 rlineto  stroke
} def
end def
/BuildChar
{
	$workingdict begin
	/charcode exch def
	/fontdict exch def
	fontdict /CharProcs get begin
	fontdict /Encoding get
	charcode get load
	gsave
	0 setlinecap 0 setgray newpath
	exec
	grestore
	end end
} def end
/BracketFont BracketFontDict definefont pop
/f.R /Times-Roman findfont def
/f.I /Times-Italic findfont def
/f.B /Times-Bold findfont def
/f.BI /Times-BoldItalic findfont def
/f.H /Helvetica findfont def
/f.HB /Helvetica-Bold findfont def
/f.HO /Helvetica-Oblique findfont def
/f.HX /Helvetica-BoldOblique findfont def
/f.C /Courier findfont def
/f.CB /Courier-Bold findfont def
/f.CO /Courier-Oblique findfont def
/f.CX /Courier-BoldOblique findfont def
/f.BR /Bookman-Light findfont def
/f.BO /Bookman-LightItalic findfont def
/f.BB /Bookman-Demi findfont def
/f.BX /Bookman-DemiItalic findfont def
/f.S /Symbol findfont def
/f.S2 /BracketFont findfont def

0.0 10 10 f.R ft
save
home
%%EndProlog

0 Y
%%Page: 1 1

694 X
480 Y(splitlog)s
0.0 10 10 f.S2 ft(O)s
0.0 10 10 f.R ft(\()s
0.0 10 10 f.S2 ft(O)s
0.0 10 10 f.R ft(1)s
0.0 10 10 f.S2 ft(O)s
0.0 10 10 f.R ft(\))s
2586 X(USER COMMANDS )s
4906 X(splitlog)s
0.0 10 10 f.S2 ft(O)s
0.0 10 10 f.R ft(\()s
0.0 10 10 f.S2 ft(O)s
0.0 10 10 f.R ft(1)s
0.0 10 10 f.S2 ft(O)s
0.0 10 10 f.R ft(\))s
694 X
960 Y
0.0 9 9 f.B ft(NAME)s
992 X
0.0 9 9 f.S2 ft(O)s
1030 X(O)s
1068 X(O)s
1106 X(O)s
1144 X(O)s
694 X
1080 Y
1054 X
0.0 10 10 f.R ft(splitlog)s
1380 X(\261)s
1455 X(split)s
1653 X(WWW)s
1960 X(server)s
2228 X(\(httpd\))s
2525 X(access)s
2804 X(log\256les)s
694 X
1248 Y
0.0 9 9 f.B ft(SYNOPSIS)s
1157 X
0.0 9 9 f.S2 ft(O)s
1195 X(O)s
1233 X(O)s
1271 X(O)s
1309 X(O)s
694 X
1368 Y
1054 X
0.0 10 10 f.B ft(splitlog)s
1391 X
0.0 10 10 f.R ft([)s
0.0 10 10 f.B ft(\261f)s
1532 X
0.0 10 10 f.I ft(con\256g\256le)s
0.0 10 10 f.S2 ft(P)s
0.0 10 10 f.R ft(])s
1964 X([)s
0.0 10 10 f.I ft(options)s
0.0 10 10 f.S2 ft(P)s
0.0 10 10 f.R ft(...])s
2433 X([)s
0.0 10 10 f.B ft(--)s
0.0 10 10 f.R ft(])s
2590 X([)s
2648 X
0.0 10 10 f.I ft(log\256le)s
0.0 10 10 f.S2 ft(P)s
2931 X
0.0 10 10 f.R ft(|)s
2976 X
0.0 10 10 f.B ft(+)s
3058 X
0.0 10 10 f.R ft(|)s
3103 X
0.0 10 10 f.B ft(\261)s
3178 X
0.0 10 10 f.R ft(]...)s
694 X
1536 Y
0.0 9 9 f.B ft(DESCRIPTION)s
1342 X
0.0 9 9 f.S2 ft(O)s
1380 X(O)s
1418 X(O)s
1456 X(O)s
1494 X(O)s
694 X
1656 Y
1054 X
0.0 10 10 f.B ft(splitlog)s
1395 X
0.0 10 10 f.R ft(reads)s
1634 X(a)s
1707 X(sequence)s
2101 X(of)s
2213 X
0.0 10 10 f.B ft(httpd)s
2476 X
0.0 10 10 f.R ft(common)s
2855 X(log\256le)s
3140 X(format)s
3435 X(\(CLF\))s
3714 X(access_log)s
4174 X(\256les)s
4369 X(and/or)s
4652 X(the)s
4802 X(standard)s
5168 X(input)s
694 X
1776 Y
1054 X(and)s
1223 X(splits)s
1460 X(the)s
1607 X(log\256le)s
1888 X(entries)s
2179 X(into)s
2360 X(separate)s
2711 X(\256les)s
2903 X(according)s
3321 X(to)s
3424 X(the)s
3571 X(entry's)s
3873 X(requested)s
4280 X(URL)s
4505 X(or)s
4613 X(virtual)s
4899 X(host)s
5091 X(pre\256x.)s
694 X
1944 Y
1054 X
0.0 10 10 f.B ft(splitlog)s
1393 X
0.0 10 10 f.R ft(is)s
1487 X(intended)s
1858 X(to)s
1963 X(be)s
2084 X(run)s
2244 X(periodically)s
2748 X(by)s
2875 X(the)s
3024 X(webmaster)s
3483 X(as)s
3593 X(a)s
3664 X(means)s
3946 X(for)s
4089 X(providing)s
4505 X(individual)s
4937 X(log\256les)s
5258 X(for)s
694 X
2064 Y
1054 X(each)s
1267 X(of)s
1381 X(the)s
1534 X(customers)s
1970 X(of)s
2084 X(a)s
2159 X(server,)s
2458 X(since)s
2694 X(it)s
2780 X(is)s
2877 X(less)s
3057 X(e)s
/Cff {   (f) show xsiz pt 20 div neg 0 rmoveto (f) s } def

Cff(icient)s
3414 X(for)s
3560 X(the)s
3712 X(server)s
3985 X(itself)s
4215 X(to)s
4323 X(generate)s
4690 X(multiple)s
5054 X(log\256les.)s
694 X
2184 Y
1054 X
0.0 10 10 f.B ft(splitlog)s
1402 X
0.0 10 10 f.R ft(does)s
1621 X(not)s
1785 X(make)s
2037 X(any)s
2217 X(changes)s
2574 X(to)s
2688 X(the)s
2846 X(input)s
3088 X(\256le)s
3252 X(and)s
3432 X(can)s
3606 X(be)s
3735 X(con\256gured)s
4197 X(to)s
4310 X(write)s
4550 X(the)s
4707 X(split)s
4915 X(\256les)s
5117 X(in)s
5230 X(any)s
694 X
2304 Y
1054 X(directory.)s
1470 X(By)s
1618 X(default,)s
1951 X(a)s
2026 X(cached)s
2333 X(DNS)s
2564 X(lookup)s
2873 X(is)s
2971 X(performed)s
3416 X(on)s
3546 X(any)s
3720 X(IP)s
3839 X(addresses)s
4251 X(which)s
4525 X(are)s
4676 X(unresolved)s
5144 X(in)s
5252 X(the)s
694 X
2424 Y
1054 X(input)s
1305 X(\256le.)s
1528 X(The)s
1728 X(log)s
1901 X(entries)s
2212 X(can)s
2395 X(also)s
2601 X(be)s
2740 X(anonymized)s
3273 X(if)s
3379 X(there)s
3623 X(are)s
3789 X(concerns)s
4188 X(about)s
4454 X(the)s
4620 X(requesting)s
5080 X(clients')s
694 X
2544 Y
1054 X(privacy.)s
694 X
2712 Y
1054 X
0.0 10 10 f.B ft(splitlog)s
1399 X
0.0 10 10 f.R ft(is)s
1498 X(a)s
1574 X
0.0 10 10 f.B ft(perl)s
1778 X
0.0 10 10 f.R ft(script,)s
2057 X(which)s
2333 X(means)s
2620 X(you)s
2802 X(need)s
3022 X(to)s
3132 X(have)s
3352 X(a)s
3428 X
0.0 10 10 f.B ft(perl)s
3632 X
0.0 10 10 f.R ft(interpreter)s
4079 X(to)s
4189 X(run)s
4354 X(the)s
4508 X(program.)s
4928 X(It)s
5021 X(has)s
5186 X(been)s
694 X
2832 Y
1054 X(tested)s
1312 X(with)s
1515 X
0.0 10 10 f.B ft(perl)s
1712 X
0.0 10 10 f.R ft(versions)s
2070 X(4.036)s
2320 X(and)s
2489 X(5.002.)s
694 X
3000 Y
0.0 9 9 f.B ft(OPTIONS)s
1122 X
0.0 9 9 f.S2 ft(O)s
1160 X(O)s
1198 X(O)s
1236 X(O)s
1274 X(O)s
694 X
3120 Y
874 X
0.0 9 9 f.B ft(Con\256guration)s
1437 X
0.0 9 9 f.S2 ft(O)s
0.0 9 9 f.B ft(Options)s
1780 X
0.0 9 9 f.S2 ft(O)s
1818 X(O)s
1856 X(O)s
1894 X(O)s
694 X
3240 Y
1054 X
0.0 10 10 f.R ft(These)s
1317 X(options)s
1637 X(de\256ne)s
1906 X(how)s
2103 X
0.0 10 10 f.B ft(splitlog)s
2440 X
0.0 10 10 f.R ft(should)s
2732 X(establish)s
3107 X(defaults)s
3448 X(and)s
3617 X(interpret)s
3980 X(the)s
4127 X(command-line.)s
694 X
3408 Y
1054 X
0.0 10 10 f.B ft(\261f)s
1162 X
0.0 10 10 f.I ft(\256lename)s
694 X
3528 Y
1414 X
0.0 10 10 f.R ft(Get)s
1590 X(the)s
1743 X(con\256guration)s
2307 X(defaults)s
2654 X(from)s
2879 X(the)s
3032 X(given)s
3285 X(\256le.)s
3494 X(If)s
3591 X(used,)s
3830 X(this)s
4006 X
0.0 10 10 f.B ft(must)s
4248 X
0.0 10 10 f.R ft(be)s
4373 X(the)s
4526 X(\256rst)s
4713 X(argument)s
5121 X(on)s
5252 X(the)s
694 X
3648 Y
1414 X(command-line,)s
2067 X(since)s
2323 X(it)s
2430 X(needs)s
2708 X(to)s
2837 X(be)s
2982 X(interpreted)s
3465 X(before)s
3770 X(the)s
3943 X(other)s
4199 X(command)s
4644 X(options.)s
5040 X(The)s
5246 X(\256le)s
694 X
3768 Y
1414 X
0.0 10 10 f.B ft(splitlog.rc)s
1868 X
0.0 10 10 f.R ft(is)s
1964 X(included)s
2337 X(with)s
2544 X(the)s
2695 X(distribution)s
3186 X(as)s
3297 X(an)s
3419 X(example)s
3785 X(of)s
3896 X(this)s
4069 X(\256le;)s
4253 X(it)s
4337 X(contains)s
4698 X
0.0 10 10 f.B ft(perl)s
4898 X
0.0 10 10 f.R ft(source)s
5186 X(code)s
694 X
3888 Y
1414 X(which)s
1685 X(directly)s
2016 X(sets)s
2192 X(the)s
2340 X(control)s
2649 X(and)s
2819 X(display)s
3134 X(options)s
3455 X(provided)s
3836 X(by)s
3962 X
0.0 10 10 f.B ft(splitlog)s
4300 X
0.0 10 10 f.R ft(and)s
4470 X(contains)s
4829 X(a)s
4899 X(function)s
5258 X(for)s
694 X
4008 Y
1414 X(altering)s
1749 X(the)s
1901 X(split)s
2104 X(log\256le)s
2390 X(name-selection)s
3024 X(algorithm.)s
3493 X(If)s
3589 X
0.0 10 10 f.I ft(\256lename)s
3957 X
0.0 10 10 f.R ft(is)s
4054 X(not)s
4212 X(a)s
4286 X(pathname,)s
4728 X(the)s
4879 X(include)s
5202 X(path)s
694 X
4128 Y
1414 X(\(see)s
1608 X
0.0 10 10 f.B ft(FILES)s
0.0 10 10 f.R ft(\))s
1965 X(is)s
2066 X(searched)s
2448 X(for)s
2598 X
0.0 10 10 f.I ft(\256lename)s
0.0 10 10 f.S2 ft(P)s
0.0 10 10 f.R ft(.)s
3028 X(An)s
3184 X(empty)s
3468 X(string)s
3729 X(as)s
3845 X
0.0 10 10 f.I ft(\256lename)s
4216 X
0.0 10 10 f.R ft(will)s
4405 X(disable)s
4721 X(this)s
4899 X(feature.)s
5258 X([)s
0.0 10 10 f.B ft(\261f)s
694 X
4248 Y
1414 X
0.0 10 10 f.R ft("splitlog.rc"])s
694 X
4416 Y
1054 X
0.0 10 10 f.B ft(--)s
1414 X
0.0 10 10 f.R ft(Last)s
1611 X(option)s
1892 X(\(the)s
2072 X(remaining)s
2502 X(arguments)s
2943 X(are)s
3089 X(treated)s
3385 X(as)s
3493 X(input)s
3724 X(\256les\).)s
694 X
4584 Y
874 X
0.0 9 9 f.B ft(Diagnostic)s
1302 X
0.0 9 9 f.S2 ft(O)s
0.0 9 9 f.B ft(Options)s
1645 X
0.0 9 9 f.S2 ft(O)s
1683 X(O)s
1721 X(O)s
1759 X(O)s
694 X
4704 Y
1054 X
0.0 10 10 f.R ft(These)s
1333 X(options)s
1669 X(provide)s
2015 X(information)s
2528 X(about)s
2791 X
0.0 10 10 f.B ft(splitlog)s
3144 X
0.0 10 10 f.R ft(usage)s
3412 X(or)s
3536 X(about)s
3798 X(some)s
4049 X(unusual)s
4400 X(aspects)s
4728 X(of)s
4851 X(the)s
5013 X(log\256le\(s\))s
694 X
4824 Y
1054 X(being)s
1301 X(processed.)s
694 X
4992 Y
1054 X
0.0 10 10 f.B ft(\261h)s
1414 X
0.0 10 10 f.R ft(Help)s
1633 X(\320)s
1758 X(display)s
2072 X(usage)s
2324 X(information)s
2821 X(to)s
2924 X(STDERR)s
3333 X(and)s
3502 X(then)s
3699 X(exit.)s
694 X
5160 Y
1054 X
0.0 10 10 f.B ft(\261e)s
1414 X
0.0 10 10 f.R ft(Display)s
1752 X(to)s
1857 X(STDERR)s
2268 X(all)s
2395 X(invalid)s
2700 X(log)s
2855 X(entries.)s
3173 X(Invalid)s
3483 X(log)s
3638 X(entries)s
3931 X(can)s
4096 X(occur)s
4343 X(if)s
4430 X(the)s
4578 X(server)s
4847 X(is)s
4940 X(miswriting)s
694 X
5280 Y
1414 X(or)s
1533 X(overwriting)s
2035 X(its)s
2166 X(own)s
2374 X(log,)s
2563 X(if)s
2660 X(the)s
2818 X(request)s
3142 X(is)s
3245 X(made)s
3497 X(by)s
3633 X(a)s
3712 X(broken)s
4024 X(client)s
4281 X(or)s
4399 X(proxy,)s
4692 X(or)s
4810 X(if)s
4906 X(a)s
4985 X(malicious)s
694 X
5400 Y
1414 X(attacker)s
1754 X(is)s
1846 X(trying)s
2110 X(to)s
2213 X(gain)s
2410 X(privileged)s
2840 X(access)s
3119 X(to)s
3222 X(your)s
3430 X(system.)s
694 X
5568 Y
874 X
0.0 9 9 f.B ft(Process)s
1187 X
0.0 9 9 f.S2 ft(O)s
0.0 9 9 f.B ft(Options)s
1530 X
0.0 9 9 f.S2 ft(O)s
1568 X(O)s
1606 X(O)s
1644 X(O)s
694 X
5688 Y
1054 X
0.0 10 10 f.R ft(These)s
1317 X(options)s
1637 X(modify)s
1951 X(how)s
2148 X(and)s
2317 X(where)s
2585 X(log\256le)s
2866 X(entries)s
3157 X(are)s
3303 X(written.)s
694 X
5856 Y
1054 X
0.0 10 10 f.B ft(\261x)s
1414 X
0.0 10 10 f.R ft(Discard)s
1788 X(any)s
1996 X(log\256le)s
2316 X(entries)s
2646 X(without)s
3016 X(a)s
3123 X(\256lename)s
3530 X(key)s
3737 X(instead)s
4083 X(of)s
4229 X(placing)s
4586 X(them)s
4849 X(in)s
4990 X(a)s
5097 X(special)s
694 X
5976 Y
1414 X(OTHERS.log.)s
694 X
6144 Y
1054 X
0.0 10 10 f.B ft(\261v)s
1414 X
0.0 10 10 f.R ft(Use)s
1613 X(a)s
1701 X(pre\256x)s
1978 X(of)s
2105 X(the)s
2270 X(input)s
2519 X(\256le)s
2690 X(entries)s
2999 X(\(ended)s
3313 X(by)s
3456 X(the)s
3621 X(\256rst)s
3820 X(":")s
3973 X(or)s
4099 X(space\))s
4396 X(for)s
4555 X(selecting)s
4953 X(the)s
5118 X(output)s
694 X
6264 Y
1414 X(\256lename)s
1791 X(instead)s
2107 X(of,)s
2248 X(or)s
2364 X(in)s
2475 X(addition)s
2836 X(to,)s
2972 X(the)s
3127 X(URL)s
3360 X(path.)s
3615 X(The)s
3803 X(most)s
4030 X(likely)s
4290 X(use)s
4455 X(for)s
4603 X(such)s
4818 X(a)s
4894 X(pre\256x)s
5159 X(is)s
5258 X(for)s
694 X
6384 Y
1414 X(the)s
1561 X(requested)s
1968 X(virtual)s
2254 X(host.)s
694 X
6552 Y
1054 X
0.0 10 10 f.B ft(\261dir)s
1257 X
0.0 10 10 f.I ft(directory)s
694 X
6672 Y
1414 X
0.0 10 10 f.R ft(Place)s
1655 X(the)s
1802 X(output)s
2083 X(log\256les)s
2403 X(in)s
2506 X(the)s
2653 X(given)s
2900 X(directory)s
3285 X(instead)s
3593 X(of)s
3701 X(the)s
3848 X(current)s
4155 X(working)s
4513 X(directory.)s
694 X
6840 Y
1054 X
0.0 10 10 f.B ft(\261anon)s
1341 X
0.0 10 10 f.I ft(imu)s
694 X
6960 Y
1414 X
0.0 10 10 f.R ft(Anonymize)s
1908 X(the)s
2058 X(log\256le)s
2341 X(entries)s
2634 X(before)s
2915 X(writing)s
3231 X(them)s
3458 X(to)s
3563 X(split)s
3763 X(logs.)s
4007 X(The)s
4189 X(value)s
4432 X(is)s
4526 X(some)s
4764 X(combination)s
5291 X(of)s
694 X
7080 Y
1414 X(the)s
1567 X(letters)s
1842 X("i")s
1983 X(\(ident)s
2247 X(\256eld)s
2456 X(is)s
2553 X(removed\),)s
2990 X("m")s
3180 X(\(machine)s
3581 X(name)s
3827 X(is)s
3924 X(replaced)s
4291 X(with)s
4499 X(ANON)s
4817 X(or)s
4930 X(0\),)s
5068 X(and)s
5242 X("u")s
694 X
7200 Y
1414 X(\(authentication)s
2038 X(userid)s
2307 X(\256eld)s
2510 X(is)s
2602 X(removed\).)s
694 X
7680 Y(Sun Release 4.1)s
2382 X(Last change: 03 November 1996)s
5324 X(1)s
7920 Y
page
0.0 10 10 f.R ft
%%Page: 2 2

694 X
480 Y(splitlog)s
0.0 10 10 f.S2 ft(O)s
0.0 10 10 f.R ft(\()s
0.0 10 10 f.S2 ft(O)s
0.0 10 10 f.R ft(1)s
0.0 10 10 f.S2 ft(O)s
0.0 10 10 f.R ft(\))s
2586 X(USER COMMANDS )s
4906 X(splitlog)s
0.0 10 10 f.S2 ft(O)s
0.0 10 10 f.R ft(\()s
0.0 10 10 f.S2 ft(O)s
0.0 10 10 f.R ft(1)s
0.0 10 10 f.S2 ft(O)s
0.0 10 10 f.R ft(\))s
694 X
960 Y
1054 X
0.0 10 10 f.B ft(\261dns)s
694 X
1080 Y
1054 X(\261nodns)s
1414 X
0.0 10 10 f.R ft(Do)s
1589 X(\()s
0.0 10 10 f.B ft(\261dns)s
0.0 10 10 f.R ft(\))s
1909 X(or)s
2045 X(don't)s
2309 X(\()s
0.0 10 10 f.B ft(\261nodns)s
0.0 10 10 f.R ft(\))s
2735 X(use)s
2921 X(the)s
3096 X(system's)s
3499 X(hostname)s
3935 X(lookup)s
4266 X(facilities)s
4662 X(to)s
4792 X(\256nd)s
5000 X(the)s
5174 X(DNS)s
694 X
1200 Y
1414 X(hostname)s
1837 X(associated)s
2287 X(with)s
2505 X(any)s
2689 X(unresolved)s
3167 X(IP)s
3296 X(addresses.)s
3743 X(Looking)s
4122 X(up)s
4262 X(a)s
4346 X(DNS)s
4586 X(name)s
4842 X(may)s
5053 X(be)s
5186 X
0.0 10 10 f.B ft(very)s
694 X
1320 Y
1414 X
0.0 10 10 f.R ft(slow,)s
1654 X(particularly)s
2140 X(when)s
2382 X(the)s
2530 X(results)s
2817 X(are)s
2964 X(negative)s
3328 X(\(no)s
3487 X(DNS)s
3713 X(name\),)s
4013 X(which)s
4283 X(is)s
4376 X(why)s
4574 X(a)s
4644 X(caching)s
4980 X(capability)s
694 X
1440 Y
1414 X(is)s
1506 X(included)s
1875 X(as)s
1983 X(well.)s
2230 X([)s
0.0 10 10 f.B ft(\261dns)s
0.0 10 10 f.R ft(])s
694 X
1608 Y
1054 X
0.0 10 10 f.B ft(\261cache)s
1367 X
0.0 10 10 f.I ft(\256lename)s
694 X
1728 Y
1414 X
0.0 10 10 f.R ft(Use)s
1599 X(the)s
1751 X(given)s
2003 X(DBM)s
2261 X(database)s
2634 X(as)s
2747 X(the)s
2899 X(read/write)s
3333 X(persistent)s
3746 X(DNS)s
3976 X(cache)s
4232 X(\(the)s
4416 X(.dir)s
4581 X(and)s
4754 X(.pag)s
4952 X(extensions)s
694 X
1848 Y
1414 X(are)s
1578 X(appended)s
2003 X(automatically\).)s
2648 X(Cached)s
2990 X(entries)s
3299 X(\(including)s
3753 X(negative)s
4134 X(results\))s
4471 X(are)s
4635 X(removed)s
5027 X(after)s
5252 X(the)s
694 X
1968 Y
1414 X(time)s
1620 X(con\256gured)s
2075 X(for)s
2219 X($DNSexpires)s
2785 X([two)s
2996 X(months].)s
3402 X(No)s
3552 X(caching)s
3890 X(is)s
3985 X(performed)s
4428 X(if)s
4516 X
0.0 10 10 f.I ft(\256lename)s
4881 X
0.0 10 10 f.R ft(is)s
4975 X(the)s
5124 X(empty)s
694 X
2088 Y
1414 X(string,)s
1713 X(which)s
2003 X(may)s
2221 X(be)s
2361 X(needed)s
2689 X(if)s
2795 X(your)s
3023 X(system)s
3346 X(does)s
3574 X(not)s
3747 X(support)s
4092 X(DBM)s
4365 X(or)s
4493 X(NDBM)s
4838 X(functionality.)s
694 X
2208 Y
1414 X(Running)s
1784 X
0.0 10 10 f.B ft(\261dns)s
2010 X
0.0 10 10 f.R ft(without)s
2341 X(a)s
2410 X(persistent)s
2818 X(cache)s
3069 X(is)s
3161 X(not)s
3314 X(recommended.)s
3954 X([)s
0.0 10 10 f.B ft(\261cache)s
4300 X
0.0 10 10 f.R ft("dnscache"])s
694 X
2376 Y
874 X
0.0 9 9 f.B ft(Search)s
1162 X
0.0 9 9 f.S2 ft(O)s
0.0 9 9 f.B ft(Options)s
1505 X
0.0 9 9 f.S2 ft(O)s
1543 X(O)s
1581 X(O)s
1619 X(O)s
694 X
2496 Y
1054 X
0.0 10 10 f.R ft(These)s
1323 X(options)s
1649 X(are)s
1801 X(used)s
2015 X(to)s
2124 X(include)s
2449 X(or)s
2563 X(exclude)s
2904 X(log\256le)s
3191 X(entries)s
3488 X(from)s
3713 X(being)s
3965 X(output)s
4251 X(according)s
4674 X(to)s
4782 X(whether)s
5133 X(or)s
5246 X(not)s
694 X
2616 Y
1054 X(they)s
1259 X(match)s
1536 X(a)s
1613 X(given)s
1867 X(pattern.)s
2226 X(The)s
2413 X(pattern)s
2722 X(is)s
2821 X(supplied)s
3192 X(in)s
3302 X(the)s
3456 X(form)s
3682 X(of)s
3797 X(a)s
3873 X
0.0 10 10 f.B ft(perl)s
4077 X(regular)s
4425 X(expression)s
0.0 10 10 f.R ft(,)s
4932 X(except)s
5224 X(that)s
694 X
2736 Y
1054 X(the)s
1216 X(characters)s
1659 X("+")s
1837 X(and)s
2020 X(".")s
2166 X(are)s
2326 X(escaped)s
2680 X(automatically)s
3263 X(unless)s
3552 X(the)s
3713 X
0.0 10 10 f.B ft(\261noescape)s
4185 X
0.0 10 10 f.R ft(option)s
4480 X(is)s
4586 X(given.)s
4897 X(Enclose)s
5252 X(the)s
694 X
2856 Y
1054 X(pattern)s
1363 X(in)s
1472 X(single-quotes)s
2036 X(to)s
2145 X(prevent)s
2475 X(the)s
2628 X(command)s
3053 X(shell)s
3273 X(from)s
3498 X(interpreting)s
3995 X(some)s
4237 X(special)s
4545 X(characters.)s
5029 X(Multiple)s
694 X
2976 Y
1054 X(occurrences)s
1554 X(of)s
1662 X(the)s
1809 X(same)s
2039 X(option)s
2320 X(results)s
2606 X(in)s
2709 X(an)s
2828 X(OR-ing)s
3153 X(of)s
3261 X(the)s
3408 X(regular)s
3715 X(expressions.)s
694 X
3144 Y
1054 X
0.0 10 10 f.B ft(\261a)s
1179 X
0.0 10 10 f.I ft(regexp)s
694 X
3264 Y
1054 X
0.0 10 10 f.B ft(\261A)s
1201 X
0.0 10 10 f.I ft(regexp)s
694 X
3384 Y
1414 X
0.0 10 10 f.R ft(Include)s
1739 X(\()s
0.0 10 10 f.B ft(\261a)s
0.0 10 10 f.R ft(\))s
1930 X(or)s
2038 X(exclude)s
2373 X(\()s
0.0 10 10 f.B ft(\261A)s
0.0 10 10 f.R ft(\))s
2586 X(all)s
2711 X(requests)s
3063 X(containing)s
3510 X(a)s
3579 X(hostname/IP)s
4104 X(address)s
4428 X(matching)s
4825 X(the)s
4972 X(given)s
5219 X(perl)s
694 X
3504 Y
1414 X(regular)s
1721 X(expression.)s
694 X
3672 Y
1054 X
0.0 10 10 f.B ft(\261c)s
1173 X
0.0 10 10 f.I ft(regexp)s
694 X
3792 Y
1054 X
0.0 10 10 f.B ft(\261C)s
1201 X
0.0 10 10 f.I ft(regexp)s
694 X
3912 Y
1414 X
0.0 10 10 f.R ft(Include)s
1739 X(\()s
0.0 10 10 f.B ft(\261c)s
0.0 10 10 f.R ft(\))s
1925 X(or)s
2034 X(exclude)s
2370 X(\()s
0.0 10 10 f.B ft(\261C)s
0.0 10 10 f.R ft(\))s
2584 X(all)s
2710 X(requests)s
3063 X(resulting)s
3439 X(in)s
3543 X(an)s
3663 X
0.0 10 10 f.B ft(HTTP)s
3962 X
0.0 10 10 f.R ft(status)s
4215 X(code)s
4428 X(matching)s
4825 X(the)s
4972 X(given)s
5219 X(perl)s
694 X
4032 Y
1414 X(regular)s
1721 X(expression.)s
694 X
4200 Y
1054 X
0.0 10 10 f.B ft(\261d)s
1185 X
0.0 10 10 f.I ft(regexp)s
694 X
4320 Y
1054 X
0.0 10 10 f.B ft(\261D)s
1201 X
0.0 10 10 f.I ft(regexp)s
694 X
4440 Y
1414 X
0.0 10 10 f.R ft(Include)s
1746 X(\()s
0.0 10 10 f.B ft(\261d)s
0.0 10 10 f.R ft(\))s
1951 X(or)s
2067 X(exclude)s
2410 X(\()s
0.0 10 10 f.B ft(\261D)s
0.0 10 10 f.R ft(\))s
2631 X(all)s
2764 X(requests)s
3124 X(occurring)s
3539 X(on)s
3672 X(a)s
3749 X(date)s
3948 X(\(e.g.,)s
4183 X("Feb)s
4407 X(02)s
4540 X(1994"\))s
4847 X(matching)s
5252 X(the)s
694 X
4560 Y
1414 X(given)s
1661 X(perl)s
1841 X(regular)s
2148 X(expression.)s
694 X
4728 Y
1054 X
0.0 10 10 f.B ft(\261t)s
1162 X
0.0 10 10 f.I ft(regexp)s
694 X
4848 Y
1054 X
0.0 10 10 f.B ft(\261T)s
1196 X
0.0 10 10 f.I ft(regexp)s
694 X
4968 Y
1414 X
0.0 10 10 f.R ft(Include)s
1749 X(\()s
0.0 10 10 f.B ft(\261t)s
0.0 10 10 f.R ft(\))s
1934 X(or)s
2053 X(exclude)s
2399 X(\()s
0.0 10 10 f.B ft(\261T)s
0.0 10 10 f.R ft(\))s
2618 X(all)s
2754 X(requests)s
3117 X(occurring)s
3535 X(during)s
3832 X(the)s
3990 X(hour)s
4209 X(\(e.g.,)s
4446 X("23")s
4663 X(is)s
4765 X(11pm)s
5028 X(\261)s
5113 X(12pm\))s
694 X
5088 Y
1414 X(matching)s
1811 X(the)s
1958 X(given)s
2205 X(perl)s
2385 X(regular)s
2692 X(expression.)s
694 X
5256 Y
1054 X
0.0 10 10 f.B ft(\261m)s
1212 X
0.0 10 10 f.I ft(regexp)s
694 X
5376 Y
1054 X
0.0 10 10 f.B ft(\261M)s
1223 X
0.0 10 10 f.I ft(regexp)s
694 X
5496 Y
1414 X
0.0 10 10 f.R ft(Include)s
1748 X(\()s
0.0 10 10 f.B ft(\261m)s
0.0 10 10 f.R ft(\))s
1982 X(or)s
2100 X(exclude)s
2445 X(\()s
0.0 10 10 f.B ft(\261M)s
0.0 10 10 f.R ft(\))s
2690 X(all)s
2825 X(requests)s
3187 X(using)s
3438 X(an)s
3566 X(HTTP)s
3850 X(method)s
4184 X(\(e.g.,)s
4420 X("HEAD"\))s
4846 X(matching)s
5252 X(the)s
694 X
5616 Y
1414 X(given)s
1661 X(perl)s
1841 X(regular)s
2148 X(expression.)s
694 X
5784 Y
1054 X
0.0 10 10 f.B ft(\261n)s
1185 X
0.0 10 10 f.I ft(regexp)s
694 X
5904 Y
1054 X
0.0 10 10 f.B ft(\261N)s
1201 X
0.0 10 10 f.I ft(regexp)s
694 X
6024 Y
1414 X
0.0 10 10 f.R ft(Include)s
1739 X(\()s
0.0 10 10 f.B ft(\261n)s
0.0 10 10 f.R ft(\))s
1937 X(or)s
2046 X(exclude)s
2382 X(\()s
0.0 10 10 f.B ft(\261N)s
0.0 10 10 f.R ft(\))s
2596 X(all)s
2722 X(requests)s
3075 X(on)s
3201 X(a)s
3271 X(URL)s
3496 X(\(archive)s
3847 X(name\))s
4121 X(matching)s
4518 X(the)s
4665 X(given)s
4912 X(perl)s
5092 X(regular)s
694 X
6144 Y
1414 X(expression.)s
694 X
6312 Y
1054 X
0.0 10 10 f.B ft(\261noescape)s
694 X
6432 Y
1414 X
0.0 10 10 f.R ft(Do)s
1561 X(not)s
1714 X(escape)s
2004 X(the)s
2151 X(special)s
2453 X(characters)s
2881 X(\("+")s
3077 X(and)s
3246 X("."\))s
3411 X(in)s
3514 X(the)s
3661 X(remaining)s
4091 X(search)s
4370 X(options.)s
694 X
6600 Y
0.0 9 9 f.B ft(INPUT)s
997 X
0.0 9 9 f.S2 ft(O)s
1035 X(O)s
1073 X(O)s
1111 X(O)s
1149 X(O)s
694 X
6720 Y
1054 X
0.0 10 10 f.R ft(After)s
1291 X(parsing)s
1611 X(the)s
1759 X(options,)s
2105 X(the)s
2253 X(remaining)s
2684 X(arguments)s
3126 X(on)s
3252 X(the)s
3400 X(command-line)s
4003 X(are)s
4150 X(treated)s
4447 X(as)s
4556 X(input)s
4788 X(arguments)s
5230 X(and)s
694 X
6840 Y
1054 X(are)s
1200 X(read)s
1396 X(in)s
1499 X(the)s
1646 X(order)s
1881 X(given.)s
2178 X(If)s
2269 X(no)s
2394 X(input)s
2625 X(arguments)s
3066 X(are)s
3212 X(given,)s
3484 X(the)s
3631 X(con\256gured)s
4083 X(default)s
4385 X(log\256le)s
4666 X(is)s
4758 X(read)s
4954 X([)s
0.0 10 10 f.B ft(+)s
0.0 10 10 f.R ft(].)s
694 X
7008 Y
1054 X
0.0 10 10 f.B ft(\261)s
1414 X
0.0 10 10 f.R ft(Read)s
1644 X(from)s
1863 X(standard)s
2226 X(input)s
2457 X(\(STDIN\).)s
694 X
7176 Y
1054 X
0.0 10 10 f.B ft(+)s
1414 X
0.0 10 10 f.R ft(Read)s
1644 X(the)s
1791 X(default)s
2093 X(log\256le.)s
2399 X([as)s
2540 X(con\256gured])s
694 X
7680 Y(Sun Release 4.1)s
2382 X(Last change: 03 November 1996)s
5324 X(2)s
7920 Y
page
0.0 10 10 f.R ft
%%Page: 3 3

694 X
480 Y(splitlog)s
0.0 10 10 f.S2 ft(O)s
0.0 10 10 f.R ft(\()s
0.0 10 10 f.S2 ft(O)s
0.0 10 10 f.R ft(1)s
0.0 10 10 f.S2 ft(O)s
0.0 10 10 f.R ft(\))s
2586 X(USER COMMANDS )s
4906 X(splitlog)s
0.0 10 10 f.S2 ft(O)s
0.0 10 10 f.R ft(\()s
0.0 10 10 f.S2 ft(O)s
0.0 10 10 f.R ft(1)s
0.0 10 10 f.S2 ft(O)s
0.0 10 10 f.R ft(\))s
694 X
960 Y
1054 X
0.0 10 10 f.I ft(log\256le)s
0.0 10 10 f.S2 ft(P)s
0.0 10 10 f.R ft(...)s
694 X
1080 Y
1414 X(Read)s
1647 X(the)s
1797 X(given)s
2047 X(log\256le.)s
2381 X(If)s
2475 X(the)s
2625 X
0.0 10 10 f.I ft(log\256le)s
0.0 10 10 f.S2 ft(P)s
0.0 10 10 f.R ft('s)s
2983 X(extension)s
3394 X(indicates)s
3777 X(that)s
3955 X(is)s
4050 X(is)s
4145 X(compressed)s
4644 X(\(gz|z|Z\),)s
5002 X(then)s
5202 X(pipe)s
694 X
1200 Y
1414 X(it)s
1495 X(through)s
1831 X(the)s
1978 X(con\256gured)s
2430 X(decompression)s
3054 X(program)s
3417 X([)s
0.0 10 10 f.B ft(gunzip)s
3765 X(\261c)s
0.0 10 10 f.R ft(])s
3917 X(\256rst.)s
694 X
1368 Y
0.0 9 9 f.B ft(USAGE)s
1027 X
0.0 9 9 f.S2 ft(O)s
1065 X(O)s
1103 X(O)s
1141 X(O)s
1179 X(O)s
694 X
1488 Y
1054 X
0.0 10 10 f.R ft(In)s
1174 X(most)s
1406 X(cases,)s
1678 X
0.0 10 10 f.B ft(splitlog)s
2027 X
0.0 10 10 f.R ft(is)s
2131 X(run)s
2301 X(on)s
2438 X(a)s
2518 X(periodic)s
2881 X(basis)s
3117 X(by)s
3253 X(a)s
3333 X(wrapper)s
3695 X(program)s
4069 X(as)s
4188 X(a)s
4268 X
0.0 10 10 f.B ft(crontab)s
4637 X
0.0 10 10 f.R ft(entry)s
4878 X(shortly)s
5192 X(after)s
694 X
1608 Y
1054 X(midnight,)s
1477 X(typically)s
1863 X(in)s
1977 X(conjunction)s
2485 X(with)s
2699 X(rotating)s
3046 X(the)s
3204 X(current)s
3522 X(log\256le.)s
3864 X(The)s
4054 X
0.0 10 10 f.B ft(\261D)s
4211 X(today)s
4485 X
0.0 10 10 f.R ft(option)s
4776 X(can)s
4949 X(be)s
5078 X(used)s
5296 X(to)s
694 X
1728 Y
1054 X(split)s
1252 X(the)s
1399 X(main)s
1624 X(log\256le)s
1905 X(on)s
2030 X(a)s
2099 X(daily)s
2324 X(basis)s
2549 X(without)s
2880 X(rotation.)s
694 X
1896 Y
1054 X(All)s
1215 X(of)s
1331 X(the)s
1486 X(command-line)s
2096 X(options,)s
2449 X(and)s
2625 X(a)s
2701 X(few)s
2882 X(options)s
3209 X(that)s
3391 X(are)s
3544 X(not)s
3704 X(available)s
4096 X(from)s
4322 X(the)s
4476 X(command-line,)s
5110 X(can)s
5280 X(be)s
694 X
2016 Y
1054 X(changed)s
1411 X(within)s
1692 X(the)s
1839 X(user)s
2030 X(con\256guration)s
2588 X(\256le)s
2741 X(\(see)s
2926 X
0.0 10 10 f.B ft(splitlog.rc)s
0.0 10 10 f.R ft(\).)s
3459 X(This)s
3662 X(\256le)s
3815 X(is)s
3907 X(actually)s
4248 X(a)s
4317 X
0.0 10 10 f.B ft(perl)s
4514 X
0.0 10 10 f.R ft(library)s
4805 X(module)s
5130 X(which)s
694 X
2136 Y
1054 X(is)s
1161 X(executed)s
1554 X(as)s
1676 X(part)s
1870 X(of)s
1992 X(the)s
2153 X(program's)s
2602 X(initialization.)s
3197 X(The)s
3391 X(example)s
3768 X(provided)s
4162 X(with)s
4379 X(the)s
4540 X(distribution)s
5041 X(includes)s
694 X
2256 Y
1054 X(complete)s
1447 X(documentation)s
2068 X(on)s
2195 X(what)s
2416 X(variables)s
2803 X(can)s
2968 X(be)s
3089 X(set)s
3227 X(and)s
3398 X(their)s
3608 X(range)s
3856 X(of)s
3966 X(values.)s
4298 X(If)s
4391 X(the)s
4540 X(default)s
4843 X(algorithm)s
5258 X(for)s
694 X
2376 Y
1054 X(selecting)s
1439 X(the)s
1591 X(split)s
1794 X(log\256le)s
2080 X(name)s
2326 X(isn't)s
2533 X(desired,)s
2875 X(or)s
2987 X(if)s
3077 X(some)s
3317 X(set)s
3457 X(of)s
3569 X(names)s
3853 X(should)s
4149 X(be)s
4272 X(combined)s
4695 X(into)s
4880 X(a)s
4953 X(single)s
5221 X(\256le,)s
694 X
2496 Y
1054 X(then)s
1251 X(uncomment)s
1748 X(the)s
1895 X(user_path_map\(\))s
2596 X(function)s
2954 X(and)s
3123 X(de\256ne)s
3392 X(your)s
3600 X(own)s
3797 X(name-selection)s
4426 X(algorithm.)s
694 X
2664 Y
1054 X(The)s
1241 X
0.0 10 10 f.B ft(wwwstat)s
1644 X
0.0 10 10 f.R ft(program)s
2014 X(can)s
2184 X(be)s
2310 X(used)s
2525 X(to)s
2635 X(analyze)s
2971 X(the)s
3125 X(resulting)s
3507 X(log\256les.)s
3859 X(See)s
4035 X
0.0 10 10 f.B ft(wwwstat)s
4438 X
0.0 10 10 f.R ft(for)s
4586 X(a)s
4662 X(description)s
5138 X(of)s
5252 X(the)s
694 X
2784 Y
1054 X(common)s
1429 X(log\256le)s
1710 X(format.)s
694 X
2952 Y
874 X
0.0 9 9 f.B ft(Perl)s
1057 X
0.0 9 9 f.S2 ft(O)s
0.0 9 9 f.B ft(Regular)s
1405 X
0.0 9 9 f.S2 ft(O)s
0.0 9 9 f.B ft(Expressions)s
1903 X
0.0 9 9 f.S2 ft(O)s
1941 X(O)s
1979 X(O)s
694 X
3072 Y
1054 X
0.0 10 10 f.R ft(The)s
1236 X(Search)s
1533 X(Options)s
1876 X(and)s
2046 X(many)s
2294 X(of)s
2403 X(the)s
2551 X(con\256guration)s
3110 X(\256le)s
3264 X(settings)s
3596 X(allow)s
3844 X(for)s
3986 X(full)s
4151 X(use)s
4310 X(of)s
4419 X(perl)s
4600 X(regular)s
4908 X(expressions)s
694 X
3192 Y
1054 X(\(with)s
1304 X(the)s
1465 X(exception)s
1892 X(that)s
2080 X(the)s
2240 X(\261a,)s
2397 X(\261A,)s
2582 X(\261n)s
2720 X(and)s
2902 X(\261N)s
3062 X(options)s
3395 X(treat)s
3610 X('+')s
3770 X(and)s
3952 X('.')s
4081 X(characters)s
4522 X(as)s
4643 X(normal)s
4964 X(alphabetic)s
694 X
3312 Y
1054 X(characters)s
1508 X(unless)s
1809 X(they)s
2032 X(are)s
2204 X(preceded)s
2614 X(by)s
2765 X(the)s
2938 X
0.0 10 10 f.B ft(\261noescape)s
3422 X
0.0 10 10 f.R ft(option\).)s
3812 X(Most)s
4069 X(people)s
4386 X(only)s
4614 X(need)s
4852 X(to)s
4980 X(know)s
5252 X(the)s
694 X
3432 Y
1054 X(following)s
1468 X(special)s
1770 X(characters:)s
694 X
3600 Y
1054 X
0.0 10 10 f.B ft(\303)s
1454 X
0.0 10 10 f.R ft(at)s
1551 X(start)s
1748 X(of)s
1856 X(pattern,)s
2183 X(means)s
2463 X("starts)s
2740 X(with)s
2943 X(pattern".)s
694 X
3720 Y
1054 X
0.0 10 10 f.B ft($)s
1454 X
0.0 10 10 f.R ft(at)s
1551 X(end)s
1720 X(of)s
1828 X(pattern,)s
2155 X(means)s
2435 X("ends)s
2684 X(with)s
2887 X(pattern".)s
694 X
3840 Y
1054 X
0.0 10 10 f.B ft(\(...\))s
1454 X
0.0 10 10 f.R ft(groups)s
1751 X(pattern)s
2053 X(elements)s
2433 X(as)s
2541 X(a)s
2610 X(single)s
2874 X(element.)s
694 X
3960 Y
1054 X
0.0 10 10 f.B ft(?)s
1454 X
0.0 10 10 f.R ft(matches)s
1806 X(preceding)s
2224 X(element)s
2565 X(zero)s
2761 X(or)s
2869 X(one)s
3038 X(times.)s
694 X
4080 Y
1054 X
0.0 10 10 f.S ft(*)s
1454 X
0.0 10 10 f.R ft(matches)s
1806 X(preceding)s
2224 X(element)s
2565 X(zero)s
2761 X(or)s
2869 X(more)s
3099 X(times.)s
694 X
4200 Y
1054 X
0.0 10 10 f.B ft(+)s
1454 X
0.0 10 10 f.R ft(matches)s
1806 X(preceding)s
2224 X(element)s
2565 X(one)s
2734 X(or)s
2842 X(more)s
3072 X(times.)s
694 X
4320 Y
1054 X
0.0 10 10 f.B ft(.)s
1454 X
0.0 10 10 f.R ft(matches)s
1806 X(any)s
1975 X(single)s
2239 X(character.)s
694 X
4440 Y
1054 X
0.0 10 10 f.B ft([...])s
1454 X
0.0 10 10 f.R ft(denotes)s
1788 X(a)s
1861 X(class)s
2084 X(of)s
2195 X(characters)s
2626 X(to)s
2732 X(match.)s
3029 X([\303...])s
3231 X(negates)s
3558 X(the)s
3708 X(class.)s
3980 X(Inside)s
4252 X(a)s
4324 X(class,)s
4571 X('-')s
4698 X(indicates)s
5081 X(a)s
5153 X(range)s
694 X
4560 Y
1454 X(of)s
1562 X(characters.)s
694 X
4680 Y
1054 X
0.0 10 10 f.B ft(\(A|B|C\))s
1454 X
0.0 10 10 f.R ft(matches)s
1806 X(if)s
1892 X(A)s
1989 X(or)s
2097 X(B)s
2189 X(or)s
2297 X(C)s
2389 X(matches.)s
694 X
4848 Y
1054 X(Depending)s
1523 X(on)s
1654 X(your)s
1868 X(command)s
2293 X(shell,)s
2538 X(some)s
2780 X(special)s
3088 X(characters)s
3521 X(may)s
3723 X(need)s
3941 X(to)s
4049 X(be)s
4173 X(escaped)s
4518 X(on)s
4648 X(the)s
4800 X(command)s
5224 X(line)s
694 X
4968 Y
1054 X(or)s
1162 X(enclosed)s
1536 X(in)s
1639 X(single-quotes)s
2197 X(to)s
2300 X(avoid)s
2547 X(shell)s
2761 X(interpretation.)s
694 X
5136 Y
0.0 9 9 f.B ft(ENVIRONMENT)s
1412 X
0.0 9 9 f.S2 ft(O)s
1450 X(O)s
1488 X(O)s
1526 X(O)s
1564 X(O)s
694 X
5256 Y
1054 X
0.0 10 10 f.B ft(HOME)s
1654 X
0.0 10 10 f.R ft(Location)s
2034 X(of)s
2142 X(user's)s
2405 X(home)s
2652 X(directory,)s
3062 X(placed)s
3347 X(on)s
3472 X(INC)s
3669 X(path.)s
694 X
5424 Y
1054 X
0.0 10 10 f.B ft(LOGDIR)s
1654 X
0.0 10 10 f.R ft(Used)s
1884 X(instead)s
2192 X(of)s
2300 X(HOME)s
2619 X(if)s
2705 X(latter)s
2935 X(is)s
3027 X(unde\256ned.)s
694 X
5592 Y
1054 X
0.0 10 10 f.B ft(PERLLIB)s
1654 X
0.0 10 10 f.R ft(A)s
1751 X(colon-separated)s
2407 X(list)s
2555 X(of)s
2663 X(directories)s
3109 X(in)s
3212 X(which)s
3481 X(to)s
3584 X(look)s
3787 X(for)s
3928 X(the)s
4075 X(user)s
4266 X(con\256guration)s
4824 X(\256le.)s
694 X
5760 Y
0.0 9 9 f.B ft(FILES)s
977 X
0.0 9 9 f.S2 ft(O)s
1015 X(O)s
1053 X(O)s
1091 X(O)s
1129 X(O)s
694 X
5880 Y
1054 X
0.0 10 10 f.R ft(Unless)s
1353 X(a)s
1424 X(pathname)s
1839 X(is)s
1933 X(supplied,)s
2324 X(the)s
2473 X(con\256guration)s
3033 X(\256le)s
3188 X(is)s
3282 X(obtained)s
3653 X(from)s
3873 X(the)s
4021 X(current)s
4329 X(directory,)s
4740 X(the)s
4888 X(user's)s
5152 X(home)s
694 X
6000 Y
1054 X(directory)s
1444 X(\()s
0.0 10 10 f.B ft(HOME)s
1824 X
0.0 10 10 f.R ft(or)s
1937 X
0.0 10 10 f.B ft(LOGDIR)s
0.0 10 10 f.R ft(\),)s
2431 X(the)s
2583 X(standard)s
2951 X(library)s
3247 X(path)s
3449 X(\()s
0.0 10 10 f.B ft(PERLLIB)s
0.0 10 10 f.R ft(\),)s
4010 X(and)s
4184 X(the)s
4336 X(directory)s
4726 X(indicated)s
5122 X(by)s
5252 X(the)s
694 X
6120 Y
1054 X(command)s
1473 X(pathname)s
1886 X(\(in)s
2022 X(that)s
2197 X(order\).)s
694 X
6288 Y
1054 X
0.0 10 10 f.B ft(splitlog.rc)s
1804 X
0.0 10 10 f.R ft(User)s
2017 X(con\256guration)s
2575 X(\256le.)s
694 X
6456 Y
1054 X
0.0 10 10 f.B ft(dnscache.dir)s
694 X
6576 Y
1054 X(dnscache.pag)s
1804 X
0.0 10 10 f.R ft(DBM)s
2057 X(\256les)s
2249 X(for)s
2390 X(persistent)s
2798 X(DNS)s
3023 X(cache.)s
694 X
6744 Y
0.0 9 9 f.B ft(SEE)s
887 X
0.0 9 9 f.S2 ft(O)s
0.0 9 9 f.B ft(ALSO)s
1170 X
0.0 9 9 f.S2 ft(O)s
1208 X(O)s
1246 X(O)s
1284 X(O)s
694 X
6864 Y
1054 X
0.0 10 10 f.B ft(crontab)s
0.0 10 10 f.R ft(\(1\),)s
1553 X
0.0 10 10 f.B ft(httpd)s
0.0 10 10 f.R ft(\(1m\),)s
2031 X
0.0 10 10 f.B ft(perl)s
0.0 10 10 f.R ft(\(1\),)s
2369 X
0.0 10 10 f.B ft(wwwstat)s
0.0 10 10 f.R ft(\(1\))s
694 X
7032 Y
1054 X(More)s
1295 X(info)s
1481 X(and)s
1650 X(the)s
1797 X(latest)s
2033 X(version)s
2352 X(of)s
2460 X(splitlog)s
2786 X(can)s
2949 X(be)s
3068 X(obtained)s
3437 X(from)s
694 X
7680 Y(Sun Release 4.1)s
2382 X(Last change: 03 November 1996)s
5324 X(3)s
7920 Y
page
0.0 10 10 f.R ft
%%Page: 4 4

694 X
480 Y(splitlog)s
0.0 10 10 f.S2 ft(O)s
0.0 10 10 f.R ft(\()s
0.0 10 10 f.S2 ft(O)s
0.0 10 10 f.R ft(1)s
0.0 10 10 f.S2 ft(O)s
0.0 10 10 f.R ft(\))s
2586 X(USER COMMANDS )s
4906 X(splitlog)s
0.0 10 10 f.S2 ft(O)s
0.0 10 10 f.R ft(\()s
0.0 10 10 f.S2 ft(O)s
0.0 10 10 f.R ft(1)s
0.0 10 10 f.S2 ft(O)s
0.0 10 10 f.R ft(\))s
694 X
960 Y
1179 X(http://www.ics.uci.edu/pub/websoft/wwwstat/)s
694 X
1080 Y
1204 X(ftp://www.ics.uci.edu/pub/websoft/wwwstat/)s
694 X
1248 Y
1054 X(If)s
1195 X(you)s
1420 X(have)s
1683 X(any)s
1902 X(suggestions,)s
2469 X(bug)s
2694 X(reports,)s
3071 X(\256xes,)s
3360 X(or)s
3517 X(enhancements,)s
4181 X(please)s
4504 X(join)s
4734 X(the)s
4930 X(<wwwstat-)s
694 X
1368 Y
1054 X(users@ics.uci.edu>)s
1873 X(mailing)s
2218 X(list)s
2380 X(by)s
2519 X(sending)s
2869 X(e-mail)s
3163 X(with)s
3380 X("subscribe")s
3878 X(in)s
3995 X(the)s
4156 X(subject)s
4478 X(of)s
4600 X(the)s
4760 X(message)s
5136 X(to)s
5252 X(the)s
694 X
1488 Y
1054 X(request)s
1367 X(address)s
1691 X(<wwwstat-users-request@ics.uci.edu>.)s
3311 X(The)s
3491 X(list)s
3639 X(is)s
3731 X(archived)s
4099 X(at)s
4196 X(the)s
4343 X(above)s
4606 X(address.)s
694 X
1656 Y
874 X
0.0 9 9 f.B ft(More)s
1107 X
0.0 9 9 f.S2 ft(O)s
0.0 9 9 f.B ft(About)s
1385 X
0.0 9 9 f.S2 ft(O)s
0.0 9 9 f.B ft(Perl)s
1583 X
0.0 9 9 f.S2 ft(O)s
1621 X(O)s
1659 X(O)s
694 X
1776 Y
1054 X
0.0 10 10 f.R ft(The)s
1234 X(Perl)s
1420 X(Language)s
1838 X(Home)s
2107 X(Page)s
694 X
1896 Y
1414 X(http://www.perl.com/perl/index.html)s
694 X
2064 Y
1054 X(Johan)s
1312 X(Vromans')s
1736 X(Perl)s
1922 X(Reference)s
2350 X(Guide)s
694 X
2184 Y
1414 X(http://www.xs4all.nl/\304jvromans/perlref.html)s
694 X
2352 Y
0.0 9 9 f.B ft(AUTHOR)s
1112 X
0.0 9 9 f.S2 ft(O)s
1150 X(O)s
1188 X(O)s
1226 X(O)s
1264 X(O)s
694 X
2472 Y
1054 X
0.0 10 10 f.R ft(Roy)s
1268 X(Fielding)s
1648 X(\(\256elding@ics.uci.edu\),)s
2610 X(University)s
3078 X(of)s
3207 X(California,)s
3683 X(Irvine.)s
4017 X(Please)s
4318 X(do)s
4464 X(not)s
4638 X(send)s
4867 X(questions)s
5291 X(or)s
694 X
2592 Y
1054 X(requests)s
1409 X(to)s
1514 X(the)s
1663 X(author,)s
1970 X(since)s
2202 X(the)s
2351 X(number)s
2683 X(of)s
2793 X(requests)s
3147 X(has)s
3307 X(long)s
3512 X(since)s
3744 X(overwhelmed)s
4314 X(his)s
4458 X(ability)s
4741 X(to)s
4846 X(reply,)s
5103 X(and)s
5274 X(all)s
694 X
2712 Y
1054 X(future)s
1317 X(support)s
1642 X(will)s
1823 X(be)s
1942 X(through)s
2278 X(the)s
2425 X(mailing)s
2756 X(list)s
2904 X(\(see)s
3089 X(above\).)s
694 X
2880 Y
1054 X(This)s
1271 X(work)s
1515 X(has)s
1687 X(been)s
1914 X(sponsored)s
2358 X(in)s
2474 X(part)s
2667 X(by)s
2805 X(the)s
2965 X(Defense)s
3329 X(Advanced)s
3771 X(Research)s
4174 X(Projects)s
4534 X(Agency)s
4882 X(under)s
5147 X(Grant)s
694 X
3000 Y
1054 X(Numbers)s
1473 X(MDA972-91-J-1010)s
2346 X(and)s
2542 X(F30602-94-C-0218.)s
3416 X(This)s
3646 X(software)s
4041 X(does)s
4276 X(not)s
4456 X(necessarily)s
4951 X(re\257ect)s
5252 X(the)s
694 X
3120 Y
1054 X(position)s
1402 X(or)s
1510 X(policy)s
1785 X(of)s
1893 X(the)s
2040 X(U.S.)s
2243 X(Government)s
2767 X(and)s
2936 X(no)s
3061 X(o)s
/Cff {   (f) show xsiz pt 20 div neg 0 rmoveto (f) s } def

Cff(icial)s
3369 X(endorsement)s
3904 X(should)s
4196 X(be)s
4315 X(inferred.)s
694 X
7680 Y(Sun Release 4.1)s
2382 X(Last change: 03 November 1996)s
5324 X(4)s
7920 Y
page
0.0 10 10 f.R ft
%%Trailer
%%DocumentFonts: 
count { pop } repeat % a little cleanup is necessary
vmstat restore
