%!PS-Adobe-1.0
%%DocumentFonts: 
%%Creator: troff->tpscript
%%CreationDate: Sun Nov  3 18:10:41 1996
%%Pages: (atend)
%%EndComments
/vmstat save def
initmatrix

0.1000 dup scale
clippath pathbbox pop pop exch pop 0 exch translate
clippath pathbbox /pgtop exch def pop pop pop
/page { copypage erasepage restore save home } def
/home { newpath 0 pgtop moveto } def
/mf { statusdict /manualfeed true put
 } def
/af { statusdict /manualfeed false put } def
af
0 0 moveto
2 setlinecap
/y { neg 0 exch rmoveto } def
/X { currentpoint exch pop moveto } def
/Y { pgtop exch sub currentpoint pop exch moveto } def
/s { show } def
/l { neg rlineto currentpoint stroke moveto } def
/c {
2 div /rad exch def currentpoint /y0 exch def /x0 exch def
newpath x0 rad add y0 rad 0 360 arc stroke
x0 rad add rad add y0 moveto
 } def
/a {
/y2 exch neg def /x2 exch def /y1 exch neg def /x1 exch def
x1 y1 rmoveto currentpoint
currentpoint
x2 x2 mul y2 y2 mul add sqrt
y1 neg x1 neg atan
y2 x2 atan
newpath arc stroke moveto x2 y2 rmoveto
} def
/e {
2 div /yrad exch def 2 div /xrad exch def
currentpoint /y0 exch def /x0 exch def
x0 xrad add y0 translate
xrad yrad scale
newpath 0 0 1 0 360 arc
savematrix setmatrix
stroke
x0 xrad add xrad add y0 moveto
} def
/spln {
rcurveto currentpoint stroke moveto
} def
/ft { /fonttype exch def /xsiz exch def /ysiz exch def /sl exch def
 fonttype [ xsiz pt 0 sl sin sl cos div ysiz pt mul ysiz pt 0 0 ]
 makefont setfont
 xsiz 1.7 div setlinewidth } def
/pt { 10 mul } def

-90 230 translate
/savematrix matrix currentmatrix def
/BracketFontDict 9 dict def /$workingdict 10 dict def
BracketFontDict begin
/FontType 3 def
/FontName (Bracket) cvn def
/FontMatrix [ 0.001 0 0 0.001 0 0] def
/FontBBox [ -50 -250 1000 1000 ] def
/Encoding 256 array def 0 1 255 { Encoding exch /.notdef put } for
Encoding
dup 65 /Cbv put
dup 66 /Clt put
dup 67 /Clk put
dup 68 /Clb put
dup 69 /Crt put
dup 70 /Crk put
dup 71 /Crb put
dup 72 /Clc put
dup 73 /Clf put
dup 74 /Crc put
dup 75 /Crf put
dup 76 /Cbr put
dup 77 /Crn put
dup 78 /Cci put
dup 79 /C|| put
dup 80 /C^^ put
dup 81 /Cr1 put
dup 82 /Cr2 put
pop
/CharProcs 24 dict dup begin
/setC { 0 -50 -250 500 1000 setcachedevice} def
/C.bv {220 -250 moveto 0 1000 rlineto
60 0 rlineto 0 -1000 rlineto fill } def
/C.barc { 750 moveto 180 0 rlineto 0 -60 rlineto -180 0 rlineto fill } def
/C.barf { -250 moveto 180 0 rlineto 0 60 rlineto -180 0 rlineto fill } def
/C.brk.end { 1 setlinewidth moveto rlineto rcurveto
reversepath 60 0 rlineto rlineto rcurveto fill } def
/C.setl {dup dtransform exch round exch idtransform pop setlinewidth } def
/Cbv {
500 setC
C.bv
} def
/Clt {
500 setC
  0 150 50 210 140 250   0 730  0 150 50 250 200 250   0 750   220 -250   C.brk.end
} def
/Clk {
500 setC
  1 setlinewidth  220 -250 moveto  0 400 rlineto  0 50 -50 100 -100 100 rcurveto  50 0 100 50 100 100 rcurveto  0 400 rlineto  60 0 rlineto  0 -400 rlineto  0 -50 -50 -100 -100 -100 rcurveto  50 0 100 -50 100 -100 rcurveto  0 -400 rlineto  closepath fill
} def
/Clb {
500 setC
  0 -150 50 -210 140 -250   0 -730  0 -150 50 -250 200 -250   0 -750   220 750   C.brk.end
} def
/Crt {
500 setC
  0 150 -50 250 -200 250   0 750   0 150 -50 210 -140 250   0 730  220 -250   C.brk.end
} def
/Crk {
500 setC
  1 setlinewidth  220 -250 moveto  0 400 rlineto  0 50 50 100 100 100 rcurveto  -50 0 -100 50 -100 100 rcurveto  0 400 rlineto  60 0 rlineto  0 -400 rlineto  0 -50 50 -100 100 -100 rcurveto  -50 0 -100 -50 -100 -100 rcurveto  0 -400 rlineto  fill
} def
/Crb {
500 setC
  0 -150 -50 -250 -200 -250   0 -750   0 -150 -50 -210 -140 -250   0 -730  220 750   C.brk.end
} def
/Clc {
500 setC
  C.bv   280   C.barc
} def
/Clf {
500 setC
  C.bv 280 C.barf
} def
/Crc {
500 setC
  C.bv 40 C.barc
} def
/Crf {
500 setC
  C.bv 40 C.barf
} def
/Cbr {
0 0 -50 -250 0 1000 setcachedevice
  40 C.setl  0 -250 moveto  0 1000 rlineto  stroke
} def
/Crn {
500 setC
  40 C.setl  0 895 moveto  500 0 rlineto  stroke
} def
/Cci {
1000 0 -50 -250 1000 1000 setcachedevice
  40 C.setl  500 250   400   0 360 arc   stroke
} def
/C|| {
170 0 -50 -250 170 1000 setcachedevice

} def
/C^^ {
80 0 -50 -250 80 1000 setcachedevice

} def
/Cr1 {
800 0 -50 -250 800 1000 setcachedevice
  40 C.setl  0 setlinejoin  700 180 moveto -650 currentlinewidth add 0 rlineto 200 -200 rlineto  50 360 moveto 650 currentlinewidth sub 0 rlineto -200 200 rlineto  stroke
} def
/Cr2 {
800 0 -50 -250 800 1000 setcachedevice
  40 C.setl  2 setlinejoin  217 18 moveto    -150 150 rlineto 150 150 rlineto -150 -150 rlineto  633 0 rlineto  50 360 moveto  633 0 rlineto  -150 150 rlineto 150 -150 rlineto -150 -150 rlineto  stroke
} def
end def
/BuildChar
{
	$workingdict begin
	/charcode exch def
	/fontdict exch def
	fontdict /CharProcs get begin
	fontdict /Encoding get
	charcode get load
	gsave
	0 setlinecap 0 setgray newpath
	exec
	grestore
	end end
} def end
/BracketFont BracketFontDict definefont pop
/f.R /Times-Roman findfont def
/f.I /Times-Italic findfont def
/f.B /Times-Bold findfont def
/f.BI /Times-BoldItalic findfont def
/f.H /Helvetica findfont def
/f.HB /Helvetica-Bold findfont def
/f.HO /Helvetica-Oblique findfont def
/f.HX /Helvetica-BoldOblique findfont def
/f.C /Courier findfont def
/f.CB /Courier-Bold findfont def
/f.CO /Courier-Oblique findfont def
/f.CX /Courier-BoldOblique findfont def
/f.BR /Bookman-Light findfont def
/f.BO /Bookman-LightItalic findfont def
/f.BB /Bookman-Demi findfont def
/f.BX /Bookman-DemiItalic findfont def
/f.S /Symbol findfont def
/f.S2 /BracketFont findfont def

0.0 10 10 f.R ft
save
home
%%EndProlog

0 Y
%%Page: 1 1

694 X
480 Y(wwwstat)s
0.0 10 10 f.S2 ft(O)s
0.0 10 10 f.R ft(\()s
0.0 10 10 f.S2 ft(O)s
0.0 10 10 f.R ft(1)s
0.0 10 10 f.S2 ft(O)s
0.0 10 10 f.R ft(\))s
2586 X(USER COMMANDS )s
4852 X(wwwstat)s
0.0 10 10 f.S2 ft(O)s
0.0 10 10 f.R ft(\()s
0.0 10 10 f.S2 ft(O)s
0.0 10 10 f.R ft(1)s
0.0 10 10 f.S2 ft(O)s
0.0 10 10 f.R ft(\))s
694 X
960 Y
0.0 9 9 f.B ft(NAME)s
992 X
0.0 9 9 f.S2 ft(O)s
1030 X(O)s
1068 X(O)s
1106 X(O)s
1144 X(O)s
694 X
1080 Y
1054 X
0.0 10 10 f.R ft(wwwstat)s
1434 X(\261)s
1509 X(summarize)s
1972 X(WWW)s
2279 X(server)s
2547 X(\(httpd\))s
2844 X(access)s
3123 X(statistics)s
694 X
1248 Y
0.0 9 9 f.B ft(SYNOPSIS)s
1157 X
0.0 9 9 f.S2 ft(O)s
1195 X(O)s
1233 X(O)s
1271 X(O)s
1309 X(O)s
694 X
1368 Y
1054 X
0.0 10 10 f.B ft(wwwstat)s
1450 X
0.0 10 10 f.R ft([)s
0.0 10 10 f.B ft(\261F)s
1619 X
0.0 10 10 f.I ft(system_con\256g)s
0.0 10 10 f.S2 ft(P)s
0.0 10 10 f.R ft(])s
2245 X([)s
0.0 10 10 f.B ft(\261f)s
2386 X
0.0 10 10 f.I ft(user_con\256g)s
0.0 10 10 f.S2 ft(P)s
0.0 10 10 f.R ft(])s
2918 X([)s
0.0 10 10 f.I ft(options)s
0.0 10 10 f.S2 ft(P)s
0.0 10 10 f.R ft(...])s
3387 X([)s
0.0 10 10 f.B ft(--)s
0.0 10 10 f.R ft(])s
3544 X([)s
3602 X
0.0 10 10 f.I ft(summary)s
0.0 10 10 f.S2 ft(P)s
4001 X
0.0 10 10 f.R ft(|)s
4046 X
0.0 10 10 f.I ft(log\256le)s
0.0 10 10 f.S2 ft(P)s
4329 X
0.0 10 10 f.R ft(|)s
4374 X
0.0 10 10 f.B ft(+)s
4456 X
0.0 10 10 f.R ft(|)s
4501 X
0.0 10 10 f.B ft(\261)s
4576 X
0.0 10 10 f.R ft(]...)s
694 X
1536 Y
0.0 9 9 f.B ft(DESCRIPTION)s
1342 X
0.0 9 9 f.S2 ft(O)s
1380 X(O)s
1418 X(O)s
1456 X(O)s
1494 X(O)s
694 X
1656 Y
1054 X
0.0 10 10 f.B ft(wwwstat)s
1459 X
0.0 10 10 f.R ft(reads)s
1703 X(a)s
1781 X(sequence)s
2180 X(of)s
2297 X
0.0 10 10 f.B ft(httpd)s
2565 X
0.0 10 10 f.R ft(common)s
2949 X(log\256le)s
3239 X(format)s
3539 X(\(CLF\))s
3823 X(access_log)s
4288 X(\256les)s
4488 X(and/or)s
4776 X(prior)s
5003 X
0.0 10 10 f.B ft(wwwstat)s
694 X
1776 Y
1054 X
0.0 10 10 f.R ft(output)s
1335 X(summary)s
1732 X(\256les)s
1924 X(and/or)s
2204 X(the)s
2351 X(standard)s
2714 X(input)s
2945 X(and)s
3114 X(outputs)s
3434 X(a)s
3503 X(summary)s
3900 X(of)s
4008 X(the)s
4155 X(access)s
4434 X(statistics)s
4804 X(in)s
4907 X(HTML.)s
694 X
1944 Y
1054 X(Since)s
1309 X
0.0 10 10 f.B ft(wwwstat)s
1713 X
0.0 10 10 f.R ft(does)s
1929 X(not)s
2090 X(make)s
2339 X(any)s
2516 X(changes)s
2870 X(to)s
2981 X(the)s
3136 X(input)s
3375 X(\256les)s
3574 X(or)s
3689 X(write)s
3926 X(any)s
4102 X(\256les)s
4301 X(in)s
4411 X(the)s
4565 X(server)s
4840 X(directories,)s
5318 X(it)s
694 X
2064 Y
1054 X(can)s
1230 X(be)s
1362 X(run)s
1533 X(by)s
1671 X(any)s
1853 X(user)s
2056 X(with)s
2271 X(read)s
2479 X(access)s
2770 X(to)s
2885 X(the)s
3044 X(input)s
3287 X(log\256le\(s\))s
3685 X(and)s
3866 X(summary)s
4275 X(\256le\(s\).)s
4595 X(This)s
4810 X(allows)s
5108 X(people)s
694 X
2184 Y
1054 X(other)s
1284 X(than)s
1481 X(the)s
1628 X(webmaster)s
2085 X(to)s
2188 X(run)s
2346 X(specialized)s
2814 X(analyses)s
3177 X(of)s
3285 X(just)s
3455 X(the)s
3602 X(things)s
3872 X(they)s
4069 X(are)s
4215 X(interested)s
4628 X(in)s
4731 X(summarizing.)s
694 X
2352 Y
1054 X
0.0 10 10 f.B ft(wwwstat)s
1460 X
0.0 10 10 f.R ft(provides)s
1839 X(World)s
2129 X(Wide)s
2380 X(Web)s
2603 X(\(WWW\))s
2986 X(access)s
3275 X(statistics,)s
3680 X(which)s
3959 X(does)s
4177 X(not)s
4340 X(necessarily)s
4818 X(correspond)s
5296 X(to)s
694 X
2472 Y
1054 X(statistics)s
1425 X(on)s
1551 X(individual)s
1983 X(users.)s
2239 X(It)s
2326 X(counts)s
2613 X(the)s
2761 X(number)s
3092 X(of)s
3201 X
0.0 10 10 f.B ft(HTTP)s
3500 X
0.0 10 10 f.R ft(requests)s
3853 X(received)s
4216 X(by)s
4342 X(the)s
4490 X(server)s
4758 X(and)s
4927 X(the)s
5074 X(amount)s
694 X
2592 Y
1054 X(of)s
1169 X(bytes)s
1412 X(transmitted)s
1894 X(in)s
2004 X(response)s
2385 X(to)s
2495 X(those)s
2738 X(requests,)s
3122 X(according)s
3547 X(to)s
3657 X(what)s
3883 X(is)s
3982 X(in)s
4092 X(the)s
4245 X(log\256le\(s\),)s
4662 X(and)s
4837 X(outputs)s
5163 X(those)s
694 X
2712 Y
1054 X(counts)s
1340 X(as)s
1448 X(tables)s
1706 X(broken)s
2008 X(down)s
2255 X(by)s
2380 X(category)s
2748 X(of)s
2856 X(request.)s
694 X
2880 Y
1054 X
0.0 10 10 f.B ft(wwwstat)s
1461 X
0.0 10 10 f.R ft(output)s
1753 X(summaries)s
2222 X(can)s
2396 X(be)s
2526 X(read)s
2733 X(by)s
2868 X
0.0 10 10 f.B ft(gwstat)s
3180 X
0.0 10 10 f.R ft(to)s
3293 X(produce)s
3649 X(fancy)s
3905 X(graphs)s
4206 X(of)s
4324 X(the)s
4481 X(summarized)s
5004 X(statistics.)s
694 X
3000 Y
1054 X(The)s
1234 X
0.0 10 10 f.B ft(splitlog)s
1571 X
0.0 10 10 f.R ft(program)s
1934 X(can)s
2097 X(be)s
2216 X(used)s
2424 X(to)s
2527 X(split)s
2725 X(a)s
2794 X(large)s
3018 X(log\256le)s
3299 X(into)s
3480 X(separate)s
3831 X(\256les)s
4023 X(by)s
4148 X(entry)s
4378 X(pre\256x)s
4636 X(or)s
4744 X(URL)s
4969 X(path.)s
694 X
3168 Y
1054 X
0.0 10 10 f.B ft(wwwstat)s
1455 X
0.0 10 10 f.R ft(is)s
1552 X(a)s
1625 X
0.0 10 10 f.B ft(perl)s
1826 X
0.0 10 10 f.R ft(script,)s
2102 X(which)s
2375 X(means)s
2659 X(you)s
2838 X(need)s
3055 X(to)s
3162 X(have)s
3379 X(a)s
3452 X
0.0 10 10 f.B ft(perl)s
3653 X
0.0 10 10 f.R ft(interpreter)s
4097 X(to)s
4204 X(run)s
4366 X(the)s
4517 X(program.)s
4934 X(It)s
5024 X(has)s
5186 X(been)s
694 X
3288 Y
1054 X(tested)s
1312 X(with)s
1515 X
0.0 10 10 f.B ft(perl)s
1712 X
0.0 10 10 f.R ft(versions)s
2070 X(4.036)s
2320 X(and)s
2489 X(5.002.)s
694 X
3456 Y
874 X
0.0 9 9 f.B ft(Output)s
1177 X
0.0 9 9 f.S2 ft(O)s
0.0 9 9 f.B ft(Sections)s
1530 X
0.0 9 9 f.S2 ft(O)s
1568 X(O)s
1606 X(O)s
1644 X(O)s
694 X
3576 Y
1054 X
0.0 10 10 f.B ft(wwwstat)s
0.0 10 10 f.R ft('s)s
1530 X(output)s
1819 X(consists)s
2169 X(of)s
2285 X(a)s
2362 X(set)s
2506 X(of)s
2622 X(cross-reference)s
3262 X(links,)s
3515 X(the)s
3670 X(sum)s
3870 X(totals)s
4120 X(and)s
4297 X(averages)s
4678 X(for)s
4827 X(the)s
4981 X(processed)s
694 X
3696 Y
1054 X(data,)s
1286 X(and)s
1471 X(a)s
1556 X(sequence)s
1962 X(of)s
2086 X(amount-by-category)s
2936 X(tables)s
3210 X(partitioned)s
3683 X(into)s
3879 X(sections.)s
4291 X(The)s
4486 X(section)s
4809 X(categories)s
5253 X(are)s
694 X
3816 Y
1054 X(based)s
1308 X(on)s
1435 X(the)s
1584 X(characteristics)s
2181 X(evident)s
2502 X(from)s
2723 X(the)s
2872 X(access)s
3153 X(request,)s
3493 X(as)s
3603 X(provided)s
3985 X(by)s
4112 X(the)s
4261 X(common)s
4638 X(log\256le)s
4921 X(format)s
5214 X(\(see)s
694 X
3936 Y
1054 X
0.0 10 10 f.B ft(NOTES)s
0.0 10 10 f.R ft(\).)s
1502 X(These)s
1765 X(include:)s
694 X
4104 Y
1054 X(Request)s
1401 X(Date)s
2054 X(e.g.,)s
2248 X("Feb)s
2489 X(2)s
2564 X(1996")s
694 X
4272 Y
1054 X(Request)s
1401 X(Hour)s
2054 X(e.g.,)s
2248 X("00")s
2455 X(through)s
2791 X("23")s
694 X
4440 Y
1054 X(Client)s
1324 X(Domain)s
2054 X(The)s
2278 X(Fully-Quali\256ed)s
2964 X(Domain)s
3355 X(Name)s
3662 X(\(FQDN\))s
4069 X(su)s
/Cff {   (f) show xsiz pt 20 div neg 0 rmoveto (f) s } def

Cff(ix)s
4366 X(that)s
4584 X(corresponds)s
5134 X(to)s
5280 X(an)s
694 X
4560 Y
2054 X(organization)s
2578 X(type)s
2775 X(or)s
2883 X(country)s
3213 X(name.)s
694 X
4728 Y
1054 X(Reversed)s
1450 X(Subdomain)s
2054 X(The)s
2246 X(FQDN,)s
2579 X(usually)s
2904 X(minus)s
3185 X(the)s
3343 X(\256rst)s
3535 X(\(machine)s
3942 X(name\))s
4227 X(component,)s
4732 X(and)s
4912 X(reversed)s
5285 X(so)s
694 X
4848 Y
2054 X(that)s
2229 X(it)s
2310 X(is)s
2402 X(easier)s
2659 X(to)s
2762 X(read)s
2958 X(when)s
3199 X(sorted.)s
694 X
5016 Y
1054 X(URL/Archive)s
2054 X(Grouping)s
2462 X(based)s
2714 X(on)s
2839 X(Request-URI)s
3391 X(or)s
3499 X(non-success)s
4006 X(status)s
4259 X(code.)s
694 X
5184 Y
1054 X(Identity)s
2054 X(The)s
2234 X(user)s
2425 X(identity)s
2756 X(based)s
3008 X(on)s
3133 X(IdentityCheck)s
3724 X(token)s
3971 X(or)s
4079 X(Authorization)s
4659 X(\256eld.)s
694 X
5352 Y
1054 X(Each)s
1290 X(section)s
1610 X(can)s
1784 X(be)s
1914 X(enabled/disabled)s
2621 X(using)s
2874 X(the)s
3032 X(con\256guration)s
3601 X(\256les)s
3804 X(or)s
3923 X(command-line)s
4536 X(options)s
4867 X(\(see)s
5063 X
0.0 10 10 f.B ft(Section)s
694 X
5472 Y
1054 X(Display)s
1402 X(Options)s
0.0 10 10 f.R ft(\).)s
694 X
5640 Y
874 X
0.0 9 9 f.B ft(Output)s
1177 X
0.0 9 9 f.S2 ft(O)s
0.0 9 9 f.B ft(Table)s
1435 X
0.0 9 9 f.S2 ft(O)s
0.0 9 9 f.B ft(Format)s
1763 X
0.0 9 9 f.S2 ft(O)s
1801 X(O)s
1839 X(O)s
694 X
5760 Y
1054 X
0.0 10 10 f.R ft(Inside)s
1323 X(each)s
1530 X(section,)s
1863 X(the)s
2010 X(statistics)s
2380 X(are)s
2526 X(presented)s
2933 X(as)s
3041 X(a)s
3110 X(preformatted)s
3650 X(table.)s
694 X
5928 Y
1054 X
0.0 10 10 f.C ft(%Reqs)s
1414 X(%Byte)s
1834 X(Bytes)s
2194 X(Sent)s
2554 X(Requests)s
3179 X
0.0 10 10 f.I ft(category-type)s
694 X
6048 Y
1054 X
0.0 10 10 f.C ft(-----)s
1414 X(-----)s
1774 X(------------)s
2554 X(--------)s
3094 X(|---------------)s
694 X
6168 Y
1054 X(NN.NN)s
1414 X(NN.NN)s
1774 X(NNNNNNNNNNNN)s
2554 X(NNNNNNNN)s
3094 X(|)s
3179 X
0.0 10 10 f.I ft(category-value)s
694 X
6288 Y
1054 X
0.0 10 10 f.C ft(100.0)s
1414 X(100.0)s
1774 X(NNNNNNNNNNNN)s
2554 X(NNNNNNNN)s
3094 X(|)s
3179 X
0.0 10 10 f.I ft(category-value)s
694 X
6456 Y
1054 X
0.0 10 10 f.R ft(Requests)s
1654 X(Requests)s
2040 X(received)s
2402 X(for)s
2543 X(this)s
2713 X(category-value.)s
694 X
6576 Y
1054 X(Bytes)s
1307 X(Sent)s
1654 X(Bytes)s
1907 X(transmitted)s
2382 X(for)s
2523 X(this)s
2693 X(category-value.)s
694 X
6696 Y
1054 X(%Reqs)s
1654 X(\(<Requests>/<Total)s
2480 X(Requests>\))s
0.0 10 10 f.S ft(*)s
0.0 10 10 f.R ft(100.)s
694 X
6816 Y
1054 X(%Byte)s
1654 X(\(<Bytes)s
1996 X(Sent>/<Total)s
2550 X(Bytes>\))s
0.0 10 10 f.S ft(*)s
0.0 10 10 f.R ft(100.)s
694 X
6984 Y
1054 X(The)s
1238 X(table)s
1461 X(can)s
1628 X(be)s
1751 X(sorted)s
2024 X(by)s
2153 X(category-value)s
2774 X(\()s
0.0 10 10 f.B ft(\261sort)s
3051 X(key)s
0.0 10 10 f.R ft(\),)s
3287 X(number)s
3620 X(of)s
3731 X(requests)s
4086 X(received)s
4451 X(\()s
0.0 10 10 f.B ft(\261sort)s
4728 X(req)s
0.0 10 10 f.R ft(\),)s
4958 X(or)s
5069 X(number)s
694 X
7104 Y
1054 X(of)s
1162 X(bytes)s
1398 X(received)s
1760 X(\()s
0.0 10 10 f.B ft(\261sort)s
2034 X(byte)s
0.0 10 10 f.R ft(\).)s
2325 X(It)s
2411 X(can)s
2574 X(also)s
2760 X(be)s
2879 X(limited)s
3188 X(to)s
3291 X(the)s
3438 X
0.0 10 10 f.B ft(\261top)s
3652 X
0.0 10 10 f.I ft(N)s
3744 X
0.0 10 10 f.R ft(entries.)s
694 X
7680 Y(Sun Release 4.1)s
2382 X(Last change: 03 November 1996)s
5324 X(1)s
7920 Y
page
0.0 10 10 f.R ft
%%Page: 2 2

694 X
480 Y(wwwstat)s
0.0 10 10 f.S2 ft(O)s
0.0 10 10 f.R ft(\()s
0.0 10 10 f.S2 ft(O)s
0.0 10 10 f.R ft(1)s
0.0 10 10 f.S2 ft(O)s
0.0 10 10 f.R ft(\))s
2586 X(USER COMMANDS )s
4852 X(wwwstat)s
0.0 10 10 f.S2 ft(O)s
0.0 10 10 f.R ft(\()s
0.0 10 10 f.S2 ft(O)s
0.0 10 10 f.R ft(1)s
0.0 10 10 f.S2 ft(O)s
0.0 10 10 f.R ft(\))s
694 X
960 Y
0.0 9 9 f.B ft(OPTIONS)s
1122 X
0.0 9 9 f.S2 ft(O)s
1160 X(O)s
1198 X(O)s
1236 X(O)s
1274 X(O)s
694 X
1080 Y
874 X
0.0 9 9 f.B ft(Con\256guration)s
1437 X
0.0 9 9 f.S2 ft(O)s
0.0 9 9 f.B ft(Options)s
1780 X
0.0 9 9 f.S2 ft(O)s
1818 X(O)s
1856 X(O)s
1894 X(O)s
694 X
1200 Y
1054 X
0.0 10 10 f.R ft(These)s
1317 X(options)s
1637 X(de\256ne)s
1906 X(how)s
2103 X
0.0 10 10 f.B ft(wwwstat)s
2499 X
0.0 10 10 f.R ft(should)s
2791 X(establish)s
3166 X(defaults)s
3507 X(and)s
3676 X(interpret)s
4039 X(the)s
4186 X(command-line.)s
694 X
1368 Y
1054 X
0.0 10 10 f.B ft(\261F)s
1190 X
0.0 10 10 f.I ft(\256lename)s
694 X
1488 Y
1414 X
0.0 10 10 f.R ft(Get)s
1589 X(system)s
1898 X(con\256guration)s
2462 X(defaults)s
2809 X(from)s
3034 X(the)s
3187 X(given)s
3440 X(\256le.)s
3649 X(If)s
3746 X(used,)s
3985 X(this)s
4161 X
0.0 10 10 f.B ft(must)s
4403 X
0.0 10 10 f.R ft(be)s
4528 X(the)s
4681 X(\256rst)s
4867 X(argument)s
5274 X(on)s
694 X
1608 Y
1414 X(the)s
1575 X(command-line,)s
2216 X(since)s
2460 X(it)s
2555 X(needs)s
2821 X(to)s
2938 X(be)s
3071 X(interpreted)s
3542 X(before)s
3835 X(the)s
3995 X(other)s
4238 X(command)s
4670 X(options.)s
5053 X(The)s
5246 X(\256le)s
694 X
1728 Y
1414 X
0.0 10 10 f.B ft(wwwstat.rc)s
1937 X
0.0 10 10 f.R ft(is)s
2043 X(included)s
2426 X(with)s
2643 X(the)s
2804 X(distribution)s
3305 X(as)s
3427 X(an)s
3560 X(example)s
3937 X(of)s
4059 X(this)s
4243 X(\256le;)s
4438 X(it)s
4533 X(contains)s
4904 X
0.0 10 10 f.B ft(perl)s
5114 X
0.0 10 10 f.R ft(source)s
694 X
1848 Y
1414 X(code)s
1629 X(which)s
1900 X(directly)s
2232 X(sets)s
2409 X(the)s
2558 X(control)s
2867 X(and)s
3037 X(display)s
3352 X(options)s
3673 X(provided)s
4054 X(by)s
4180 X
0.0 10 10 f.B ft(wwwstat)s
0.0 10 10 f.R ft(.)s
4627 X(If)s
4719 X
0.0 10 10 f.I ft(\256lename)s
5083 X
0.0 10 10 f.R ft(is)s
5176 X(not)s
5330 X(a)s
694 X
1968 Y
1414 X(pathname,)s
1865 X(the)s
2025 X(include)s
2357 X(path)s
2567 X(\(see)s
2765 X
0.0 10 10 f.B ft(FILES)s
0.0 10 10 f.R ft(\))s
3126 X(is)s
3231 X(searched)s
3617 X(for)s
3771 X
0.0 10 10 f.I ft(\256lename)s
0.0 10 10 f.S2 ft(P)s
0.0 10 10 f.R ft(.)s
4205 X(An)s
4364 X(empty)s
4651 X(string)s
4916 X(as)s
5036 X
0.0 10 10 f.I ft(\256lename)s
694 X
2088 Y
1414 X
0.0 10 10 f.R ft(will)s
1595 X(disable)s
1903 X(this)s
2073 X(feature.)s
2424 X([)s
0.0 10 10 f.B ft(\261F)s
2593 X
0.0 10 10 f.R ft("wwwstat.rc"])s
694 X
2256 Y
1054 X
0.0 10 10 f.B ft(\261f)s
1162 X
0.0 10 10 f.I ft(\256lename)s
694 X
2376 Y
1414 X
0.0 10 10 f.R ft(Get)s
1588 X(user)s
1784 X(con\256guration)s
2347 X(defaults)s
2693 X(from)s
2917 X(the)s
3069 X(given)s
3321 X(\256le.)s
3504 X(If)s
3600 X(used,)s
3838 X(this)s
4013 X
0.0 10 10 f.B ft(must)s
4254 X
0.0 10 10 f.R ft(be)s
4378 X(the)s
4530 X(\256rst)s
4716 X(argument)s
5123 X(on)s
5252 X(the)s
694 X
2496 Y
1414 X(command-line)s
2019 X(after)s
2229 X
0.0 10 10 f.B ft(\261F)s
2367 X
0.0 10 10 f.R ft(\(if)s
2488 X(any\).)s
2717 X(The)s
2899 X(\256le)s
3054 X(is)s
3148 X(the)s
3297 X(same)s
3529 X(format)s
3822 X(as)s
3932 X(for)s
4075 X(the)s
4224 X
0.0 10 10 f.B ft(\261F)s
4362 X
0.0 10 10 f.R ft(option)s
4645 X(\(see)s
4832 X
0.0 10 10 f.B ft(wwwstat.rc)s
0.0 10 10 f.R ft(\).)s
694 X
2616 Y
1414 X(If)s
1514 X
0.0 10 10 f.I ft(\256lename)s
1886 X
0.0 10 10 f.R ft(is)s
1987 X(not)s
2149 X(a)s
2227 X(pathname,)s
2674 X(the)s
2829 X(include)s
3156 X(path)s
3361 X(\(see)s
3554 X
0.0 10 10 f.B ft(FILES)s
0.0 10 10 f.R ft(\))s
3910 X(is)s
4010 X(searched)s
4391 X(for)s
4540 X
0.0 10 10 f.I ft(\256lename)s
0.0 10 10 f.S2 ft(P)s
0.0 10 10 f.R ft(.)s
4969 X(An)s
5124 X(empty)s
694 X
2736 Y
1414 X(string)s
1667 X(as)s
1775 X
0.0 10 10 f.I ft(\256lename)s
2138 X
0.0 10 10 f.R ft(will)s
2319 X(disable)s
2627 X(this)s
2797 X(feature.)s
3148 X([)s
0.0 10 10 f.B ft(\261f)s
3289 X
0.0 10 10 f.R ft(".wwwstatrc"])s
694 X
2904 Y
1054 X
0.0 10 10 f.B ft(--)s
1414 X
0.0 10 10 f.R ft(Last)s
1611 X(option)s
1892 X(\(the)s
2072 X(remaining)s
2502 X(arguments)s
2943 X(are)s
3089 X(treated)s
3385 X(as)s
3493 X(input)s
3724 X(\256les\).)s
694 X
3072 Y
874 X
0.0 9 9 f.B ft(Diagnostic)s
1302 X
0.0 9 9 f.S2 ft(O)s
0.0 9 9 f.B ft(Options)s
1645 X
0.0 9 9 f.S2 ft(O)s
1683 X(O)s
1721 X(O)s
1759 X(O)s
694 X
3192 Y
1054 X
0.0 10 10 f.R ft(These)s
1329 X(options)s
1661 X(provide)s
2003 X(information)s
2512 X(about)s
2771 X
0.0 10 10 f.B ft(wwwstat)s
3178 X
0.0 10 10 f.R ft(usage)s
3441 X(or)s
3560 X(about)s
3818 X(some)s
4065 X(unusual)s
4412 X(aspects)s
4736 X(of)s
4855 X(the)s
5013 X(log\256le\(s\))s
694 X
3312 Y
1054 X(being)s
1301 X(processed.)s
694 X
3480 Y
1054 X
0.0 10 10 f.B ft(\261h)s
1414 X
0.0 10 10 f.R ft(Help)s
1633 X(\320)s
1758 X(display)s
2072 X(usage)s
2324 X(information)s
2821 X(to)s
2924 X(STDERR)s
3333 X(and)s
3502 X(then)s
3699 X(exit.)s
694 X
3648 Y
1054 X
0.0 10 10 f.B ft(\261v)s
1414 X
0.0 10 10 f.R ft(Verbose)s
1771 X(display)s
2085 X(to)s
2188 X(STDERR)s
2597 X(of)s
2705 X(each)s
2912 X(log)s
3065 X(entry)s
3295 X(processed.)s
694 X
3816 Y
1054 X
0.0 10 10 f.B ft(\261x)s
1414 X
0.0 10 10 f.R ft(Display)s
1750 X(to)s
1853 X(STDERR)s
2262 X(all)s
2387 X(requests)s
2739 X(resulting)s
3114 X(in)s
3217 X(HTTP)s
3492 X(error)s
3710 X(responses.)s
694 X
3984 Y
1054 X
0.0 10 10 f.B ft(\261e)s
1414 X
0.0 10 10 f.R ft(Display)s
1752 X(to)s
1857 X(STDERR)s
2268 X(all)s
2395 X(invalid)s
2700 X(log)s
2855 X(entries.)s
3173 X(Invalid)s
3483 X(log)s
3638 X(entries)s
3931 X(can)s
4096 X(occur)s
4343 X(if)s
4430 X(the)s
4578 X(server)s
4847 X(is)s
4940 X(miswriting)s
694 X
4104 Y
1414 X(or)s
1533 X(overwriting)s
2035 X(its)s
2166 X(own)s
2374 X(log,)s
2563 X(if)s
2660 X(the)s
2818 X(request)s
3142 X(is)s
3245 X(made)s
3497 X(by)s
3633 X(a)s
3712 X(broken)s
4024 X(client)s
4281 X(or)s
4399 X(proxy,)s
4692 X(or)s
4810 X(if)s
4906 X(a)s
4985 X(malicious)s
694 X
4224 Y
1414 X(attacker)s
1765 X(is)s
1868 X(trying)s
2143 X(to)s
2257 X(gain)s
2465 X(privileged)s
2906 X(access)s
3196 X(to)s
3310 X(your)s
3529 X(system.)s
3893 X(For)s
4068 X(the)s
4225 X(latter)s
4465 X(reason,)s
4785 X(the)s
4942 X(webmaster)s
694 X
4344 Y
1414 X(should)s
1706 X(run)s
1864 X
0.0 10 10 f.B ft(wwwstat)s
2260 X
0.0 10 10 f.R ft(with)s
2463 X(this)s
2633 X(option)s
2914 X(on)s
3039 X(a)s
3108 X(regular)s
3415 X(basis.)s
694 X
4512 Y
874 X
0.0 9 9 f.B ft(Display)s
1187 X
0.0 9 9 f.S2 ft(O)s
0.0 9 9 f.B ft(Options)s
1530 X
0.0 9 9 f.S2 ft(O)s
1568 X(O)s
1606 X(O)s
1644 X(O)s
694 X
4632 Y
1054 X
0.0 10 10 f.R ft(These)s
1317 X(options)s
1637 X(modify)s
1951 X(the)s
2098 X(output)s
2379 X(format.)s
694 X
4800 Y
1054 X
0.0 10 10 f.B ft(\261H)s
1207 X
0.0 10 10 f.I ft(string)s
694 X
4920 Y
1414 X
0.0 10 10 f.R ft(Use)s
1594 X(the)s
1741 X(given)s
1988 X(string)s
2241 X(as)s
2349 X(the)s
2496 X(HTML)s
2804 X(title)s
2985 X(and)s
3154 X(heading)s
3495 X(for)s
3636 X(output.)s
694 X
5088 Y
1054 X
0.0 10 10 f.B ft(\261X)s
1201 X
0.0 10 10 f.I ft(string)s
694 X
5208 Y
1414 X
0.0 10 10 f.R ft(Use)s
1604 X(the)s
1761 X(given)s
2018 X(string)s
2280 X(as)s
2397 X(the)s
2553 X(cross-reference)s
3194 X(URL)s
3428 X(to)s
3540 X(the)s
3696 X(last)s
3869 X(summary)s
4275 X(output.)s
4615 X(Any)s
4821 X(occurrence)s
5291 X(of)s
694 X
5328 Y
1414 X(the)s
1563 X(characters)s
1993 X("%M")s
2274 X(or)s
2384 X("%Y")s
2648 X(are)s
2796 X(replaced)s
3160 X(by)s
3286 X(the)s
3434 X(month)s
3716 X(and)s
3886 X(year,)s
4108 X(respectively,)s
4641 X(of)s
4750 X(the)s
4898 X(month)s
5180 X(prior)s
694 X
5448 Y
1414 X(to)s
1517 X(the)s
1664 X(\256rst)s
1845 X(log)s
1998 X(entry)s
2228 X(date.)s
2469 X(The)s
2649 X(empty)s
2924 X(string)s
3177 X(will)s
3358 X(exclude)s
3693 X(any)s
3862 X(cross-reference.)s
694 X
5616 Y
1054 X
0.0 10 10 f.B ft(\261R)s
1414 X
0.0 10 10 f.R ft(Display)s
1764 X(the)s
1925 X(daily)s
2164 X(stats)s
2381 X(table)s
2614 X(sorted)s
2897 X(in)s
3014 X(reverse.)s
3365 X(This)s
3582 X(option)s
3877 X(is)s
3983 X(primarily)s
4394 X(for)s
4549 X(use)s
4721 X(with)s
4937 X(the)s
5097 X
0.0 10 10 f.B ft(gwstat)s
694 X
5736 Y
1414 X
0.0 10 10 f.R ft(program)s
1777 X(for)s
1918 X(producing)s
2348 X(graphs)s
2639 X(of)s
2747 X(the)s
2894 X(output.)s
694 X
5904 Y
1054 X
0.0 10 10 f.B ft(\261l)s
694 X
6024 Y
1054 X(\261L)s
1414 X
0.0 10 10 f.R ft(Do)s
1574 X(\()s
0.0 10 10 f.B ft(\261l)s
0.0 10 10 f.R ft(\))s
1756 X(or)s
1877 X(don't)s
2126 X(\()s
0.0 10 10 f.B ft(\261L)s
0.0 10 10 f.R ft(\))s
2347 X(display)s
2674 X(the)s
2834 X(full)s
3011 X(DNS)s
3249 X(hostname)s
3670 X(of)s
3791 X(clients)s
4090 X(in)s
4205 X(your)s
4425 X(local)s
4656 X(domain)s
4993 X(\(which)s
5307 X(is)s
694 X
6144 Y
1414 X(determined)s
1921 X(by)s
2079 X(the)s
2259 X(con\256gured)s
2744 X(value)s
3018 X(of)s
3159 X($AppendToLocalhost\))s
4121 X(in)s
4257 X(the)s
4437 X(section)s
4778 X(on)s
4935 X(subdomain)s
694 X
6264 Y
1414 X(statistics.)s
1834 X(The)s
2014 X(default)s
2316 X([)s
0.0 10 10 f.B ft(\261L)s
0.0 10 10 f.R ft(])s
2524 X(is)s
2616 X(to)s
2719 X(strip)s
2922 X(the)s
3069 X(machine)s
3432 X(name)s
3673 X(from)s
3892 X(local)s
4111 X(addresses.)s
694 X
6432 Y
1054 X
0.0 10 10 f.B ft(\261o)s
694 X
6552 Y
1054 X(\261O)s
1414 X
0.0 10 10 f.R ft(Do)s
1568 X(\()s
0.0 10 10 f.B ft(\261o)s
0.0 10 10 f.R ft(\))s
1766 X(or)s
1881 X(don't)s
2124 X(\()s
0.0 10 10 f.B ft(\261O)s
0.0 10 10 f.R ft(\))s
2350 X(display)s
2671 X(the)s
2825 X(full)s
2996 X(DNS)s
3228 X(hostname)s
3643 X(of)s
3758 X(clients)s
4051 X(outside)s
4372 X(your)s
4587 X(local)s
4812 X(domain)s
5143 X(in)s
5252 X(the)s
694 X
6672 Y
1414 X(section)s
1743 X(on)s
1889 X(subdomain)s
2374 X(statistics.)s
2815 X(The)s
3016 X(default)s
3338 X([)s
0.0 10 10 f.B ft(\261O)s
0.0 10 10 f.R ft(])s
3577 X(is)s
3689 X(to)s
3812 X(strip)s
4035 X(the)s
4202 X(machine)s
4585 X(name)s
4846 X(from)s
5085 X(outside)s
694 X
6792 Y
1414 X(addresses.)s
694 X
6960 Y
1054 X
0.0 10 10 f.B ft(\261u)s
694 X
7080 Y
1054 X(\261U)s
1414 X
0.0 10 10 f.R ft(Do)s
1578 X(\()s
0.0 10 10 f.B ft(\261u)s
0.0 10 10 f.R ft(\))s
1792 X(or)s
1917 X(don't)s
2170 X(\()s
0.0 10 10 f.B ft(\261U)s
0.0 10 10 f.R ft(\))s
2400 X(display)s
2731 X(the)s
2895 X(IP)s
3026 X(address)s
3367 X(of)s
3492 X(clients)s
3795 X(with)s
4015 X(unresolved)s
4495 X(domain)s
4837 X(names)s
5133 X(in)s
5252 X(the)s
694 X
7200 Y
1414 X(section)s
1723 X(on)s
1849 X(subdomain)s
2314 X(statistics.)s
2710 X(The)s
2891 X
0.0 10 10 f.B ft(\261dns)s
3118 X
0.0 10 10 f.R ft(option)s
3400 X(can)s
3564 X(be)s
3684 X(used)s
3893 X(to)s
3997 X(resolve)s
4311 X(some)s
4548 X(names,)s
4854 X(but)s
5007 X(not)s
5160 X(all)s
5285 X(IP)s
694 X
7680 Y(Sun Release 4.1)s
2382 X(Last change: 03 November 1996)s
5324 X(2)s
7920 Y
page
0.0 10 10 f.R ft
%%Page: 3 3

694 X
480 Y(wwwstat)s
0.0 10 10 f.S2 ft(O)s
0.0 10 10 f.R ft(\()s
0.0 10 10 f.S2 ft(O)s
0.0 10 10 f.R ft(1)s
0.0 10 10 f.S2 ft(O)s
0.0 10 10 f.R ft(\))s
2586 X(USER COMMANDS )s
4852 X(wwwstat)s
0.0 10 10 f.S2 ft(O)s
0.0 10 10 f.R ft(\()s
0.0 10 10 f.S2 ft(O)s
0.0 10 10 f.R ft(1)s
0.0 10 10 f.S2 ft(O)s
0.0 10 10 f.R ft(\))s
694 X
960 Y
1414 X(hosts)s
1679 X(have)s
1926 X(a)s
2029 X(DNS)s
2287 X(name)s
2561 X(\(SLIP/PPP)s
3054 X(connections\))s
3622 X(and)s
3824 X(sometimes)s
4310 X(a)s
4412 X(host's)s
4709 X(DNS)s
4967 X(service)s
5307 X(is)s
694 X
1080 Y
1414 X(inaccessible.)s
1946 X(The)s
2126 X(default)s
2428 X([)s
0.0 10 10 f.B ft(\261U)s
0.0 10 10 f.R ft(])s
2641 X(is)s
2733 X(to)s
2836 X(group)s
3094 X(all)s
3219 X(such)s
3427 X(addresses)s
3834 X(under)s
4086 X(the)s
4233 X(category)s
4601 X("Unresolved".)s
694 X
1248 Y
1054 X
0.0 10 10 f.B ft(\261dns)s
694 X
1368 Y
1054 X(\261nodns)s
1414 X
0.0 10 10 f.R ft(Do)s
1589 X(\()s
0.0 10 10 f.B ft(\261dns)s
0.0 10 10 f.R ft(\))s
1909 X(or)s
2045 X(don't)s
2309 X(\()s
0.0 10 10 f.B ft(\261nodns)s
0.0 10 10 f.R ft(\))s
2735 X(use)s
2921 X(the)s
3096 X(system's)s
3499 X(hostname)s
3935 X(lookup)s
4266 X(facilities)s
4662 X(to)s
4792 X(\256nd)s
5000 X(the)s
5174 X(DNS)s
694 X
1488 Y
1414 X(hostname)s
1837 X(associated)s
2287 X(with)s
2505 X(any)s
2689 X(unresolved)s
3167 X(IP)s
3296 X(addresses.)s
3743 X(Looking)s
4122 X(up)s
4262 X(a)s
4346 X(DNS)s
4586 X(name)s
4842 X(may)s
5053 X(be)s
5186 X
0.0 10 10 f.B ft(very)s
694 X
1608 Y
1414 X
0.0 10 10 f.R ft(slow,)s
1654 X(particularly)s
2140 X(when)s
2382 X(the)s
2530 X(results)s
2817 X(are)s
2964 X(negative)s
3328 X(\(no)s
3487 X(DNS)s
3713 X(name\),)s
4013 X(which)s
4283 X(is)s
4376 X(why)s
4574 X(a)s
4644 X(caching)s
4980 X(capability)s
694 X
1728 Y
1414 X(is)s
1506 X(included)s
1875 X(as)s
1983 X(well.)s
2230 X([)s
0.0 10 10 f.B ft(\261nodns)s
0.0 10 10 f.R ft(])s
694 X
1896 Y
1054 X
0.0 10 10 f.B ft(\261cache)s
1367 X
0.0 10 10 f.I ft(\256lename)s
694 X
2016 Y
1414 X
0.0 10 10 f.R ft(Use)s
1599 X(the)s
1751 X(given)s
2003 X(DBM)s
2261 X(database)s
2634 X(as)s
2747 X(the)s
2899 X(read/write)s
3333 X(persistent)s
3746 X(DNS)s
3976 X(cache)s
4232 X(\(the)s
4416 X(.dir)s
4581 X(and)s
4754 X(.pag)s
4952 X(extensions)s
694 X
2136 Y
1414 X(are)s
1578 X(appended)s
2003 X(automatically\).)s
2648 X(Cached)s
2990 X(entries)s
3299 X(\(including)s
3753 X(negative)s
4134 X(results\))s
4471 X(are)s
4635 X(removed)s
5027 X(after)s
5252 X(the)s
694 X
2256 Y
1414 X(time)s
1620 X(con\256gured)s
2075 X(for)s
2219 X($DNSexpires)s
2785 X([two)s
2996 X(months].)s
3402 X(No)s
3552 X(caching)s
3890 X(is)s
3985 X(performed)s
4428 X(if)s
4516 X
0.0 10 10 f.I ft(\256lename)s
4881 X
0.0 10 10 f.R ft(is)s
4975 X(the)s
5124 X(empty)s
694 X
2376 Y
1414 X(string,)s
1713 X(which)s
2003 X(may)s
2221 X(be)s
2361 X(needed)s
2689 X(if)s
2795 X(your)s
3023 X(system)s
3346 X(does)s
3574 X(not)s
3747 X(support)s
4092 X(DBM)s
4365 X(or)s
4493 X(NDBM)s
4838 X(functionality.)s
694 X
2496 Y
1414 X(Running)s
1784 X
0.0 10 10 f.B ft(\261dns)s
2010 X
0.0 10 10 f.R ft(without)s
2341 X(a)s
2410 X(persistent)s
2818 X(cache)s
3069 X(is)s
3161 X(not)s
3314 X(recommended.)s
3954 X([)s
0.0 10 10 f.B ft(\261cache)s
4300 X
0.0 10 10 f.R ft("dnscache"])s
694 X
2664 Y
1054 X
0.0 10 10 f.B ft(\261trunc)s
1362 X
0.0 10 10 f.I ft(N)s
694 X
2784 Y
1414 X
0.0 10 10 f.R ft(Truncate)s
1816 X(the)s
1986 X(URLs)s
2272 X(listed)s
2536 X(in)s
2661 X(the)s
2830 X(archive)s
3170 X(section)s
3500 X(after)s
3729 X(the)s
3898 X
0.0 10 10 f.I ft(Nth)s
4090 X
0.0 10 10 f.R ft(hierarchy)s
4513 X(level.)s
4779 X(This)s
5004 X(option)s
5307 X(is)s
694 X
2904 Y
1414 X(commonly)s
1874 X(used)s
2089 X(to)s
2199 X(reduce)s
2496 X(the)s
2649 X(output)s
2936 X(size)s
3122 X(and)s
3297 X(memory)s
3661 X(requirements)s
4213 X(of)s
4327 X
0.0 10 10 f.B ft(wwwstat)s
4729 X
0.0 10 10 f.R ft(by)s
4860 X(grouping)s
5252 X(the)s
694 X
3024 Y
1414 X(requests)s
1770 X(by)s
1899 X(directory)s
2287 X(tree)s
2464 X(instead)s
2775 X(of)s
2886 X(listing)s
3165 X(every)s
3414 X(URL.)s
3692 X(The)s
3875 X(default)s
4180 X([)s
0.0 10 10 f.B ft(\261trunc)s
4524 X(0)s
0.0 10 10 f.R ft(])s
4635 X(is)s
4730 X(to)s
4836 X(display)s
5153 X(every)s
694 X
3144 Y
1414 X(requested)s
1821 X(URL.)s
694 X
3312 Y
1054 X
0.0 10 10 f.B ft(\261\256les)s
694 X
3432 Y
1054 X(\261no\256les)s
1414 X
0.0 10 10 f.R ft(Do)s
1569 X(\()s
0.0 10 10 f.B ft(\261\256les)s
0.0 10 10 f.R ft(\))s
1885 X(or)s
2001 X(don't)s
2245 X(\()s
0.0 10 10 f.B ft(\261no\256les)s
0.0 10 10 f.R ft(\))s
2667 X(include)s
2994 X(the)s
3149 X(last)s
3321 X(component)s
3798 X(of)s
3914 X(a)s
3991 X(URL)s
4224 X(\(usually)s
4579 X(the)s
4733 X(\256lename\))s
5142 X(in)s
5252 X(the)s
694 X
3552 Y
1414 X(archive)s
1734 X(section.)s
2069 X(This)s
2274 X(option)s
2557 X(is)s
2651 X(commonly)s
3106 X(used)s
3316 X(to)s
3421 X(reduce)s
3713 X(the)s
3861 X(output)s
4143 X(size)s
4324 X(and)s
4494 X(memory)s
4853 X(requirements)s
694 X
3672 Y
1414 X(of)s
1541 X
0.0 10 10 f.B ft(wwwstat)s
1956 X
0.0 10 10 f.R ft(by)s
2100 X(grouping)s
2505 X(the)s
2671 X(requests)s
3042 X(by)s
3186 X(directory)s
3590 X(instead)s
3917 X(of)s
4044 X(listing)s
4339 X(every)s
4604 X(URL.)s
4898 X(The)s
5097 X(default)s
694 X
3792 Y
1414 X([)s
0.0 10 10 f.B ft(\261\256les)s
0.0 10 10 f.R ft(])s
1722 X(is)s
1814 X(to)s
1917 X(display)s
2231 X(the)s
2378 X(entire)s
2630 X(requested)s
3037 X(URL.)s
694 X
3960 Y
1054 X
0.0 10 10 f.B ft(\261link)s
694 X
4080 Y
1054 X(\261nolink)s
1414 X
0.0 10 10 f.R ft(Do)s
1562 X(\()s
0.0 10 10 f.B ft(\261link)s
0.0 10 10 f.R ft(\))s
1872 X(or)s
1980 X(don't)s
2216 X(\()s
0.0 10 10 f.B ft(\261nolink)s
0.0 10 10 f.R ft(\))s
2631 X(add)s
2800 X(a)s
2869 X(hypertext)s
3271 X(link)s
3452 X(around)s
3754 X(each)s
3961 X(archive)s
4279 X(URL.)s
4554 X(This)s
4757 X(option)s
5038 X(is)s
5130 X(useful)s
694 X
4200 Y
1414 X(for)s
1568 X(local)s
1800 X(maintenance,)s
2367 X(but)s
2533 X(it)s
2627 X(is)s
2732 X(not)s
2898 X(recommended)s
3501 X(for)s
3655 X(publication)s
4143 X(of)s
4264 X(the)s
4424 X(HTML)s
4745 X(results)s
5043 X(\(it)s
5169 X(often)s
694 X
4320 Y
1414 X(results)s
1714 X(in)s
1831 X(links)s
2064 X(to)s
2180 X(temporary)s
2628 X(or)s
2749 X(nonexistant)s
3248 X(resources,)s
3687 X(and)s
3869 X(leads)s
4112 X(people/robots)s
4694 X(to)s
4810 X(resources)s
5224 X(that)s
694 X
4440 Y
1414 X(might)s
1673 X(not)s
1826 X(be)s
1945 X(publically)s
2370 X(available\).)s
2838 X([)s
0.0 10 10 f.B ft(\261nolink)s
0.0 10 10 f.R ft(])s
694 X
4608 Y
1054 X
0.0 10 10 f.B ft(\261cgi)s
694 X
4728 Y
1054 X(\261nocgi)s
1414 X
0.0 10 10 f.R ft(Do)s
1566 X(\()s
0.0 10 10 f.B ft(\261cgi)s
0.0 10 10 f.R ft(\))s
1834 X(or)s
1947 X(don't)s
2188 X(\()s
0.0 10 10 f.B ft(\261nocgi)s
0.0 10 10 f.R ft(\))s
2562 X(pre\256x)s
2825 X(the)s
2977 X(summary)s
3379 X(output)s
3665 X(with)s
3872 X(CGI)s
4073 X(header)s
4367 X(\256elds)s
4613 X(appropriate)s
5096 X(for)s
5241 X(use)s
694 X
4848 Y
1414 X(with)s
1624 X(the)s
1778 X(HTTP)s
2060 X(common)s
2442 X(gateway)s
2806 X(interface.)s
3235 X(Using)s
3505 X
0.0 10 10 f.B ft(wwwstat)s
3907 X
0.0 10 10 f.R ft(as)s
4021 X(a)s
4096 X(CGI)s
4299 X(script)s
4552 X(is)s
4650 X(not)s
4809 X(recommended)s
694 X
4968 Y
1414 X(\320)s
1546 X(it)s
1634 X(is)s
1733 X(usually)s
2054 X(better)s
2313 X(to)s
2423 X(simply)s
2727 X(run)s
2891 X(the)s
3044 X(wwwstat)s
3430 X(program)s
3799 X(periodically)s
4307 X(and)s
4482 X(serve)s
4723 X(the)s
4876 X(static)s
5118 X(output)s
694 X
5088 Y
1414 X(\256le.)s
1617 X([)s
0.0 10 10 f.B ft(\261nocgi)s
0.0 10 10 f.R ft(])s
694 X
5256 Y
874 X
0.0 9 9 f.B ft(Section)s
1177 X
0.0 9 9 f.S2 ft(O)s
0.0 9 9 f.B ft(Display)s
1505 X
0.0 9 9 f.S2 ft(O)s
0.0 9 9 f.B ft(Options)s
1848 X
0.0 9 9 f.S2 ft(O)s
1886 X(O)s
1924 X(O)s
694 X
5376 Y
1054 X
0.0 10 10 f.R ft(These)s
1322 X(options)s
1647 X(change)s
1959 X(the)s
2111 X(display)s
2430 X(of)s
2543 X(entire)s
2799 X(sections)s
3150 X(\(as)s
3295 X(opposed)s
3657 X(to)s
3764 X(the)s
3915 X(entries)s
4210 X(within)s
4495 X(those)s
4735 X(sections\).)s
5169 X(They)s
694 X
5496 Y
1054 X(allow)s
1310 X(the)s
1466 X(user)s
1666 X(to)s
1778 X(enable)s
2072 X(or)s
2189 X(disable)s
2506 X(an)s
2634 X(entire)s
2895 X(section,)s
3236 X(set)s
3380 X(the)s
3535 X(sorting)s
3846 X(method)s
4179 X(for)s
4328 X(that)s
4511 X(section,)s
4852 X(and)s
5029 X(limit)s
5252 X(the)s
694 X
5616 Y
1054 X(number)s
1387 X(of)s
1497 X(displayed)s
1907 X(entries)s
2200 X(for)s
2343 X(that)s
2520 X(section.)s
2880 X(These)s
3145 X(options)s
3467 X(are)s
3615 X(context-sensitive)s
4319 X(and)s
4490 X(processed)s
4910 X(in)s
5015 X(the)s
5164 X(order)s
694 X
5736 Y
1054 X(given.)s
694 X
5904 Y
1054 X
0.0 10 10 f.B ft(\261all)s
694 X
6024 Y
1054 X(\261noall)s
1414 X
0.0 10 10 f.R ft(Include)s
1742 X(\()s
0.0 10 10 f.B ft(\261all)s
0.0 10 10 f.R ft(\))s
1993 X(or)s
2105 X(exclude)s
2444 X(\()s
0.0 10 10 f.B ft(\261noall)s
0.0 10 10 f.R ft(\))s
2801 X(all)s
2930 X(of)s
3041 X(the)s
3191 X(display)s
3508 X(sections.)s
3883 X(The)s
4066 X
0.0 10 10 f.B ft(\261noall)s
4356 X
0.0 10 10 f.R ft(option)s
4640 X(is)s
4735 X(commonly)s
5191 X(used)s
694 X
6144 Y
1414 X(just)s
1607 X(prior)s
1849 X(to)s
1975 X(one)s
2167 X(or)s
2298 X(more)s
2551 X(of)s
2681 X(the)s
2850 X(other)s
3102 X(section)s
3432 X(options,)s
3799 X(such)s
4029 X(that)s
4226 X(only)s
4451 X(the)s
4620 X(listed)s
4884 X(sections)s
5253 X(are)s
694 X
6264 Y
1414 X(displayed.)s
694 X
6432 Y
1054 X
0.0 10 10 f.B ft(\261daily)s
694 X
6552 Y
1054 X(\261nodaily)s
694 X
6672 Y
1414 X
0.0 10 10 f.R ft(Include)s
1748 X(\()s
0.0 10 10 f.B ft(\261daily)s
0.0 10 10 f.R ft(\))s
2111 X(or)s
2229 X(exclude)s
2574 X(\()s
0.0 10 10 f.B ft(\261nodaily)s
0.0 10 10 f.R ft(\))s
3043 X(the)s
3199 X(section)s
3516 X(of)s
3633 X(statistics)s
4012 X(by)s
4146 X(request)s
4468 X(date)s
4668 X(and)s
4846 X(set)s
4991 X(the)s
5147 X(scope)s
694 X
6792 Y
1414 X(for)s
1555 X(later)s
1757 X
0.0 10 10 f.B ft(\261sort)s
1998 X
0.0 10 10 f.R ft(and)s
2167 X
0.0 10 10 f.B ft(\261top)s
2381 X
0.0 10 10 f.R ft(options)s
2701 X(to)s
2804 X(this)s
2974 X(section.)s
694 X
6960 Y
1054 X
0.0 10 10 f.B ft(\261hourly)s
694 X
7080 Y
1054 X(\261nohourly)s
694 X
7200 Y
1414 X
0.0 10 10 f.R ft(Include)s
1755 X(\()s
0.0 10 10 f.B ft(\261hourly)s
0.0 10 10 f.R ft(\))s
2197 X(or)s
2322 X(exclude)s
2674 X(\()s
0.0 10 10 f.B ft(\261nohourly)s
0.0 10 10 f.R ft(\))s
3222 X(the)s
3386 X(section)s
3711 X(of)s
3835 X(statistics)s
4221 X(by)s
4362 X(request)s
4691 X(hour)s
4915 X(and)s
5100 X(set)s
5252 X(the)s
694 X
7680 Y(Sun Release 4.1)s
2382 X(Last change: 03 November 1996)s
5324 X(3)s
7920 Y
page
0.0 10 10 f.R ft
%%Page: 4 4

694 X
480 Y(wwwstat)s
0.0 10 10 f.S2 ft(O)s
0.0 10 10 f.R ft(\()s
0.0 10 10 f.S2 ft(O)s
0.0 10 10 f.R ft(1)s
0.0 10 10 f.S2 ft(O)s
0.0 10 10 f.R ft(\))s
2586 X(USER COMMANDS )s
4852 X(wwwstat)s
0.0 10 10 f.S2 ft(O)s
0.0 10 10 f.R ft(\()s
0.0 10 10 f.S2 ft(O)s
0.0 10 10 f.R ft(1)s
0.0 10 10 f.S2 ft(O)s
0.0 10 10 f.R ft(\))s
694 X
960 Y
1414 X(scope)s
1666 X(for)s
1807 X(later)s
2009 X
0.0 10 10 f.B ft(\261sort)s
2250 X
0.0 10 10 f.R ft(and)s
2419 X
0.0 10 10 f.B ft(\261top)s
2633 X
0.0 10 10 f.R ft(options)s
2953 X(to)s
3056 X(this)s
3226 X(section.)s
694 X
1128 Y
1054 X
0.0 10 10 f.B ft(\261domain)s
694 X
1248 Y
1054 X(\261nodomain)s
694 X
1368 Y
1414 X
0.0 10 10 f.R ft(Include)s
1738 X(\()s
0.0 10 10 f.B ft(\261domain)s
0.0 10 10 f.R ft(\))s
2202 X(or)s
2310 X(exclude)s
2645 X(\()s
0.0 10 10 f.B ft(\261nodomain)s
0.0 10 10 f.R ft(\))s
3215 X(the)s
3362 X(section)s
3670 X(of)s
3778 X(statistics)s
4148 X(by)s
4273 X(the)s
4420 X(client's)s
4739 X(Internet)s
5074 X(domain)s
694 X
1488 Y
1414 X(and)s
1583 X(set)s
1719 X(the)s
1866 X(scope)s
2118 X(for)s
2259 X(later)s
2461 X
0.0 10 10 f.B ft(\261sort)s
2702 X
0.0 10 10 f.R ft(and)s
2871 X
0.0 10 10 f.B ft(\261top)s
3085 X
0.0 10 10 f.R ft(options)s
3405 X(to)s
3508 X(this)s
3678 X(section.)s
694 X
1656 Y
1054 X
0.0 10 10 f.B ft(\261subdomain)s
694 X
1776 Y
1054 X(\261nosubdomain)s
694 X
1896 Y
1414 X
0.0 10 10 f.R ft(Include)s
1740 X(\()s
0.0 10 10 f.B ft(\261subdomain)s
0.0 10 10 f.R ft(\))s
2357 X(or)s
2467 X(exclude)s
2804 X(\()s
0.0 10 10 f.B ft(\261nosubdomain)s
0.0 10 10 f.R ft(\))s
3527 X(the)s
3676 X(section)s
3986 X(of)s
4096 X(statistics)s
4468 X(by)s
4595 X(the)s
4744 X(client's)s
5064 X(Internet)s
694 X
2016 Y
1414 X(subdomain)s
1878 X(\(reversed)s
2273 X(for)s
2414 X(display\))s
2761 X(and)s
2930 X(set)s
3066 X(the)s
3213 X(scope)s
3465 X(for)s
3606 X(later)s
3808 X
0.0 10 10 f.B ft(\261sort)s
4049 X
0.0 10 10 f.R ft(and)s
4218 X
0.0 10 10 f.B ft(\261top)s
4432 X
0.0 10 10 f.R ft(options)s
4752 X(to)s
4855 X(this)s
5025 X(section.)s
694 X
2184 Y
1054 X
0.0 10 10 f.B ft(\261archive)s
694 X
2304 Y
1054 X(\261noarchive)s
694 X
2424 Y
1414 X
0.0 10 10 f.R ft(Include)s
1740 X(\()s
0.0 10 10 f.B ft(\261archive)s
0.0 10 10 f.R ft(\))s
2199 X(or)s
2309 X(exclude)s
2646 X(\()s
0.0 10 10 f.B ft(\261noarchive)s
0.0 10 10 f.R ft(\))s
3211 X(the)s
3360 X(section)s
3669 X(of)s
3778 X(statistics)s
4149 X(by)s
4275 X(requested)s
4683 X(URL/archive)s
5230 X(and)s
694 X
2544 Y
1414 X(set)s
1550 X(the)s
1697 X(scope)s
1949 X(for)s
2090 X(later)s
2292 X
0.0 10 10 f.B ft(\261sort)s
2533 X
0.0 10 10 f.R ft(and)s
2702 X
0.0 10 10 f.B ft(\261top)s
2916 X
0.0 10 10 f.R ft(options)s
3236 X(to)s
3339 X(this)s
3509 X(section.)s
694 X
2712 Y
1054 X
0.0 10 10 f.B ft(\261r)s
694 X
2832 Y
1054 X(\261ident)s
694 X
2952 Y
1054 X(\261noident)s
694 X
3072 Y
1414 X
0.0 10 10 f.R ft(Include)s
1742 X(\()s
0.0 10 10 f.B ft(\261r)s
1898 X
0.0 10 10 f.R ft(or)s
2010 X
0.0 10 10 f.B ft(\261ident)s
0.0 10 10 f.R ft(\))s
2339 X(or)s
2451 X(exclude)s
2790 X(\()s
0.0 10 10 f.B ft(\261noident)s
0.0 10 10 f.R ft(\))s
3258 X(the)s
3409 X(section)s
3721 X(of)s
3833 X(statistics)s
4207 X(by)s
4336 X(the)s
4487 X(identity)s
4822 X(of)s
4934 X(the)s
5085 X(user)s
5280 X(\(if)s
694 X
3192 Y
1414 X(IdentityCheck)s
2006 X(is)s
2099 X(ON\))s
2302 X(or)s
2411 X(the)s
2559 X(authentication)s
3151 X(userid)s
3421 X(\(if)s
3541 X(supplied\))s
3939 X(and)s
4109 X(set)s
4246 X(the)s
4394 X(scope)s
4646 X(for)s
4787 X(later)s
4989 X
0.0 10 10 f.B ft(\261sort)s
5230 X
0.0 10 10 f.R ft(and)s
694 X
3312 Y
1414 X
0.0 10 10 f.B ft(\261top)s
1632 X
0.0 10 10 f.R ft(options)s
1956 X(to)s
2063 X(this)s
2237 X(section.)s
2598 X
0.0 10 10 f.B ft(DO)s
2776 X(NOT)s
3021 X(PUBLISH)s
3489 X
0.0 10 10 f.R ft(this)s
3662 X(information,)s
4187 X(as)s
4298 X(that)s
4476 X(would)s
4754 X(reveal)s
5025 X(security-)s
694 X
3432 Y
1414 X(related)s
1711 X(identities)s
2104 X(and)s
2274 X(be)s
2393 X(a)s
2462 X(violation)s
2843 X(of)s
2951 X(privacy.)s
3325 X(This)s
3528 X(option)s
3809 X(is)s
3901 X(provided)s
4281 X(for)s
4422 X(administrative)s
5019 X(purposes)s
694 X
3552 Y
1414 X(only.)s
694 X
3720 Y
1054 X
0.0 10 10 f.B ft(\261sort)s
1295 X
0.0 10 10 f.R ft(\()s
0.0 10 10 f.B ft(key|byte|req)s
0.0 10 10 f.R ft(\))s
694 X
3840 Y
1414 X(Sort)s
1617 X(this)s
1798 X(section)s
2117 X(by)s
2253 X(its)s
2384 X(primary)s
2736 X(key,)s
2941 X(the)s
3099 X(number)s
3440 X(of)s
3558 X(bytes)s
3804 X(transmitted,)s
4314 X(or)s
4432 X(the)s
4589 X(number)s
4929 X(of)s
5047 X(requests)s
694 X
3960 Y
1414 X(received.)s
1826 X([)s
0.0 10 10 f.B ft(\261sort)s
2100 X(key)s
0.0 10 10 f.R ft(])s
694 X
4128 Y
1054 X
0.0 10 10 f.B ft(\261top)s
1268 X
0.0 10 10 f.I ft(N)s
1414 X
0.0 10 10 f.R ft(Display)s
1754 X(only)s
1961 X(the)s
2112 X(top)s
2269 X(N)s
2370 X(entries)s
2665 X(for)s
2809 X(this)s
2982 X(section.)s
3318 X(This)s
3524 X(option)s
3808 X(assumes)s
4169 X(that)s
4347 X(the)s
4497 X
0.0 10 10 f.B ft(\261sort)s
4741 X
0.0 10 10 f.R ft(option)s
5025 X(has)s
5186 X(been)s
694 X
4248 Y
1414 X(set)s
1550 X(to)s
1653 X(either)s
1905 X(bytes)s
2141 X(or)s
2249 X(requests.)s
694 X
4416 Y
1054 X
0.0 10 10 f.B ft(\261both)s
1414 X
0.0 10 10 f.R ft(Display)s
1751 X(both)s
1955 X(the)s
2103 X(top)s
2257 X(N)s
2355 X(entries)s
2647 X(for)s
2789 X(this)s
2960 X(section)s
3269 X([10,)s
3452 X(sorted)s
3721 X(by)s
3846 X(requests],)s
4256 X(and)s
4425 X(then)s
4622 X(the)s
4769 X(full)s
4933 X(section)s
5241 X(\(all)s
694 X
4536 Y
1414 X(entries\))s
1738 X(sorted)s
2007 X(by)s
2132 X(key.)s
694 X
4704 Y
874 X
0.0 9 9 f.B ft(Search)s
1162 X
0.0 9 9 f.S2 ft(O)s
0.0 9 9 f.B ft(Options)s
1505 X
0.0 9 9 f.S2 ft(O)s
1543 X(O)s
1581 X(O)s
1619 X(O)s
694 X
4824 Y
1054 X
0.0 10 10 f.R ft(These)s
1325 X(options)s
1653 X(are)s
1807 X(used)s
2023 X(to)s
2134 X(limit)s
2357 X(the)s
2512 X(analysis)s
2867 X(to)s
2978 X(requests)s
3337 X(matching)s
3741 X(a)s
3817 X(pattern.)s
4176 X(The)s
4363 X(pattern)s
4672 X(is)s
4771 X(supplied)s
5142 X(in)s
5252 X(the)s
694 X
4944 Y
1054 X(form)s
1279 X(of)s
1393 X(a)s
1467 X
0.0 10 10 f.B ft(perl)s
1669 X(regular)s
2015 X(expression)s
0.0 10 10 f.R ft(,)s
2520 X(except)s
2810 X(that)s
2990 X(the)s
3142 X(characters)s
3575 X("+")s
3743 X(and)s
3917 X(".")s
4054 X(are)s
4205 X(escaped)s
4550 X(automatically)s
5124 X(unless)s
694 X
5064 Y
1054 X(the)s
1214 X
0.0 10 10 f.B ft(\261noescape)s
1685 X
0.0 10 10 f.R ft(option)s
1979 X(is)s
2084 X(given.)s
2394 X(Enclose)s
2748 X(the)s
2908 X(pattern)s
3223 X(in)s
3339 X(single-quotes)s
3910 X(to)s
4026 X(prevent)s
4363 X(the)s
4523 X(command)s
4954 X(shell)s
5180 X(from)s
694 X
5184 Y
1054 X(interpreting)s
1545 X(some)s
1781 X(special)s
2083 X(characters.)s
694 X
5352 Y
1054 X(Multiple)s
1425 X(occurrences)s
1926 X(of)s
2035 X(the)s
2183 X(same)s
2414 X(option)s
2696 X(results)s
2983 X(in)s
3087 X(an)s
3207 X(OR-ing)s
3533 X(of)s
3642 X(the)s
3789 X(regular)s
4096 X(expressions.)s
4637 X(Search)s
4933 X(options)s
5253 X(are)s
694 X
5472 Y
1054 X(only)s
1277 X(applied)s
1616 X(to)s
1739 X(log\256le)s
2040 X(entries;)s
2379 X(any)s
2568 X(summary)s
2985 X(\256les)s
3197 X(input)s
3448 X(must)s
3688 X(have)s
3920 X(been)s
4152 X(created)s
4483 X(with)s
4705 X(the)s
4871 X(same)s
5120 X(search)s
694 X
5592 Y
1054 X(options.)s
694 X
5760 Y
1054 X
0.0 10 10 f.B ft(\261a)s
1179 X
0.0 10 10 f.I ft(regexp)s
694 X
5880 Y
1054 X
0.0 10 10 f.B ft(\261A)s
1201 X
0.0 10 10 f.I ft(regexp)s
694 X
6000 Y
1414 X
0.0 10 10 f.R ft(Include)s
1739 X(\()s
0.0 10 10 f.B ft(\261a)s
0.0 10 10 f.R ft(\))s
1930 X(or)s
2038 X(exclude)s
2373 X(\()s
0.0 10 10 f.B ft(\261A)s
0.0 10 10 f.R ft(\))s
2586 X(all)s
2711 X(requests)s
3063 X(containing)s
3510 X(a)s
3579 X(hostname/IP)s
4104 X(address)s
4428 X(matching)s
4825 X(the)s
4972 X(given)s
5219 X(perl)s
694 X
6120 Y
1414 X(regular)s
1721 X(expression.)s
694 X
6288 Y
1054 X
0.0 10 10 f.B ft(\261c)s
1173 X
0.0 10 10 f.I ft(regexp)s
694 X
6408 Y
1054 X
0.0 10 10 f.B ft(\261C)s
1201 X
0.0 10 10 f.I ft(regexp)s
694 X
6528 Y
1414 X
0.0 10 10 f.R ft(Include)s
1739 X(\()s
0.0 10 10 f.B ft(\261c)s
0.0 10 10 f.R ft(\))s
1925 X(or)s
2034 X(exclude)s
2370 X(\()s
0.0 10 10 f.B ft(\261C)s
0.0 10 10 f.R ft(\))s
2584 X(all)s
2710 X(requests)s
3063 X(resulting)s
3439 X(in)s
3543 X(an)s
3663 X
0.0 10 10 f.B ft(HTTP)s
3962 X
0.0 10 10 f.R ft(status)s
4215 X(code)s
4428 X(matching)s
4825 X(the)s
4972 X(given)s
5219 X(perl)s
694 X
6648 Y
1414 X(regular)s
1721 X(expression.)s
694 X
6816 Y
1054 X
0.0 10 10 f.B ft(\261d)s
1185 X
0.0 10 10 f.I ft(regexp)s
694 X
6936 Y
1054 X
0.0 10 10 f.B ft(\261D)s
1201 X
0.0 10 10 f.I ft(regexp)s
694 X
7056 Y
1414 X
0.0 10 10 f.R ft(Include)s
1748 X(\()s
0.0 10 10 f.B ft(\261d)s
0.0 10 10 f.R ft(\))s
1955 X(or)s
2073 X(exclude)s
2418 X(\()s
0.0 10 10 f.B ft(\261D)s
0.0 10 10 f.R ft(\))s
2641 X(all)s
2776 X(requests)s
3138 X(occurring)s
3555 X(on)s
3690 X(a)s
3768 X(date)s
3968 X(\(e.g.,)s
4204 X("Feb)s
4454 X(2)s
4538 X(1994"\))s
4846 X(matching)s
5252 X(the)s
694 X
7176 Y
1414 X(given)s
1661 X(perl)s
1841 X(regular)s
2148 X(expression.)s
694 X
7680 Y(Sun Release 4.1)s
2382 X(Last change: 03 November 1996)s
5324 X(4)s
7920 Y
page
0.0 10 10 f.R ft
%%Page: 5 5

694 X
480 Y(wwwstat)s
0.0 10 10 f.S2 ft(O)s
0.0 10 10 f.R ft(\()s
0.0 10 10 f.S2 ft(O)s
0.0 10 10 f.R ft(1)s
0.0 10 10 f.S2 ft(O)s
0.0 10 10 f.R ft(\))s
2586 X(USER COMMANDS )s
4852 X(wwwstat)s
0.0 10 10 f.S2 ft(O)s
0.0 10 10 f.R ft(\()s
0.0 10 10 f.S2 ft(O)s
0.0 10 10 f.R ft(1)s
0.0 10 10 f.S2 ft(O)s
0.0 10 10 f.R ft(\))s
694 X
960 Y
1054 X
0.0 10 10 f.B ft(\261t)s
1162 X
0.0 10 10 f.I ft(regexp)s
694 X
1080 Y
1054 X
0.0 10 10 f.B ft(\261T)s
1196 X
0.0 10 10 f.I ft(regexp)s
694 X
1200 Y
1414 X
0.0 10 10 f.R ft(Include)s
1749 X(\()s
0.0 10 10 f.B ft(\261t)s
0.0 10 10 f.R ft(\))s
1934 X(or)s
2053 X(exclude)s
2399 X(\()s
0.0 10 10 f.B ft(\261T)s
0.0 10 10 f.R ft(\))s
2618 X(all)s
2754 X(requests)s
3117 X(occurring)s
3535 X(during)s
3832 X(the)s
3990 X(hour)s
4209 X(\(e.g.,)s
4446 X("23")s
4663 X(is)s
4765 X(11pm)s
5028 X(\261)s
5113 X(12pm\))s
694 X
1320 Y
1414 X(matching)s
1811 X(the)s
1958 X(given)s
2205 X(perl)s
2385 X(regular)s
2692 X(expression.)s
694 X
1488 Y
1054 X
0.0 10 10 f.B ft(\261m)s
1212 X
0.0 10 10 f.I ft(regexp)s
694 X
1608 Y
1054 X
0.0 10 10 f.B ft(\261M)s
1223 X
0.0 10 10 f.I ft(regexp)s
694 X
1728 Y
1414 X
0.0 10 10 f.R ft(Include)s
1748 X(\()s
0.0 10 10 f.B ft(\261m)s
0.0 10 10 f.R ft(\))s
1982 X(or)s
2100 X(exclude)s
2445 X(\()s
0.0 10 10 f.B ft(\261M)s
0.0 10 10 f.R ft(\))s
2690 X(all)s
2825 X(requests)s
3187 X(using)s
3438 X(an)s
3566 X(HTTP)s
3850 X(method)s
4184 X(\(e.g.,)s
4420 X("HEAD"\))s
4846 X(matching)s
5252 X(the)s
694 X
1848 Y
1414 X(given)s
1661 X(perl)s
1841 X(regular)s
2148 X(expression.)s
694 X
2016 Y
1054 X
0.0 10 10 f.B ft(\261n)s
1185 X
0.0 10 10 f.I ft(regexp)s
694 X
2136 Y
1054 X
0.0 10 10 f.B ft(\261N)s
1201 X
0.0 10 10 f.I ft(regexp)s
694 X
2256 Y
1414 X
0.0 10 10 f.R ft(Include)s
1739 X(\()s
0.0 10 10 f.B ft(\261n)s
0.0 10 10 f.R ft(\))s
1937 X(or)s
2046 X(exclude)s
2382 X(\()s
0.0 10 10 f.B ft(\261N)s
0.0 10 10 f.R ft(\))s
2596 X(all)s
2722 X(requests)s
3075 X(on)s
3201 X(a)s
3271 X(URL)s
3496 X(\(archive)s
3847 X(name\))s
4121 X(matching)s
4518 X(the)s
4665 X(given)s
4912 X(perl)s
5092 X(regular)s
694 X
2376 Y
1414 X(expression.)s
694 X
2544 Y
1054 X
0.0 10 10 f.B ft(\261noescape)s
694 X
2664 Y
1414 X
0.0 10 10 f.R ft(Do)s
1561 X(not)s
1714 X(escape)s
2004 X(the)s
2151 X(special)s
2453 X(characters)s
2881 X(\("+")s
3077 X(and)s
3246 X("."\))s
3411 X(in)s
3514 X(the)s
3661 X(remaining)s
4091 X(search)s
4370 X(options.)s
694 X
2832 Y
0.0 9 9 f.B ft(INPUT)s
997 X
0.0 9 9 f.S2 ft(O)s
1035 X(O)s
1073 X(O)s
1111 X(O)s
1149 X(O)s
694 X
2952 Y
1054 X
0.0 10 10 f.R ft(After)s
1291 X(parsing)s
1611 X(the)s
1759 X(options,)s
2105 X(the)s
2253 X(remaining)s
2684 X(arguments)s
3126 X(on)s
3252 X(the)s
3400 X(command-line)s
4003 X(are)s
4150 X(treated)s
4447 X(as)s
4556 X(input)s
4788 X(arguments)s
5230 X(and)s
694 X
3072 Y
1054 X(are)s
1200 X(read)s
1396 X(in)s
1499 X(the)s
1646 X(order)s
1881 X(given.)s
2178 X(If)s
2269 X(no)s
2394 X(input)s
2625 X(arguments)s
3066 X(are)s
3212 X(given,)s
3484 X(the)s
3631 X(con\256gured)s
4083 X(default)s
4385 X(log\256le)s
4666 X(is)s
4758 X(read)s
4954 X([)s
0.0 10 10 f.B ft(+)s
0.0 10 10 f.R ft(].)s
694 X
3240 Y
1054 X
0.0 10 10 f.B ft(\261)s
1414 X
0.0 10 10 f.R ft(Read)s
1644 X(from)s
1863 X(standard)s
2226 X(input)s
2457 X(\(STDIN\).)s
694 X
3408 Y
1054 X
0.0 10 10 f.B ft(+)s
1414 X
0.0 10 10 f.R ft(Read)s
1644 X(the)s
1791 X(default)s
2093 X(log\256le.)s
2399 X([as)s
2540 X(con\256gured])s
694 X
3576 Y
1054 X
0.0 10 10 f.I ft(\256lename)s
0.0 10 10 f.S2 ft(P)s
0.0 10 10 f.R ft(...)s
694 X
3696 Y
1414 X(Read)s
1649 X(the)s
1801 X(given)s
2053 X(\256le)s
2211 X(and)s
2385 X(determine)s
2814 X(from)s
3038 X(the)s
3190 X(\256rst)s
3376 X(line)s
3555 X(whether)s
3905 X(it)s
3990 X(is)s
4086 X(a)s
4159 X(previous)s
4532 X(output)s
4817 X(summary)s
5218 X(or)s
5330 X(a)s
694 X
3816 Y
1414 X(CLF)s
1644 X(log\256le.)s
1996 X(If)s
2108 X(the)s
2276 X
0.0 10 10 f.I ft(\256lename)s
0.0 10 10 f.S2 ft(P)s
0.0 10 10 f.R ft('s)s
2740 X(extension)s
3169 X(indicates)s
3570 X(that)s
3766 X(is)s
3879 X(is)s
3992 X(compressed)s
4509 X(\(gz|z|Z\),)s
4884 X(then)s
5101 X(pipe)s
5318 X(it)s
694 X
3936 Y
1414 X(through)s
1759 X(the)s
1915 X(con\256gured)s
2376 X(decompression)s
3009 X(program)s
3381 X([)s
0.0 10 10 f.B ft(gunzip)s
3738 X(\261c)s
0.0 10 10 f.R ft(])s
3899 X(\256rst.)s
4114 X(Summary)s
4537 X(\256les)s
4737 X(must)s
4965 X(have)s
5186 X(been)s
694 X
4056 Y
1414 X(created)s
1754 X(with)s
1985 X(the)s
2160 X(same)s
2417 X(\(or)s
2585 X(similar\))s
2948 X(con\256guration)s
3533 X(and)s
3729 X(command-line)s
4358 X(options)s
4705 X(as)s
4840 X(the)s
5014 X(currently)s
694 X
4176 Y
1414 X(running)s
1750 X(program;)s
2141 X(if)s
2227 X(not,)s
2405 X(weird)s
2657 X(things)s
2927 X(will)s
3108 X(happen.)s
694 X
4344 Y
0.0 9 9 f.B ft(USAGE)s
1027 X
0.0 9 9 f.S2 ft(O)s
1065 X(O)s
1103 X(O)s
1141 X(O)s
1179 X(O)s
694 X
4464 Y
1054 X
0.0 10 10 f.B ft(wwwstat)s
1450 X
0.0 10 10 f.R ft(is)s
1542 X(used)s
1750 X(for)s
1891 X(many)s
2138 X(purposes:)s
694 X
4632 Y
1104 X(\267)s
1414 X(as)s
1553 X(a)s
1653 X(diagnostic)s
2120 X(utility)s
2416 X(for)s
2588 X(measuring)s
3060 X(server)s
3359 X(activity,)s
3739 X(\256nding)s
4078 X(incorrect)s
4487 X(URL)s
4742 X(references,)s
5230 X(and)s
694 X
4752 Y
1414 X(detecting)s
1805 X(attempted)s
2224 X(misuse)s
2527 X(of)s
2635 X(the)s
2782 X(server;)s
694 X
4920 Y
1104 X(\267)s
1414 X(as)s
1536 X(a)s
1619 X(public)s
1908 X(relations)s
2291 X(tool)s
2485 X(for)s
2639 X(measuring)s
3093 X(technology)s
3575 X(or)s
3696 X(information)s
4206 X(transfer)s
4548 X(\(i.e.,)s
4766 X(Is)s
4876 X(the)s
5036 X(message)s
694 X
5040 Y
1414 X(getting)s
1717 X(out?)s
1914 X(To)s
2050 X(the)s
2197 X(right)s
2411 X(people?\);)s
694 X
5208 Y
1104 X(\267)s
1414 X(as)s
1522 X(an)s
1641 X(archival)s
1987 X(tool)s
2168 X(for)s
2309 X(tracking)s
2661 X(web)s
2852 X(usage)s
3104 X(over)s
3306 X(time)s
3509 X(without)s
3840 X(storing)s
4143 X(the)s
4290 X(entire)s
4542 X(log\256le;)s
4851 X(and,)s
694 X
5376 Y
1104 X(\267)s
1414 X(most)s
1640 X(often,)s
1901 X(as)s
2015 X(an)s
2139 X(easy)s
2346 X(mechanism)s
2831 X(for)s
2977 X(justifying)s
3391 X(all)s
3521 X(the)s
3673 X(hard)s
3880 X(work)s
4115 X(that)s
4295 X(went)s
4519 X(into)s
4705 X(creating)s
5056 X(the)s
5208 X(web)s
694 X
5496 Y
1414 X(content)s
1733 X(that)s
1908 X(people)s
2199 X(out)s
2352 X(there)s
2576 X(are)s
2722 X(requesting.)s
694 X
5664 Y
1054 X(In)s
1166 X(most)s
1390 X(cases,)s
1654 X
0.0 10 10 f.B ft(wwwstat)s
2054 X
0.0 10 10 f.R ft(is)s
2149 X(run)s
2310 X(on)s
2438 X(a)s
2510 X(periodic)s
2865 X(basis)s
3093 X(\(nightly,)s
3463 X(weekly,)s
3804 X(and/or)s
4087 X(monthly\))s
4482 X(by)s
4610 X(a)s
4682 X(wrapper)s
5036 X(program)s
694 X
5784 Y
1054 X(as)s
1174 X(a)s
1255 X
0.0 10 10 f.B ft(crontab)s
1625 X
0.0 10 10 f.R ft(entry)s
1867 X(shortly)s
2182 X(after)s
2401 X(midnight,)s
2825 X(typically)s
3212 X(in)s
3327 X(conjunction)s
3836 X(with)s
4051 X(rotating)s
4399 X(the)s
4558 X(current)s
4877 X(log\256le.)s
5219 X(The)s
694 X
5904 Y
1054 X(output)s
1355 X(is)s
1467 X(usually)s
1801 X(directed)s
2167 X(to)s
2290 X(a)s
2379 X(temporary)s
2834 X(\256le)s
3007 X(which)s
3296 X(can)s
3479 X(later)s
3701 X(be)s
3840 X(moved)s
4157 X(to)s
4280 X(a)s
4369 X(published)s
4803 X(location.)s
5219 X(The)s
694 X
6024 Y
1054 X(temporary)s
1493 X(\256le)s
1650 X(is)s
1746 X(necessary)s
2162 X(to)s
2269 X(avoid)s
2520 X(erasing)s
2836 X(your)s
3047 X(published)s
3464 X(\256le)s
3620 X(during)s
3909 X(wwwstat's)s
4364 X(processing)s
4819 X(\(which)s
5124 X(would)s
694 X
6144 Y
1054 X(look)s
1257 X(very)s
1459 X(odd)s
1634 X(if)s
1720 X(someone)s
2100 X(tried)s
2308 X(to)s
2411 X(GET)s
2630 X(it)s
2711 X(from)s
2930 X(your)s
3138 X(web\).)s
694 X
6312 Y
1054 X
0.0 10 10 f.B ft(wwwstat)s
1461 X
0.0 10 10 f.R ft(can)s
1635 X(be)s
1765 X(run)s
1934 X(as)s
2053 X(a)s
2133 X(CGI)s
2341 X(script)s
2599 X(\()s
0.0 10 10 f.B ft(\261cgi)s
0.0 10 10 f.R ft(\),)s
2898 X(but)s
3062 X(that)s
3248 X(is)s
3351 X(not)s
3515 X(recommended)s
4116 X(unless)s
4402 X(the)s
4560 X(input)s
4802 X(log\256le)s
5094 X(is)s
5197 X(very)s
694 X
6432 Y
1054 X(small.)s
694 X
6600 Y
1054 X(All)s
1215 X(of)s
1331 X(the)s
1486 X(command-line)s
2096 X(options,)s
2449 X(and)s
2625 X(a)s
2701 X(few)s
2882 X(options)s
3209 X(that)s
3391 X(are)s
3544 X(not)s
3704 X(available)s
4096 X(from)s
4322 X(the)s
4476 X(command-line,)s
5110 X(can)s
5280 X(be)s
694 X
6720 Y
1054 X(changed)s
1428 X(within)s
1726 X(the)s
1890 X(user)s
2098 X(and)s
2284 X(system)s
2604 X(con\256guration)s
3179 X(\256les)s
3387 X(\(see)s
3588 X
0.0 10 10 f.B ft(wwwstat.rc)s
0.0 10 10 f.R ft(\).)s
4196 X(These)s
4475 X(\256les)s
4683 X(are)s
4845 X(actually)s
5202 X
0.0 10 10 f.B ft(perl)s
694 X
6840 Y
1054 X
0.0 10 10 f.R ft(library)s
1350 X(modules)s
1719 X(which)s
1993 X(are)s
2144 X(executed)s
2527 X(as)s
2639 X(part)s
2823 X(of)s
2935 X(the)s
3086 X(program's)s
3525 X(initialization.)s
4110 X(The)s
4294 X(example)s
4661 X(provided)s
5045 X(with)s
5252 X(the)s
694 X
6960 Y
1054 X(distribution)s
1541 X(includes)s
1899 X(complete)s
2290 X(documentation)s
2909 X(on)s
3034 X(what)s
3253 X(variables)s
3638 X(can)s
3801 X(be)s
3920 X(set)s
4056 X(and)s
4225 X(their)s
4433 X(range)s
4679 X(of)s
4787 X(values.)s
694 X
7680 Y(Sun Release 4.1)s
2382 X(Last change: 03 November 1996)s
5324 X(5)s
7920 Y
page
0.0 10 10 f.R ft
%%Page: 6 6

694 X
480 Y(wwwstat)s
0.0 10 10 f.S2 ft(O)s
0.0 10 10 f.R ft(\()s
0.0 10 10 f.S2 ft(O)s
0.0 10 10 f.R ft(1)s
0.0 10 10 f.S2 ft(O)s
0.0 10 10 f.R ft(\))s
2586 X(USER COMMANDS )s
4852 X(wwwstat)s
0.0 10 10 f.S2 ft(O)s
0.0 10 10 f.R ft(\()s
0.0 10 10 f.S2 ft(O)s
0.0 10 10 f.R ft(1)s
0.0 10 10 f.S2 ft(O)s
0.0 10 10 f.R ft(\))s
694 X
960 Y
874 X
0.0 9 9 f.B ft(Perl)s
1057 X
0.0 9 9 f.S2 ft(O)s
0.0 9 9 f.B ft(Regular)s
1405 X
0.0 9 9 f.S2 ft(O)s
0.0 9 9 f.B ft(Expressions)s
1903 X
0.0 9 9 f.S2 ft(O)s
1941 X(O)s
1979 X(O)s
694 X
1080 Y
1054 X
0.0 10 10 f.R ft(The)s
1236 X(Search)s
1533 X(Options)s
1876 X(and)s
2046 X(many)s
2294 X(of)s
2403 X(the)s
2551 X(con\256guration)s
3110 X(\256le)s
3264 X(settings)s
3596 X(allow)s
3844 X(for)s
3986 X(full)s
4151 X(use)s
4310 X(of)s
4419 X(perl)s
4600 X(regular)s
4908 X(expressions)s
694 X
1200 Y
1054 X(\(with)s
1304 X(the)s
1465 X(exception)s
1892 X(that)s
2080 X(the)s
2240 X(\261a,)s
2397 X(\261A,)s
2582 X(\261n)s
2720 X(and)s
2902 X(\261N)s
3062 X(options)s
3395 X(treat)s
3610 X('+')s
3770 X(and)s
3952 X('.')s
4081 X(characters)s
4522 X(as)s
4643 X(normal)s
4964 X(alphabetic)s
694 X
1320 Y
1054 X(characters)s
1508 X(unless)s
1809 X(they)s
2032 X(are)s
2204 X(preceded)s
2614 X(by)s
2765 X(the)s
2938 X
0.0 10 10 f.B ft(\261noescape)s
3422 X
0.0 10 10 f.R ft(option\).)s
3812 X(Most)s
4069 X(people)s
4386 X(only)s
4614 X(need)s
4852 X(to)s
4980 X(know)s
5252 X(the)s
694 X
1440 Y
1054 X(following)s
1468 X(special)s
1770 X(characters:)s
694 X
1608 Y
1054 X
0.0 10 10 f.B ft(\303)s
1454 X
0.0 10 10 f.R ft(at)s
1551 X(start)s
1748 X(of)s
1856 X(pattern,)s
2183 X(means)s
2463 X("starts)s
2740 X(with)s
2943 X(pattern".)s
694 X
1728 Y
1054 X
0.0 10 10 f.B ft($)s
1454 X
0.0 10 10 f.R ft(at)s
1551 X(end)s
1720 X(of)s
1828 X(pattern,)s
2155 X(means)s
2435 X("ends)s
2684 X(with)s
2887 X(pattern".)s
694 X
1848 Y
1054 X
0.0 10 10 f.B ft(\(...\))s
1454 X
0.0 10 10 f.R ft(groups)s
1751 X(pattern)s
2053 X(elements)s
2433 X(as)s
2541 X(a)s
2610 X(single)s
2874 X(element.)s
694 X
1968 Y
1054 X
0.0 10 10 f.B ft(?)s
1454 X
0.0 10 10 f.R ft(matches)s
1806 X(preceding)s
2224 X(element)s
2565 X(zero)s
2761 X(or)s
2869 X(one)s
3038 X(times.)s
694 X
2088 Y
1054 X
0.0 10 10 f.S ft(*)s
1454 X
0.0 10 10 f.R ft(matches)s
1806 X(preceding)s
2224 X(element)s
2565 X(zero)s
2761 X(or)s
2869 X(more)s
3099 X(times.)s
694 X
2208 Y
1054 X
0.0 10 10 f.B ft(+)s
1454 X
0.0 10 10 f.R ft(matches)s
1806 X(preceding)s
2224 X(element)s
2565 X(one)s
2734 X(or)s
2842 X(more)s
3072 X(times.)s
694 X
2328 Y
1054 X
0.0 10 10 f.B ft(.)s
1454 X
0.0 10 10 f.R ft(matches)s
1806 X(any)s
1975 X(single)s
2239 X(character.)s
694 X
2448 Y
1054 X
0.0 10 10 f.B ft([...])s
1454 X
0.0 10 10 f.R ft(denotes)s
1788 X(a)s
1861 X(class)s
2084 X(of)s
2195 X(characters)s
2626 X(to)s
2732 X(match.)s
3029 X([\303...])s
3231 X(negates)s
3558 X(the)s
3708 X(class.)s
3980 X(Inside)s
4252 X(a)s
4324 X(class,)s
4571 X('-')s
4698 X(indicates)s
5081 X(a)s
5153 X(range)s
694 X
2568 Y
1454 X(of)s
1562 X(characters.)s
694 X
2688 Y
1054 X
0.0 10 10 f.B ft(\(A|B|C\))s
1454 X
0.0 10 10 f.R ft(matches)s
1806 X(if)s
1892 X(A)s
1989 X(or)s
2097 X(B)s
2189 X(or)s
2297 X(C)s
2389 X(matches.)s
694 X
2856 Y
1054 X(Depending)s
1523 X(on)s
1654 X(your)s
1868 X(command)s
2293 X(shell,)s
2538 X(some)s
2780 X(special)s
3088 X(characters)s
3521 X(may)s
3723 X(need)s
3941 X(to)s
4049 X(be)s
4173 X(escaped)s
4518 X(on)s
4648 X(the)s
4800 X(command)s
5224 X(line)s
694 X
2976 Y
1054 X(or)s
1162 X(enclosed)s
1536 X(in)s
1639 X(single-quotes)s
2197 X(to)s
2300 X(avoid)s
2547 X(shell)s
2761 X(interpretation.)s
694 X
3144 Y
0.0 9 9 f.B ft(EXAMPLES)s
1217 X
0.0 9 9 f.S2 ft(O)s
1255 X(O)s
1293 X(O)s
1331 X(O)s
1369 X(O)s
694 X
3264 Y
1054 X
0.0 10 10 f.R ft(Summarize)s
1534 X(requests)s
1886 X(from)s
2105 X(commercial)s
2601 X(domains.)s
694 X
3384 Y
1414 X
0.0 10 10 f.B ft(wwwstat)s
1810 X(\261a)s
1935 X('.com$')s
694 X
3552 Y
1054 X
0.0 10 10 f.R ft(Summarize)s
1534 X(requests)s
1886 X(from)s
2105 X(the)s
2252 X(host)s
2444 X(kiwi.ics.uci.edu)s
694 X
3672 Y
1414 X
0.0 10 10 f.B ft(wwwstat)s
1810 X(\261a)s
1935 X('\303kiwi.ics.uci.edu$')s
694 X
3840 Y
1054 X
0.0 10 10 f.R ft(Summarize)s
1534 X(requests)s
1886 X(not)s
2039 X(from)s
2258 X(kiwi.ics.uci.edu)s
694 X
3960 Y
1414 X
0.0 10 10 f.B ft(wwwstat)s
1810 X(\261A)s
1957 X('\303kiwi.ics.uci.edu$')s
694 X
4128 Y
1054 X
0.0 10 10 f.R ft(Summarize)s
1534 X(requests)s
1886 X(resulting)s
2261 X(in)s
2364 X(temporary)s
2799 X(redirects)s
694 X
4248 Y
1414 X
0.0 10 10 f.B ft(wwwstat)s
1810 X(\261c)s
1929 X('302')s
694 X
4416 Y
1054 X
0.0 10 10 f.R ft(Summarize)s
1534 X(requests)s
1886 X(resulting)s
2261 X(in)s
2364 X(server)s
2632 X(errors)s
694 X
4536 Y
1414 X
0.0 10 10 f.B ft(wwwstat)s
1810 X(\261c)s
1929 X('\3035')s
694 X
4704 Y
1054 X
0.0 10 10 f.R ft(Summarize)s
1534 X(unsuccessful)s
2069 X(requests)s
694 X
4824 Y
1414 X
0.0 10 10 f.B ft(wwwstat)s
1810 X(\261C)s
1957 X('\3032')s
2131 X(\261C)s
2278 X('304')s
694 X
4992 Y
1054 X
0.0 10 10 f.R ft(Summarize)s
1534 X(requests)s
1886 X(in)s
1989 X(\256rst)s
2170 X(week)s
2405 X(of)s
2513 X(the)s
2660 X(month)s
694 X
5112 Y
1414 X
0.0 10 10 f.B ft(wwwstat)s
1810 X(\261d)s
1941 X(')s
1999 X([1-7])s
2223 X(')s
694 X
5280 Y
1054 X
0.0 10 10 f.R ft(Summarize)s
1534 X(requests)s
1886 X(in)s
1989 X(second)s
2291 X(week)s
2526 X(of)s
2634 X(the)s
2781 X(month)s
694 X
5400 Y
1414 X
0.0 10 10 f.B ft(wwwstat)s
1810 X(\261d)s
1941 X(')s
1999 X(\([89]|1[0-4]\))s
2527 X(')s
694 X
5568 Y
1054 X
0.0 10 10 f.R ft(Summarize)s
1534 X(requests)s
1886 X(in)s
1989 X(third)s
2203 X(week)s
2438 X(of)s
2546 X(the)s
2693 X(month)s
694 X
5688 Y
1414 X
0.0 10 10 f.B ft(wwwstat)s
1810 X(\261d)s
1941 X(')s
1999 X(\(1[5-9]|2[01]\))s
2577 X(')s
694 X
5856 Y
1054 X
0.0 10 10 f.R ft(Summarize)s
1534 X(requests)s
1886 X(in)s
1989 X(fourth)s
2258 X(week)s
2493 X(of)s
2601 X(the)s
2748 X(month)s
694 X
5976 Y
1414 X
0.0 10 10 f.B ft(wwwstat)s
1810 X(\261d)s
1941 X(')s
1999 X(2[2-8])s
2273 X(')s
694 X
6144 Y
1054 X
0.0 10 10 f.R ft(Summarize)s
1534 X(requests)s
1886 X(in)s
1989 X(leftover)s
2324 X(days)s
2532 X(of)s
2640 X(the)s
2787 X(month)s
694 X
6264 Y
1414 X
0.0 10 10 f.B ft(wwwstat)s
1810 X(\261d)s
1941 X(')s
1999 X(\(29|30|31\))s
2434 X(')s
694 X
6432 Y
1054 X
0.0 10 10 f.R ft(Summarize)s
1534 X(requests)s
1886 X(in)s
1989 X(February)s
694 X
6552 Y
1414 X
0.0 10 10 f.B ft(wwwstat)s
1810 X(\261d)s
1941 X('Feb')s
694 X
6720 Y
1054 X
0.0 10 10 f.R ft(Summarize)s
1534 X(requests)s
1886 X(in)s
1989 X(year)s
2185 X(1994)s
694 X
6840 Y
1414 X
0.0 10 10 f.B ft(wwwstat)s
1810 X(\261d)s
1941 X('1994')s
694 X
7008 Y
1054 X
0.0 10 10 f.R ft(Summarize)s
1534 X(requests)s
1886 X(not)s
2039 X(in)s
2142 X(April)s
694 X
7128 Y
1414 X
0.0 10 10 f.B ft(wwwstat)s
1810 X(\261D)s
1957 X('Apr')s
694 X
7296 Y
1054 X
0.0 10 10 f.R ft(Summarize)s
1534 X(requests)s
1886 X(between)s
2243 X(midnight)s
2630 X(and)s
2799 X(1am)s
694 X
7776 Y(Sun Release 4.1)s
2382 X(Last change: 03 November 1996)s
5324 X(6)s
7920 Y
page
0.0 10 10 f.R ft
%%Page: 7 7

694 X
480 Y(wwwstat)s
0.0 10 10 f.S2 ft(O)s
0.0 10 10 f.R ft(\()s
0.0 10 10 f.S2 ft(O)s
0.0 10 10 f.R ft(1)s
0.0 10 10 f.S2 ft(O)s
0.0 10 10 f.R ft(\))s
2586 X(USER COMMANDS )s
4852 X(wwwstat)s
0.0 10 10 f.S2 ft(O)s
0.0 10 10 f.R ft(\()s
0.0 10 10 f.S2 ft(O)s
0.0 10 10 f.R ft(1)s
0.0 10 10 f.S2 ft(O)s
0.0 10 10 f.R ft(\))s
694 X
960 Y
1414 X
0.0 10 10 f.B ft(wwwstat)s
1810 X(\261t)s
1918 X('00')s
694 X
1128 Y
1054 X
0.0 10 10 f.R ft(Summarize)s
1534 X(requests)s
1886 X(not)s
2039 X(received)s
2401 X(between)s
2758 X(noon)s
2983 X(and)s
3152 X(1pm)s
694 X
1248 Y
1414 X
0.0 10 10 f.B ft(wwwstat)s
1810 X(\261T)s
1952 X('12')s
694 X
1416 Y
1054 X
0.0 10 10 f.R ft(Summarize)s
1534 X(requests)s
1886 X(with)s
2089 X(a)s
2158 X(gif)s
2294 X(extension)s
694 X
1536 Y
1414 X
0.0 10 10 f.B ft(wwwstat)s
1810 X(\261n)s
1941 X('.gif$')s
694 X
1704 Y
1054 X
0.0 10 10 f.R ft(Summarize)s
1534 X(requests)s
1886 X(under)s
2138 X(user's)s
2401 X(URL)s
694 X
1824 Y
1414 X
0.0 10 10 f.B ft(wwwstat)s
1810 X(\261n)s
1941 X('\303/\304user/')s
694 X
1992 Y
1054 X
0.0 10 10 f.R ft(Summarize)s
1534 X(requests)s
1886 X(not)s
2039 X(under)s
2291 X("hidden")s
2670 X(paths)s
694 X
2112 Y
1414 X
0.0 10 10 f.B ft(wwwstat)s
1810 X(\261N)s
1957 X('/hidden/')s
694 X
2280 Y
0.0 9 9 f.B ft(ENVIRONMENT)s
1412 X
0.0 9 9 f.S2 ft(O)s
1450 X(O)s
1488 X(O)s
1526 X(O)s
1564 X(O)s
694 X
2400 Y
1054 X
0.0 10 10 f.B ft(HOME)s
1654 X
0.0 10 10 f.R ft(Location)s
2034 X(of)s
2142 X(user's)s
2405 X(home)s
2652 X(directory,)s
3062 X(placed)s
3347 X(on)s
3472 X(INC)s
3669 X(path.)s
694 X
2568 Y
1054 X
0.0 10 10 f.B ft(LOGDIR)s
1654 X
0.0 10 10 f.R ft(Used)s
1884 X(instead)s
2192 X(of)s
2300 X(HOME)s
2619 X(if)s
2705 X(latter)s
2935 X(is)s
3027 X(unde\256ned.)s
694 X
2736 Y
1054 X
0.0 10 10 f.B ft(PERLLIB)s
1654 X
0.0 10 10 f.R ft(A)s
1751 X(colon-separated)s
2407 X(list)s
2555 X(of)s
2663 X(directories)s
3109 X(in)s
3212 X(which)s
3481 X(to)s
3584 X(look)s
3787 X(for)s
3928 X(include)s
4247 X(and)s
4416 X(con\256guration)s
4974 X(\256les.)s
694 X
2904 Y
0.0 9 9 f.B ft(FILES)s
977 X
0.0 9 9 f.S2 ft(O)s
1015 X(O)s
1053 X(O)s
1091 X(O)s
1129 X(O)s
694 X
3024 Y
1054 X
0.0 10 10 f.R ft(Unless)s
1363 X(a)s
1444 X(pathname)s
1869 X(is)s
1973 X(supplied,)s
2374 X(the)s
2533 X(con\256guration)s
3103 X(\256les)s
3307 X(are)s
3465 X(obtained)s
3846 X(from)s
4077 X(the)s
4236 X(current)s
4555 X(directory,)s
4977 X(the)s
5136 X(user's)s
694 X
3144 Y
1054 X(home)s
1309 X(directory)s
1702 X(\()s
0.0 10 10 f.B ft(HOME)s
2085 X
0.0 10 10 f.R ft(or)s
2201 X
0.0 10 10 f.B ft(LOGDIR)s
0.0 10 10 f.R ft(\),)s
2697 X(the)s
2851 X(standard)s
3221 X(library)s
3519 X(path)s
3723 X(\()s
0.0 10 10 f.B ft(PERLLIB)s
0.0 10 10 f.R ft(\),)s
4286 X(and)s
4462 X(the)s
4616 X(directory)s
5008 X(indicated)s
694 X
3264 Y
1054 X(by)s
1179 X(the)s
1326 X(command)s
1745 X(pathname)s
2158 X(\(in)s
2294 X(that)s
2469 X(order\).)s
694 X
3432 Y
1054 X
0.0 10 10 f.B ft(.wwwstatrc)s
1804 X
0.0 10 10 f.R ft(User)s
2017 X(con\256guration)s
2575 X(\256le.)s
694 X
3600 Y
1054 X
0.0 10 10 f.B ft(wwwstat.rc)s
1804 X
0.0 10 10 f.R ft(System)s
2124 X(con\256guration)s
2682 X(\256le.)s
694 X
3768 Y
1054 X
0.0 10 10 f.B ft(domains.pl)s
1804 X
0.0 10 10 f.R ft(Mapping)s
2190 X(of)s
2298 X(Internet)s
2633 X(domain)s
2958 X(to)s
3061 X(country)s
3391 X(or)s
3499 X(organization.)s
694 X
3936 Y
1054 X
0.0 10 10 f.B ft(dnscache.dir)s
694 X
4056 Y
1054 X(dnscache.pag)s
1804 X
0.0 10 10 f.R ft(DBM)s
2057 X(\256les)s
2249 X(for)s
2390 X(persistent)s
2798 X(DNS)s
3023 X(cache.)s
694 X
4224 Y
0.0 9 9 f.B ft(SEE)s
887 X
0.0 9 9 f.S2 ft(O)s
0.0 9 9 f.B ft(ALSO)s
1170 X
0.0 9 9 f.S2 ft(O)s
1208 X(O)s
1246 X(O)s
1284 X(O)s
694 X
4344 Y
1054 X
0.0 10 10 f.B ft(crontab)s
0.0 10 10 f.R ft(\(1\),)s
1553 X
0.0 10 10 f.B ft(gwstat)s
0.0 10 10 f.R ft(\(1\),)s
1996 X
0.0 10 10 f.B ft(httpd)s
0.0 10 10 f.R ft(\(1m\),)s
2474 X
0.0 10 10 f.B ft(perl)s
0.0 10 10 f.R ft(\(1\),)s
2812 X
0.0 10 10 f.B ft(splitlog)s
0.0 10 10 f.R ft(\(1\))s
694 X
4512 Y
1054 X(More)s
1295 X(info)s
1481 X(and)s
1650 X(the)s
1797 X(latest)s
2033 X(version)s
2352 X(of)s
2460 X(wwwstat)s
2840 X(can)s
3003 X(be)s
3122 X(obtained)s
3491 X(from)s
694 X
4680 Y
1179 X(http://www.ics.uci.edu/pub/websoft/wwwstat/)s
694 X
4800 Y
1204 X(ftp://www.ics.uci.edu/pub/websoft/wwwstat/)s
694 X
4968 Y
1054 X(If)s
1195 X(you)s
1420 X(have)s
1683 X(any)s
1902 X(suggestions,)s
2469 X(bug)s
2694 X(reports,)s
3071 X(\256xes,)s
3360 X(or)s
3517 X(enhancements,)s
4181 X(please)s
4504 X(join)s
4734 X(the)s
4930 X(<wwwstat-)s
694 X
5088 Y
1054 X(users@ics.uci.edu>)s
1873 X(mailing)s
2218 X(list)s
2380 X(by)s
2519 X(sending)s
2869 X(e-mail)s
3163 X(with)s
3380 X("subscribe")s
3878 X(in)s
3995 X(the)s
4156 X(subject)s
4478 X(of)s
4600 X(the)s
4760 X(message)s
5136 X(to)s
5252 X(the)s
694 X
5208 Y
1054 X(request)s
1367 X(address)s
1691 X(<wwwstat-users-request@ics.uci.edu>.)s
3311 X(The)s
3491 X(list)s
3639 X(is)s
3731 X(archived)s
4099 X(at)s
4196 X(the)s
4343 X(above)s
4606 X(address.)s
694 X
5376 Y
874 X
0.0 9 9 f.B ft(More)s
1107 X
0.0 9 9 f.S2 ft(O)s
0.0 9 9 f.B ft(About)s
1385 X
0.0 9 9 f.S2 ft(O)s
0.0 9 9 f.B ft(HTTP)s
1668 X
0.0 9 9 f.S2 ft(O)s
1706 X(O)s
1744 X(O)s
694 X
5496 Y
1054 X
0.0 10 10 f.R ft(HTTP/1.1)s
1482 X(Proposed)s
1879 X(Standard)s
694 X
5616 Y
1414 X(R.)s
1535 X(Fielding,)s
1923 X(J.)s
2016 X(Gettys,)s
2330 X(J.)s
2422 X(C.)s
2542 X(Mogul,)s
2862 X(H.)s
2987 X(Frystyk,)s
3346 X(and)s
3518 X(T.)s
3632 X(Berners-Lee.)s
4202 X("Hypertext)s
4670 X(Transfer)s
5035 X(Protocol)s
694 X
5736 Y
1414 X(--)s
1505 X(HTTP/1.1",)s
1999 X(U.C.)s
2213 X(Irvine,)s
2501 X(DEC,)s
2751 X(MIT/LCS,)s
3196 X(August)s
3510 X(1996.)s
694 X
5856 Y
1414 X(http://www.ics.uci.edu/pub/ietf/http/)s
694 X
6024 Y
874 X
0.0 9 9 f.B ft(More)s
1107 X
0.0 9 9 f.S2 ft(O)s
0.0 9 9 f.B ft(About)s
1385 X
0.0 9 9 f.S2 ft(O)s
0.0 9 9 f.B ft(Perl)s
1583 X
0.0 9 9 f.S2 ft(O)s
1621 X(O)s
1659 X(O)s
694 X
6144 Y
1054 X
0.0 10 10 f.R ft(The)s
1234 X(Perl)s
1420 X(Language)s
1838 X(Home)s
2107 X(Page)s
694 X
6264 Y
1414 X(http://www.perl.com/perl/index.html)s
694 X
6432 Y
1054 X(Johan)s
1312 X(Vromans')s
1736 X(Perl)s
1922 X(Reference)s
2350 X(Guide)s
694 X
6552 Y
1414 X(http://www.xs4all.nl/\304jvromans/perlref.html)s
694 X
6720 Y
0.0 9 9 f.B ft(DIAGNOSTICS)s
1347 X
0.0 9 9 f.S2 ft(O)s
1385 X(O)s
1423 X(O)s
1461 X(O)s
1499 X(O)s
694 X
6840 Y
1054 X
0.0 10 10 f.R ft(See)s
1223 X(also)s
1409 X(the)s
1556 X
0.0 10 10 f.B ft(Diagnostic)s
2031 X(Options)s
2396 X
0.0 10 10 f.R ft(above.)s
694 X
7008 Y
1054 X("[none])s
1380 X(to)s
1483 X([none]")s
1809 X(dates)s
694 X
7128 Y
1414 X
0.0 10 10 f.B ft(wwwstat)s
1824 X
0.0 10 10 f.R ft(did)s
1991 X(not)s
2158 X(\256nd)s
2352 X(any)s
2534 X(matching)s
2944 X(data)s
3148 X(to)s
3264 X(summarize.)s
3790 X(If)s
3894 X(you)s
4082 X(get)s
4242 X(such)s
4463 X(an)s
4595 X(empty)s
4883 X(summary,)s
5318 X(it)s
694 X
7248 Y
1414 X(means)s
1696 X(that)s
1873 X(either:)s
2155 X(1\))s
2265 X(there)s
2491 X(was)s
2673 X(no)s
2800 X(valid)s
3027 X(data)s
3220 X(\(the)s
3402 X(input)s
3635 X(\256les)s
3829 X(are)s
3977 X(all)s
4104 X(invalid)s
4409 X(or)s
4519 X(empty\),)s
4853 X(or)s
4962 X(2\))s
5071 X(none)s
5291 X(of)s
694 X
7728 Y(Sun Release 4.1)s
2382 X(Last change: 03 November 1996)s
5324 X(7)s
7920 Y
page
0.0 10 10 f.R ft
%%Page: 8 8

694 X
480 Y(wwwstat)s
0.0 10 10 f.S2 ft(O)s
0.0 10 10 f.R ft(\()s
0.0 10 10 f.S2 ft(O)s
0.0 10 10 f.R ft(1)s
0.0 10 10 f.S2 ft(O)s
0.0 10 10 f.R ft(\))s
2586 X(USER COMMANDS )s
4852 X(wwwstat)s
0.0 10 10 f.S2 ft(O)s
0.0 10 10 f.R ft(\()s
0.0 10 10 f.S2 ft(O)s
0.0 10 10 f.R ft(1)s
0.0 10 10 f.S2 ft(O)s
0.0 10 10 f.R ft(\))s
694 X
960 Y
1414 X(the)s
1561 X(data)s
1752 X(matched)s
2115 X(the)s
2262 X(search)s
2541 X(options)s
2861 X(given.)s
3158 X(Try)s
3327 X(using)s
3569 X(the)s
3716 X
0.0 10 10 f.B ft(\261e)s
3835 X
0.0 10 10 f.R ft(option)s
4116 X(to)s
4219 X(show)s
4455 X(invalid)s
4758 X(data.)s
694 X
1128 Y
1054 X(100%)s
1312 X(unresolved)s
694 X
1248 Y
1414 X(If)s
1511 X(the)s
1663 X(subdomain)s
2132 X(section)s
2445 X(indicates)s
2830 X(that)s
3010 X(all)s
3140 X(of)s
3253 X(the)s
3405 X(client)s
3657 X(requests)s
4014 X(come)s
4260 X(from)s
4484 X(unresolved)s
4952 X(hostnames)s
694 X
1368 Y
1414 X(\(IP)s
1567 X(addresses\),)s
2038 X(this)s
2214 X(probably)s
2600 X(means)s
2886 X(that)s
3067 X(your)s
3281 X(server)s
3555 X(is)s
3653 X(running)s
3995 X(without)s
4331 X(DNS)s
4561 X(resolution)s
4991 X(\(common)s
694 X
1488 Y
1414 X(for)s
1579 X(very)s
1805 X(busy)s
2043 X(sites\).)s
2353 X(You)s
2574 X(can)s
2761 X(use)s
2943 X(the)s
3114 X
0.0 10 10 f.B ft(\261dns)s
3364 X
0.0 10 10 f.R ft(option)s
3669 X(to)s
3796 X(have)s
4033 X
0.0 10 10 f.B ft(wwwstat)s
4452 X
0.0 10 10 f.R ft(perform)s
4821 X(the)s
4991 X(hostname)s
694 X
1608 Y
1414 X(lookups.)s
1815 X(If)s
1915 X(100%)s
2182 X(of)s
2299 X(the)s
2454 X(hosts)s
2693 X(are)s
2847 X(still)s
3031 X(unresolved)s
3502 X(with)s
3713 X(the)s
3868 X
0.0 10 10 f.B ft(\261dns)s
4102 X
0.0 10 10 f.R ft(option)s
4391 X(in)s
4502 X(e)s
/Cff {   (f) show xsiz pt 20 div neg 0 rmoveto (f) s } def

Cff(ect,)s
4781 X(then)s
4986 X(it)s
5075 X(may)s
5280 X(be)s
694 X
1728 Y
1414 X(that)s
1608 X(all)s
1752 X(of)s
1879 X(the)s
2045 X(clients)s
2350 X(accessing)s
2776 X(your)s
3003 X(server)s
3290 X(are)s
3454 X(doing)s
3725 X(so)s
3857 X(from)s
4094 X(temporary)s
4547 X(SLIP/PPP)s
4992 X(addresses)s
694 X
1848 Y
1414 X(without)s
1753 X(DNS)s
1986 X(names,)s
2299 X(or)s
2415 X(it)s
2504 X(may)s
2708 X(be)s
2834 X(a)s
2910 X(problem)s
3275 X(with)s
3485 X(wwwstat's)s
3944 X(DNS)s
4176 X(cache)s
4434 X(\(delete)s
4737 X(the)s
4891 X(cache)s
5149 X(\256les\),)s
694 X
1968 Y
1414 X(with)s
1639 X(your)s
1869 X(system's)s
2266 X(DNS)s
2513 X(software)s
2903 X(\(contact)s
3271 X(your)s
3501 X(system)s
3826 X(administrator\),)s
4464 X(or)s
4594 X(with)s
4818 X(your)s
5047 X(network)s
694 X
2088 Y
1414 X(connection.)s
694 X
2256 Y
0.0 9 9 f.B ft(NOTES)s
1022 X
0.0 9 9 f.S2 ft(O)s
1060 X(O)s
1098 X(O)s
1136 X(O)s
1174 X(O)s
694 X
2376 Y
874 X
0.0 9 9 f.B ft(Hits)s
1057 X
0.0 9 9 f.S2 ft(O)s
0.0 9 9 f.B ft(vs)s
1175 X
0.0 9 9 f.S2 ft(O)s
0.0 9 9 f.B ft(Requests)s
1558 X
0.0 9 9 f.S2 ft(O)s
0.0 9 9 f.B ft(vs)s
1676 X
0.0 9 9 f.S2 ft(O)s
0.0 9 9 f.B ft(Visitors)s
2014 X
0.0 9 9 f.S2 ft(O)s
694 X
2496 Y
1054 X
0.0 10 10 f.B ft(wwwstat)s
1453 X
0.0 10 10 f.R ft(counts)s
1742 X(HTTP)s
2020 X(requests)s
2375 X(received)s
2740 X(by)s
2868 X(the)s
3018 X(server.)s
3339 X(When)s
3604 X(a)s
3675 X(request)s
3990 X(is)s
4084 X(successful,)s
4546 X(it)s
4629 X(is)s
4723 X(often)s
4955 X(referred)s
5296 X(to)s
694 X
2616 Y
1054 X(as)s
1180 X(a)s
1267 X("hit".)s
1523 X(Retrieving)s
1988 X(a)s
2074 X(single)s
2355 X(image)s
2641 X(is)s
2750 X(one)s
2936 X(GET)s
3172 X(request.)s
3527 X(Retrieving)s
3991 X(an)s
4127 X(HTML)s
4452 X(page)s
4682 X(is)s
4791 X(also)s
4994 X(one)s
5180 X(GET)s
694 X
2736 Y
1054 X(request,)s
1393 X(but)s
1547 X(that)s
1723 X(does)s
1931 X(not)s
2084 X(include)s
2403 X(the)s
2550 X(separate)s
2901 X(requests)s
3253 X(made)s
3494 X(for)s
3635 X(in-line)s
3921 X(images)s
4229 X(or)s
4337 X(related)s
4633 X(objects.)s
4991 X(Checking)s
694 X
2856 Y
1054 X(to)s
1157 X(see)s
1309 X(if)s
1395 X(a)s
1464 X(cached)s
1765 X(image)s
2034 X(is)s
2126 X(still)s
2302 X(valid)s
2527 X(\(a)s
2629 X(HEAD)s
2931 X(or)s
3039 X(conditional)s
3514 X(GET\))s
3766 X(is)s
3858 X(also)s
4044 X(one)s
4213 X(request.)s
694 X
3024 Y
1054 X(In)s
1168 X(all)s
1299 X(sections)s
1652 X(except)s
1943 X(the)s
2096 X(archive)s
2420 X(section,)s
2759 X
0.0 10 10 f.B ft(wwwstat)s
3161 X
0.0 10 10 f.R ft(shows)s
3442 X(the)s
3594 X(statistics)s
3969 X(for)s
4115 X(all)s
4245 X(requests)s
4602 X(\(successful)s
5075 X(or)s
5188 X(not\).)s
694 X
3144 Y
1054 X(In)s
1167 X(the)s
1319 X(archive)s
1642 X(section,)s
1980 X(it)s
2066 X(normally)s
2457 X(shows)s
2736 X(all)s
2865 X(non-successful)s
3487 X(requests)s
3843 X(under)s
4099 X(a)s
4172 X(special)s
4478 X(category)s
4850 X(for)s
4995 X(the)s
5146 X(status)s
694 X
3264 Y
1054 X(code)s
1293 X(and)s
1488 X(only)s
1717 X(successful)s
2178 X(requests)s
2556 X(\(hits\))s
2818 X(under)s
3096 X(the)s
3269 X(URL)s
3520 X(or)s
3654 X(archive)s
3998 X(tree)s
4198 X(associated)s
4659 X(with)s
4888 X(the)s
5061 X(request.)s
694 X
3384 Y
1054 X(However,)s
1489 X(this)s
1679 X(grouping)s
2085 X(of)s
2213 X(non-successful)s
2851 X(requests)s
3223 X(is)s
3335 X(disabled)s
3713 X(when)s
3974 X
0.0 10 10 f.B ft(wwwstat)s
4390 X
0.0 10 10 f.R ft(is)s
4502 X(used)s
4730 X(with)s
4953 X(the)s
5120 X(search)s
694 X
3504 Y
1054 X(options)s
1374 X
0.0 10 10 f.B ft(\261n)s
0.0 10 10 f.R ft(,)s
1530 X
0.0 10 10 f.B ft(\261c)s
0.0 10 10 f.R ft(,)s
1674 X(and)s
1843 X
0.0 10 10 f.B ft(\261C)s
0.0 10 10 f.R ft(,)s
2015 X(since)s
2245 X(those)s
2481 X(options)s
2801 X(are)s
2947 X(normally)s
3333 X(used)s
3541 X(for)s
3682 X(\256nding)s
3991 X(error)s
4209 X(conditions.)s
694 X
3672 Y
1054 X
0.0 10 10 f.B ft(wwwstat)s
1458 X
0.0 10 10 f.R ft(does)s
1673 X(not)s
1833 X(count)s
2087 X("visitors")s
2496 X(--)s
2594 X(individual)s
3032 X(people)s
3330 X(or)s
3445 X(programs)s
3854 X(making)s
4186 X(the)s
4340 X(requests.)s
4724 X(HTTP)s
5006 X(does)s
5221 X(not,)s
694 X
3792 Y
1054 X(by)s
1188 X(default,)s
1524 X(provide)s
1863 X(any)s
2041 X(information)s
2547 X(that)s
2731 X(can)s
2903 X(be)s
3031 X(accurately)s
3474 X(correlated)s
3906 X(to)s
4017 X(an)s
4144 X(individual)s
4583 X(person,)s
4907 X(though)s
5218 X(it)s
5307 X(is)s
694 X
3912 Y
1054 X(possible)s
1423 X(\(in)s
1575 X(an)s
1710 X(unreliable)s
2150 X(manner\))s
2523 X(to)s
2642 X(use)s
2816 X(HTTP)s
3107 X(extensions)s
3570 X(and)s
3754 X(request)s
4082 X(pro\256les)s
4422 X(as)s
4545 X(a)s
4629 X(means)s
4924 X(of)s
5047 X(tracking)s
694 X
4032 Y
1054 X(individual)s
1504 X(client)s
1770 X(programs.)s
2241 X(Such)s
2485 X(tracking)s
2856 X(requires)s
3221 X(extensive)s
3641 X(resources)s
4060 X(\(memory)s
4469 X(and)s
4656 X(diskspace\))s
5120 X(and)s
5307 X(is)s
694 X
4152 Y
1054 X(often)s
1284 X(considered)s
1741 X(a)s
1810 X(violation)s
2191 X(of)s
2299 X(privacy.)s
694 X
4320 Y
1054 X(With)s
1287 X(the)s
1442 X(exception)s
1863 X(of)s
1979 X(the)s
2133 X(ident)s
2365 X(section,)s
2705 X
0.0 10 10 f.B ft(wwwstat)s
3108 X
0.0 10 10 f.R ft(does)s
3323 X(not)s
3483 X(reveal)s
3758 X(information)s
4262 X(about)s
4516 X(the)s
4670 X(individual)s
5108 X(people)s
694 X
4440 Y
1054 X(making)s
1384 X(requests.)s
1791 X(Unless)s
2093 X(the)s
2245 X(output)s
2531 X(is)s
2628 X(limited)s
2942 X(to)s
3050 X(a)s
3124 X(speci\256c)s
3459 X(URL)s
3689 X(or)s
3802 X(a)s
3875 X(speci\256c)s
4209 X(hostname,)s
4646 X
0.0 10 10 f.B ft(wwwstat)s
0.0 10 10 f.R ft('s)s
5118 X(output)s
694 X
4560 Y
1054 X(does)s
1262 X(not)s
1415 X(connect)s
1750 X(the)s
1897 X(requester)s
2287 X(to)s
2390 X(the)s
2537 X(URL)s
2762 X(being)s
3009 X(requested.)s
694 X
4728 Y
874 X
0.0 9 9 f.B ft(Common)s
1252 X
0.0 9 9 f.S2 ft(O)s
0.0 9 9 f.B ft(Log\256le)s
1555 X
0.0 9 9 f.S2 ft(O)s
0.0 9 9 f.B ft(Format)s
1883 X
0.0 9 9 f.S2 ft(O)s
1921 X(O)s
1959 X(O)s
694 X
4848 Y
1054 X
0.0 10 10 f.R ft(The)s
1235 X(httpd)s
1467 X(common)s
1843 X(log\256le)s
2125 X(format)s
2417 X(\(CLF\))s
2692 X(was)s
2872 X(de\256ned)s
3191 X(in)s
3294 X(early)s
3518 X(1994)s
3743 X(as)s
3851 X(the)s
3998 X(result)s
4245 X(of)s
4353 X(discussions)s
4834 X(among)s
5131 X(server)s
694 X
4968 Y
1054 X(and)s
1252 X(access_log)s
1738 X(analyzer)s
2129 X(developers)s
2615 X(\(Roy)s
2869 X(Fielding,)s
3282 X(John)s
3525 X(Franks,)s
3876 X(Kevin)s
4174 X(Hughes,)s
4558 X(Ari)s
4745 X(Luotonen,)s
5207 X(Rob)s
694 X
5088 Y
1054 X(McCool,)s
1437 X(and)s
1611 X(Tony)s
1852 X(Sanders\))s
2231 X(on)s
2361 X(how)s
2563 X(to)s
2671 X(make)s
2917 X(it)s
3003 X(easier)s
3264 X(for)s
3409 X(analysis)s
3760 X(tools)s
3984 X(to)s
4091 X(be)s
4214 X(used)s
4426 X(across)s
4704 X(multiple)s
5067 X(servers.)s
694 X
5208 Y
1054 X(The)s
1234 X(format)s
1525 X(is:)s
694 X
5376 Y
1054 X(remote_host)s
1573 X(ident)s
1798 X(authuser)s
2161 X([date-time)s
2596 X(zone])s
2842 X("Request-Line")s
3487 X(Status-Code)s
4001 X(bytes)s
694 X
5544 Y
1054 X(where)s
1804 X(means)s
694 X
5664 Y
1054 X(------------)s
1804 X(--------------------------------------)s
694 X
5784 Y
1054 X(remote_host)s
1804 X(Client)s
2074 X(DNS)s
2299 X(hostname)s
2707 X(or)s
2815 X(IP)s
2929 X(address)s
694 X
5904 Y
1054 X(ident)s
1804 X(Identity)s
2140 X(check)s
2397 X(token)s
2644 X(or)s
2752 X("\261")s
694 X
6024 Y
1054 X(authuser)s
1804 X(Authorization)s
2384 X(user-id)s
2686 X(or)s
2794 X("\261")s
694 X
6144 Y
1054 X(date-time)s
1804 X(dd/Mmm/yyyy:hh:mm:ss)s
694 X
6264 Y
1054 X(zone)s
1804 X(+dddd)s
2085 X(or)s
2193 X(\261dddd)s
694 X
6384 Y
1054 X(Request-Line)s
1804 X(The)s
2005 X(\256rst)s
2207 X(line)s
2402 X(of)s
2530 X(the)s
2697 X(HTTP)s
2992 X(request,)s
3350 X(which)s
3639 X(normally)s
4045 X(includes)s
4423 X(the)s
4590 X(method,)s
4960 X(URL,)s
5230 X(and)s
694 X
6504 Y
1804 X(HTTP-version.)s
694 X
6624 Y
1054 X(Status-Code)s
1804 X(Response)s
2212 X(status)s
2465 X(from)s
2684 X(server)s
2952 X(or)s
3060 X("\261")s
694 X
6744 Y
1054 X(bytes)s
1804 X(Size)s
2001 X(of)s
2109 X(Entity-Body)s
2629 X(transmitted)s
3104 X(or)s
3212 X("\261")s
694 X
6864 Y
1054 X(------------)s
1804 X(--------------------------------------)s
694 X
7032 Y
1054 X(with)s
1267 X(each)s
1484 X(\256eld)s
1697 X(separated)s
2108 X(by)s
2243 X(a)s
2322 X(single)s
2596 X(space)s
2852 X(\(it)s
2976 X(turns)s
3211 X(out)s
3374 X(that)s
3559 X(problems)s
3966 X(occur)s
4222 X(if)s
4317 X(the)s
4473 X(ident)s
4707 X(token)s
4963 X(contains)s
5330 X(a)s
694 X
7152 Y
1054 X(space,)s
1325 X(which)s
1594 X(was)s
1774 X(not)s
1927 X(anticipated)s
2390 X(by)s
2515 X(the)s
2662 X(original)s
2998 X(designers\).)s
694 X
7680 Y(Sun Release 4.1)s
2382 X(Last change: 03 November 1996)s
5324 X(8)s
7920 Y
page
0.0 10 10 f.R ft
%%Page: 9 9

694 X
480 Y(wwwstat)s
0.0 10 10 f.S2 ft(O)s
0.0 10 10 f.R ft(\()s
0.0 10 10 f.S2 ft(O)s
0.0 10 10 f.R ft(1)s
0.0 10 10 f.S2 ft(O)s
0.0 10 10 f.R ft(\))s
2586 X(USER COMMANDS )s
4852 X(wwwstat)s
0.0 10 10 f.S2 ft(O)s
0.0 10 10 f.R ft(\()s
0.0 10 10 f.S2 ft(O)s
0.0 10 10 f.R ft(1)s
0.0 10 10 f.S2 ft(O)s
0.0 10 10 f.R ft(\))s
694 X
960 Y
0.0 9 9 f.B ft(LIMITATIONS)s
1337 X
0.0 9 9 f.S2 ft(O)s
1375 X(O)s
1413 X(O)s
1451 X(O)s
1489 X(O)s
694 X
1080 Y
1054 X
0.0 10 10 f.B ft(wwwstat)s
1450 X
0.0 10 10 f.R ft(cannot)s
1741 X(be)s
1860 X(more)s
2090 X(accurate)s
2446 X(than)s
2643 X(its)s
2763 X(input.)s
694 X
1248 Y
1054 X(The)s
1239 X(common)s
1619 X(log\256le)s
1905 X(format)s
2201 X(does)s
2414 X(not)s
2572 X(include)s
2896 X(the)s
3048 X(amount)s
3378 X(of)s
3491 X(bytes)s
3732 X(transferred)s
4193 X(in)s
4301 X(HTTP)s
4581 X(header)s
4876 X(\256elds)s
5123 X(and)s
5296 X(in)s
694 X
1368 Y
1054 X(error)s
1291 X(responses.)s
1773 X
0.0 10 10 f.B ft(wwwstat)s
2188 X
0.0 10 10 f.R ft(attempts)s
2571 X(to)s
2693 X(estimate)s
3070 X(those)s
3325 X(bytes)s
3580 X(based)s
3850 X(on)s
3993 X(the)s
4158 X(response)s
4550 X(code.)s
4831 X(Although)s
5252 X(the)s
694 X
1488 Y
1054 X(built-in)s
1381 X(estimates)s
1785 X(will)s
1973 X(su)s
/Cff {   (f) show xsiz pt 20 div neg 0 rmoveto (f) s } def

Cff(ice)s
2271 X(for)s
2419 X(most)s
2646 X(applications,)s
3186 X(your)s
3401 X(results)s
3694 X(will)s
3882 X(be)s
4007 X(more)s
4243 X(accurate)s
4605 X(if)s
4697 X(the)s
4850 X(estimates)s
5253 X(are)s
694 X
1608 Y
1054 X(customized)s
1534 X(for)s
1675 X(the)s
1822 X(particular)s
2229 X(server)s
2497 X(software)s
2865 X(that)s
3040 X(generated)s
3452 X(the)s
3599 X(log\256le.)s
694 X
1776 Y
1054 X(Modern)s
1406 X(httpd)s
1648 X(servers)s
1966 X(have)s
2190 X(extended)s
2586 X(the)s
2744 X(CLF)s
2964 X(to)s
3078 X(include)s
3408 X(additional)s
3844 X(\256elds)s
4097 X(\(Referer)s
4464 X(and)s
4644 X(User-Agent\))s
5178 X(or)s
5296 X(to)s
694 X
1896 Y
1054 X(make)s
1300 X(the)s
1452 X(entire)s
1709 X(format)s
2005 X(con\256gurable.)s
2583 X(Although)s
2990 X
0.0 10 10 f.B ft(wwwstat)s
3390 X
0.0 10 10 f.R ft(is)s
3486 X(able)s
3681 X(to)s
3788 X(read)s
3988 X(log\256les)s
4312 X(which)s
4585 X(append)s
4902 X(information)s
694 X
2016 Y
1054 X(to)s
1160 X(the)s
1310 X(CLF,)s
1547 X(it)s
1631 X(will)s
1815 X(not)s
1971 X(make)s
2215 X(use)s
2376 X(of)s
2487 X(that)s
2665 X(additional)s
3093 X(information.)s
3643 X(However,)s
4061 X
0.0 10 10 f.B ft(wwwstat)s
4460 X
0.0 10 10 f.R ft(is)s
4555 X(written)s
4866 X(in)s
4972 X
0.0 10 10 f.B ft(perl)s
0.0 10 10 f.R ft(,)s
5197 X(so)s
5313 X(if)s
694 X
2136 Y
1054 X(you)s
1229 X(want)s
1448 X(to)s
1551 X(parse)s
1786 X(a)s
1855 X(di)s
Cff(erent)s
2218 X(format)s
2509 X(all)s
2634 X(you)s
2809 X(have)s
3022 X(to)s
3125 X(do)s
3250 X(is)s
3342 X(change)s
3649 X(the)s
3796 X(parsing)s
4115 X(code.)s
694 X
2304 Y
1054 X
0.0 10 10 f.B ft(wwwstat)s
1474 X
0.0 10 10 f.R ft(does)s
1706 X(not)s
1883 X(do)s
2032 X(anything)s
2431 X(with)s
2658 X(Referer)s
3005 X([sic])s
3231 X(or)s
3363 X(User-Agent)s
3877 X(information)s
4398 X(that)s
4597 X(may)s
4818 X(be)s
4960 X(present)s
5296 X(in)s
694 X
2424 Y
1054 X(extended)s
1455 X(log\256les.)s
1841 X(In)s
1965 X(order)s
2216 X(to)s
2335 X(do)s
2475 X(anything)s
2865 X(interesting)s
3327 X(with)s
3545 X(Referer,)s
3908 X(the)s
4070 X(program)s
4448 X(would)s
4738 X(have)s
4966 X(to)s
5084 X(build)s
5330 X(a)s
694 X
2544 Y
1054 X(Request-URI)s
1607 X(x)s
1683 X(Referer)s
2007 X(x)s
2083 X(Count)s
2354 X(table,)s
2599 X(which)s
2869 X(would)s
3145 X(require)s
3453 X(huge)s
3673 X(gobs)s
3888 X(of)s
3997 X(memory)s
4356 X(and)s
4525 X(is)s
4617 X(better)s
4869 X(done)s
5088 X(using)s
5330 X(a)s
694 X
2664 Y
1054 X(separate)s
1405 X(program)s
1768 X(with)s
1971 X(a)s
2040 X(persistent)s
2448 X(database.)s
2866 X(Naturally,)s
3293 X(this)s
3463 X(is)s
3555 X(easy)s
3757 X(to)s
3860 X(do)s
3985 X(once)s
4198 X(you)s
4373 X(learn)s
4597 X
0.0 10 10 f.B ft(perl)s
0.0 10 10 f.R ft(.)s
694 X
2832 Y
0.0 9 9 f.B ft(AUTHOR)s
1112 X
0.0 9 9 f.S2 ft(O)s
1150 X(O)s
1188 X(O)s
1226 X(O)s
1264 X(O)s
694 X
2952 Y
1054 X
0.0 10 10 f.R ft(Roy)s
1268 X(Fielding)s
1648 X(\(\256elding@ics.uci.edu\),)s
2610 X(University)s
3078 X(of)s
3207 X(California,)s
3683 X(Irvine.)s
4017 X(Please)s
4318 X(do)s
4464 X(not)s
4638 X(send)s
4867 X(questions)s
5291 X(or)s
694 X
3072 Y
1054 X(requests)s
1409 X(to)s
1514 X(the)s
1663 X(author,)s
1970 X(since)s
2202 X(the)s
2351 X(number)s
2683 X(of)s
2793 X(requests)s
3147 X(has)s
3307 X(long)s
3512 X(since)s
3744 X(overwhelmed)s
4314 X(his)s
4458 X(ability)s
4741 X(to)s
4846 X(reply,)s
5103 X(and)s
5274 X(all)s
694 X
3192 Y
1054 X(future)s
1317 X(support)s
1642 X(will)s
1823 X(be)s
1942 X(through)s
2278 X(the)s
2425 X(mailing)s
2756 X(list)s
2904 X(\(see)s
3089 X(above\).)s
694 X
3360 Y
1054 X
0.0 10 10 f.B ft(wwwstat)s
1452 X
0.0 10 10 f.R ft(was)s
1634 X(originally)s
2050 X(based)s
2303 X(on)s
2429 X(a)s
2499 X(multi-server)s
3013 X(statistics)s
3384 X(program)s
3748 X(called)s
4012 X
0.0 10 10 f.B ft(fwgstat-0.035)s
4606 X
0.0 10 10 f.R ft(by)s
4732 X(Jonathan)s
5113 X(Magid)s
694 X
3480 Y
1054 X(\(jem@sunsite.unc.edu\))s
2006 X(which,)s
2303 X(in)s
2409 X(turn,)s
2623 X(was)s
2806 X(heavily)s
3128 X(based)s
3383 X(on)s
3511 X
0.0 10 10 f.B ft(xferstats)s
3904 X
0.0 10 10 f.R ft(\(packaged)s
4340 X(with)s
4545 X(the)s
4694 X(version)s
5015 X(17)s
5142 X(of)s
5252 X(the)s
694 X
3600 Y
1054 X(Wuarchive)s
1516 X(FTP)s
1714 X(daemon\))s
2088 X(by)s
2213 X(Chris)s
2455 X(Myers)s
2735 X(\(chris@wugate.wustl.edu\).)s
694 X
3768 Y
1054 X(This)s
1271 X(work)s
1515 X(has)s
1687 X(been)s
1914 X(sponsored)s
2358 X(in)s
2474 X(part)s
2667 X(by)s
2805 X(the)s
2965 X(Defense)s
3329 X(Advanced)s
3771 X(Research)s
4174 X(Projects)s
4534 X(Agency)s
4882 X(under)s
5147 X(Grant)s
694 X
3888 Y
1054 X(Numbers)s
1473 X(MDA972-91-J-1010)s
2346 X(and)s
2542 X(F30602-94-C-0218.)s
3416 X(This)s
3646 X(software)s
4041 X(does)s
4276 X(not)s
4456 X(necessarily)s
4951 X(re\257ect)s
5252 X(the)s
694 X
4008 Y
1054 X(position)s
1402 X(or)s
1510 X(policy)s
1785 X(of)s
1893 X(the)s
2040 X(U.S.)s
2243 X(Government)s
2767 X(and)s
2936 X(no)s
3061 X(o)s
Cff(icial)s
3369 X(endorsement)s
3904 X(should)s
4196 X(be)s
4315 X(inferred.)s
694 X
7680 Y(Sun Release 4.1)s
2382 X(Last change: 03 November 1996)s
5324 X(9)s
7920 Y
page
0.0 10 10 f.R ft
%%Trailer
%%DocumentFonts: 
count { pop } repeat % a little cleanup is necessary
vmstat restore
